[
    {
        "3L9SmG6b": "100",
        "gvT2ds0Q": "1",
        "nm1USVcx": "20",
        "P_SKILL_NAME": "\u30c6\u30b9\u30c8\u30b9\u30ad\u30eb100",
        "P_GROUP_ID": "1",
        "P_PRIORITY": "1",
        "P_RARE": "1",
        "moWQ30GH": "3",
        "P_PASSIVE_SKILL_GROUP_INFO": "",
        "P_EXT_IMG_PARAM": "",
        "H49qP1tw": "1",
        "97yTNbfr": "1",
        "P_NEED_SWITCH_INFO": "0",
        "P_HIDE_SWITCH_INFO": "0",
        "P_OPEN_SWITCH_INFO": "0",
        "P_CREATEDATE": "2018-09-25 01:26:04",
        "P_UPDATEDATE": "2018-09-25 01:26:04"
    },
    {
        "3L9SmG6b": "110",
        "gvT2ds0Q": "2",
        "nm1USVcx": "30",
        "P_SKILL_NAME": "\u30c6\u30b9\u30c8\u30b9\u30ad\u30eb",
        "P_GROUP_ID": "1",
        "P_PRIORITY": "2",
        "P_RARE": "2",
        "moWQ30GH": "3",
        "P_PASSIVE_SKILL_GROUP_INFO": "111",
        "P_EXT_IMG_PARAM": "",
        "H49qP1tw": "1",
        "97yTNbfr": "3",
        "P_NEED_SWITCH_INFO": "0",
        "P_HIDE_SWITCH_INFO": "0",
        "P_OPEN_SWITCH_INFO": "0",
        "P_CREATEDATE": "2018-09-25 01:26:04",
        "P_UPDATEDATE": "2018-09-25 01:26:04"
    },
    {
        "3L9SmG6b": "120",
        "gvT2ds0Q": "3",
        "nm1USVcx": "40",
        "P_SKILL_NAME": "\u30c6\u30b9\u30c8\u30b9\u30ad\u30eb",
        "P_GROUP_ID": "1",
        "P_PRIORITY": "3",
        "P_RARE": "3",
        "moWQ30GH": "3",
        "P_PASSIVE_SKILL_GROUP_INFO": "222",
        "P_EXT_IMG_PARAM": "",
        "H49qP1tw": "1",
        "97yTNbfr": "4",
        "P_NEED_SWITCH_INFO": "0",
        "P_HIDE_SWITCH_INFO": "0",
        "P_OPEN_SWITCH_INFO": "0",
        "P_CREATEDATE": "2018-09-25 01:26:04",
        "P_UPDATEDATE": "2018-09-25 01:26:04"
    },
    {
        "3L9SmG6b": "10000",
        "gvT2ds0Q": "1",
        "nm1USVcx": "10",
        "P_SKILL_NAME": "\u69cd\uff1a\u6a39\u26053\u30b9\u30ad\u30eb",
        "P_GROUP_ID": "1",
        "P_PRIORITY": "4",
        "P_RARE": "1",
        "moWQ30GH": "3",
        "P_PASSIVE_SKILL_GROUP_INFO": "333",
        "P_EXT_IMG_PARAM": "",
        "H49qP1tw": "1",
        "97yTNbfr": "5",
        "P_NEED_SWITCH_INFO": "0",
        "P_HIDE_SWITCH_INFO": "0",
        "P_OPEN_SWITCH_INFO": "0",
        "P_CREATEDATE": "2018-09-25 01:26:04",
        "P_UPDATEDATE": "2018-09-25 01:26:04"
    },
    {
        "3L9SmG6b": "10001",
        "gvT2ds0Q": "1",
        "nm1USVcx": "10",
        "P_SKILL_NAME": "\u6756\uff1a\u6c34\u26053\u30b9\u30ad\u30eb",
        "P_GROUP_ID": "1",
        "P_PRIORITY": "5",
        "P_RARE": "1",
        "moWQ30GH": "3",
        "P_PASSIVE_SKILL_GROUP_INFO": "",
        "P_EXT_IMG_PARAM": "",
        "H49qP1tw": "1",
        "97yTNbfr": "6",
        "P_NEED_SWITCH_INFO": "0",
        "P_HIDE_SWITCH_INFO": "0",
        "P_OPEN_SWITCH_INFO": "0",
        "P_CREATEDATE": "2018-09-25 01:26:04",
        "P_UPDATEDATE": "2018-09-25 01:26:04"
    },
    {
        "3L9SmG6b": "10002",
        "gvT2ds0Q": "2",
        "nm1USVcx": "20",
        "P_SKILL_NAME": "\u5f13\uff1a\u95c7\u26055\u30b9\u30ad\u30eb",
        "P_GROUP_ID": "1",
        "P_PRIORITY": "6",
        "P_RARE": "1",
        "moWQ30GH": "3",
        "P_PASSIVE_SKILL_GROUP_INFO": "",
        "P_EXT_IMG_PARAM": "",
        "H49qP1tw": "1",
        "97yTNbfr": "6",
        "P_NEED_SWITCH_INFO": "0",
        "P_HIDE_SWITCH_INFO": "0",
        "P_OPEN_SWITCH_INFO": "0",
        "P_CREATEDATE": "2018-09-25 01:26:04",
        "P_UPDATEDATE": "2018-09-25 01:26:04"
    },
    {
        "3L9SmG6b": "10003",
        "gvT2ds0Q": "2",
        "nm1USVcx": "20",
        "P_SKILL_NAME": "\u6226\u65a7\uff1a\u95c7\u26054\u30b9\u30ad\u30eb",
        "P_GROUP_ID": "1",
        "P_PRIORITY": "7",
        "P_RARE": "1",
        "moWQ30GH": "3",
        "P_PASSIVE_SKILL_GROUP_INFO": "",
        "P_EXT_IMG_PARAM": "",
        "H49qP1tw": "1",
        "97yTNbfr": "6",
        "P_NEED_SWITCH_INFO": "0",
        "P_HIDE_SWITCH_INFO": "0",
        "P_OPEN_SWITCH_INFO": "0",
        "P_CREATEDATE": "2018-09-25 01:26:04",
        "P_UPDATEDATE": "2018-09-25 01:26:04"
    },
    {
        "3L9SmG6b": "10004",
        "gvT2ds0Q": "3",
        "nm1USVcx": "30",
        "P_SKILL_NAME": "\u5927\u5263\uff1a\u5149\u26054\u30b9\u30ad\u30eb",
        "P_GROUP_ID": "1",
        "P_PRIORITY": "8",
        "P_RARE": "1",
        "moWQ30GH": "3",
        "P_PASSIVE_SKILL_GROUP_INFO": "",
        "P_EXT_IMG_PARAM": "",
        "H49qP1tw": "1",
        "97yTNbfr": "6",
        "P_NEED_SWITCH_INFO": "0",
        "P_HIDE_SWITCH_INFO": "0",
        "P_OPEN_SWITCH_INFO": "0",
        "P_CREATEDATE": "2018-09-25 01:26:04",
        "P_UPDATEDATE": "2018-09-25 01:26:04"
    },
    {
        "3L9SmG6b": "10005",
        "gvT2ds0Q": "3",
        "nm1USVcx": "30",
        "P_SKILL_NAME": "\u9b54\u6cd5\u9283\uff1a\u96f7\u26054\u30b9\u30ad\u30eb",
        "P_GROUP_ID": "1",
        "P_PRIORITY": "9",
        "P_RARE": "1",
        "moWQ30GH": "3",
        "P_PASSIVE_SKILL_GROUP_INFO": "",
        "P_EXT_IMG_PARAM": "",
        "H49qP1tw": "1",
        "97yTNbfr": "6",
        "P_NEED_SWITCH_INFO": "0",
        "P_HIDE_SWITCH_INFO": "0",
        "P_OPEN_SWITCH_INFO": "0",
        "P_CREATEDATE": "2018-09-25 01:26:04",
        "P_UPDATEDATE": "2018-09-25 01:26:04"
    },
    {
        "3L9SmG6b": "10010201",
        "gvT2ds0Q": "1",
        "nm1USVcx": "10",
        "P_SKILL_NAME": "\u708e\u306e\u529b",
        "P_GROUP_ID": "1",
        "P_PRIORITY": "1",
        "P_RARE": "1",
        "moWQ30GH": "3",
        "P_PASSIVE_SKILL_GROUP_INFO": "1001001",
        "P_EXT_IMG_PARAM": "1:\u653b\u6483\u529b\u30925%\u30a2\u30c3\u30d7",
        "H49qP1tw": "1",
        "97yTNbfr": "1",
        "P_NEED_SWITCH_INFO": "0",
        "P_HIDE_SWITCH_INFO": "0",
        "P_OPEN_SWITCH_INFO": "0",
        "P_CREATEDATE": "2018-09-25 01:26:04",
        "P_UPDATEDATE": "2018-09-25 01:26:04"
    },
    {
        "3L9SmG6b": "10011301",
        "gvT2ds0Q": "2",
        "nm1USVcx": "50",
        "P_SKILL_NAME": "\u9b42\u7114\u306e\u529b",
        "P_GROUP_ID": "1",
        "P_PRIORITY": "2",
        "P_RARE": "2",
        "moWQ30GH": "3",
        "P_PASSIVE_SKILL_GROUP_INFO": "1001002",
        "P_EXT_IMG_PARAM": "1:\u653b\u6483\u529b\u309210%\u30a2\u30c3\u30d7",
        "H49qP1tw": "1",
        "97yTNbfr": "1",
        "P_NEED_SWITCH_INFO": "0",
        "P_HIDE_SWITCH_INFO": "0",
        "P_OPEN_SWITCH_INFO": "0",
        "P_CREATEDATE": "2018-09-25 01:26:04",
        "P_UPDATEDATE": "2018-09-25 01:26:04"
    },
    {
        "3L9SmG6b": "10012401",
        "gvT2ds0Q": "3",
        "nm1USVcx": "100",
        "P_SKILL_NAME": "\u9b42\u71c3\u3086\u308b\u529b",
        "P_GROUP_ID": "1",
        "P_PRIORITY": "3",
        "P_RARE": "3",
        "moWQ30GH": "3",
        "P_PASSIVE_SKILL_GROUP_INFO": "1001003",
        "P_EXT_IMG_PARAM": "1:\u653b\u6483\u529b\u309215%\u30a2\u30c3\u30d7",
        "H49qP1tw": "1",
        "97yTNbfr": "1",
        "P_NEED_SWITCH_INFO": "0",
        "P_HIDE_SWITCH_INFO": "0",
        "P_OPEN_SWITCH_INFO": "0",
        "P_CREATEDATE": "2018-09-25 01:26:04",
        "P_UPDATEDATE": "2018-09-25 01:26:04"
    },
    {
        "3L9SmG6b": "10012402",
        "gvT2ds0Q": "4",
        "nm1USVcx": "200",
        "P_SKILL_NAME": "\u707c\u9b44\u306b\u5bbf\u308b\u529b",
        "P_GROUP_ID": "1",
        "P_PRIORITY": "4",
        "P_RARE": "4",
        "moWQ30GH": "3",
        "P_PASSIVE_SKILL_GROUP_INFO": "1001004",
        "P_EXT_IMG_PARAM": "1:\u653b\u6483\u529b\u309220%\u30a2\u30c3\u30d7",
        "H49qP1tw": "1",
        "97yTNbfr": "1",
        "P_NEED_SWITCH_INFO": "0",
        "P_HIDE_SWITCH_INFO": "0",
        "P_OPEN_SWITCH_INFO": "0",
        "P_CREATEDATE": "2018-09-25 01:26:04",
        "P_UPDATEDATE": "2018-09-25 01:26:04"
    },
    {
        "3L9SmG6b": "10021401",
        "gvT2ds0Q": "2",
        "nm1USVcx": "150",
        "P_SKILL_NAME": "\u5d29\u6253\u306e\u9583\u5203",
        "P_GROUP_ID": "1",
        "P_PRIORITY": "25",
        "P_RARE": "2",
        "moWQ30GH": "3",
        "P_PASSIVE_SKILL_GROUP_INFO": "3020006",
        "P_EXT_IMG_PARAM": "2:\u30af\u30ea\u30c6\u30a3\u30ab\u30eb\u30c0\u30e1\u30fc\u30b8\u309210%\u30a2\u30c3\u30d7",
        "H49qP1tw": "1",
        "97yTNbfr": "2",
        "P_NEED_SWITCH_INFO": "0",
        "P_HIDE_SWITCH_INFO": "0",
        "P_OPEN_SWITCH_INFO": "0",
        "P_CREATEDATE": "2018-09-25 01:26:04",
        "P_UPDATEDATE": "2018-09-25 01:26:04"
    },
    {
        "3L9SmG6b": "10021402",
        "gvT2ds0Q": "3",
        "nm1USVcx": "300",
        "P_SKILL_NAME": "\u754c\u6ec5\u306e\u9583\u5203",
        "P_GROUP_ID": "1",
        "P_PRIORITY": "26",
        "P_RARE": "4",
        "moWQ30GH": "3",
        "P_PASSIVE_SKILL_GROUP_INFO": "3020008",
        "P_EXT_IMG_PARAM": "2:\u30af\u30ea\u30c6\u30a3\u30ab\u30eb\u30c0\u30e1\u30fc\u30b8\u309220%\u30a2\u30c3\u30d7",
        "H49qP1tw": "1",
        "97yTNbfr": "2",
        "P_NEED_SWITCH_INFO": "0",
        "P_HIDE_SWITCH_INFO": "0",
        "P_OPEN_SWITCH_INFO": "0",
        "P_CREATEDATE": "2018-09-25 01:26:04",
        "P_UPDATEDATE": "2018-09-25 01:26:04"
    },
    {
        "3L9SmG6b": "10031301",
        "gvT2ds0Q": "3",
        "nm1USVcx": "150",
        "P_SKILL_NAME": "\u64cd\u708e\u306e\u9663",
        "P_GROUP_ID": "1",
        "P_PRIORITY": "1005",
        "P_RARE": "2",
        "moWQ30GH": "3",
        "P_PASSIVE_SKILL_GROUP_INFO": "1005002",
        "P_EXT_IMG_PARAM": "1:\u653b\u6483\u529b\u30fb\u9632\u5fa1\u529b\u309210%\u30a2\u30c3\u30d7",
        "H49qP1tw": "1",
        "97yTNbfr": "1",
        "P_NEED_SWITCH_INFO": "0",
        "P_HIDE_SWITCH_INFO": "0",
        "P_OPEN_SWITCH_INFO": "0",
        "P_CREATEDATE": "2018-09-25 01:26:04",
        "P_UPDATEDATE": "2018-09-25 01:26:04"
    },
    {
        "3L9SmG6b": "10031401",
        "gvT2ds0Q": "4",
        "nm1USVcx": "300",
        "P_SKILL_NAME": "\u81e5\u7114\u306e\u9663",
        "P_GROUP_ID": "1",
        "P_PRIORITY": "1006",
        "P_RARE": "3",
        "moWQ30GH": "3",
        "P_PASSIVE_SKILL_GROUP_INFO": "1005003",
        "P_EXT_IMG_PARAM": "1:\u653b\u6483\u529b\u30fb\u9632\u5fa1\u529b\u309215%\u30a2\u30c3\u30d7",
        "H49qP1tw": "1",
        "97yTNbfr": "1",
        "P_NEED_SWITCH_INFO": "0",
        "P_HIDE_SWITCH_INFO": "0",
        "P_OPEN_SWITCH_INFO": "0",
        "P_CREATEDATE": "2018-09-25 01:26:04",
        "P_UPDATEDATE": "2018-09-25 01:26:04"
    },
    {
        "3L9SmG6b": "10031402",
        "gvT2ds0Q": "4",
        "nm1USVcx": "300",
        "P_SKILL_NAME": "\u932c\u5145\u306e\u95d8\u5fd7",
        "P_GROUP_ID": "1",
        "P_PRIORITY": "1007",
        "P_RARE": "4",
        "moWQ30GH": "3",
        "P_PASSIVE_SKILL_GROUP_INFO": "1017034",
        "P_EXT_IMG_PARAM": "1:BB\u30b2\u30fc\u30b8\u304c\u6e80\u30bf\u30f3\u6642\u3001\u653b\u6483\u529b\u309225%\u30a2\u30c3\u30d7",
        "H49qP1tw": "1",
        "97yTNbfr": "1",
        "P_NEED_SWITCH_INFO": "0",
        "P_HIDE_SWITCH_INFO": "0",
        "P_OPEN_SWITCH_INFO": "0",
        "P_CREATEDATE": "2018-09-25 01:26:04",
        "P_UPDATEDATE": "2018-09-25 01:26:04"
    },
    {
        "3L9SmG6b": "10045401",
        "gvT2ds0Q": "2",
        "nm1USVcx": "200",
        "P_SKILL_NAME": "\u708e\u7fd4\u306e\u65cb\u811a",
        "P_GROUP_ID": "1",
        "P_PRIORITY": "1029",
        "P_RARE": "2",
        "moWQ30GH": "3",
        "P_PASSIVE_SKILL_GROUP_INFO": "5020005",
        "P_EXT_IMG_PARAM": "6:\u901a\u5e38\u653b\u6483\u6642\u3001BB\u30b2\u30fc\u30b8\u3092200\u5897\u52a0",
        "H49qP1tw": "1",
        "97yTNbfr": "6",
        "P_NEED_SWITCH_INFO": "0",
        "P_HIDE_SWITCH_INFO": "0",
        "P_OPEN_SWITCH_INFO": "0",
        "P_CREATEDATE": "2018-09-25 01:26:04",
        "P_UPDATEDATE": "2018-09-25 01:26:04"
    },
    {
        "3L9SmG6b": "10045402",
        "gvT2ds0Q": "4",
        "nm1USVcx": "200",
        "P_SKILL_NAME": "\u77ac\u51f0\u306e\u5636\u304d",
        "P_GROUP_ID": "1",
        "P_PRIORITY": "1030",
        "P_RARE": "4",
        "moWQ30GH": "3",
        "P_PASSIVE_SKILL_GROUP_INFO": "1001004",
        "P_EXT_IMG_PARAM": "1:\u653b\u6483\u529b\u309220%\u30a2\u30c3\u30d7",
        "H49qP1tw": "1",
        "97yTNbfr": "1",
        "P_NEED_SWITCH_INFO": "0",
        "P_HIDE_SWITCH_INFO": "0",
        "P_OPEN_SWITCH_INFO": "0",
        "P_CREATEDATE": "2018-09-25 01:26:04",
        "P_UPDATEDATE": "2018-09-25 01:26:04"
    },
    {
        "3L9SmG6b": "10045403",
        "gvT2ds0Q": "1",
        "nm1USVcx": "200",
        "P_SKILL_NAME": "\u967d\u708e\u8fc5",
        "P_GROUP_ID": "1",
        "P_PRIORITY": "1031",
        "P_RARE": "3",
        "moWQ30GH": "3",
        "P_PASSIVE_SKILL_GROUP_INFO": "10200002",
        "P_EXT_IMG_PARAM": "10:2%\u306e\u78ba\u7387\u3067\u30c0\u30e1\u30fc\u30b8\u3092\u56de\u907f",
        "H49qP1tw": "1",
        "97yTNbfr": "10",
        "P_NEED_SWITCH_INFO": "0",
        "P_HIDE_SWITCH_INFO": "0",
        "P_OPEN_SWITCH_INFO": "0",
        "P_CREATEDATE": "2018-09-25 01:26:04",
        "P_UPDATEDATE": "2018-09-25 01:26:04"
    },
    {
        "3L9SmG6b": "10046401",
        "gvT2ds0Q": "2",
        "nm1USVcx": "200",
        "P_SKILL_NAME": "\u9b54\u932b\u306e\u529b",
        "P_GROUP_ID": "1",
        "P_PRIORITY": "49",
        "P_RARE": "4",
        "moWQ30GH": "3",
        "P_PASSIVE_SKILL_GROUP_INFO": "5050004",
        "P_EXT_IMG_PARAM": "6:BC\u7372\u5f97\u6642\u306e\u5897\u52a0\u91cf\u309225%\u30a2\u30c3\u30d7",
        "H49qP1tw": "1",
        "97yTNbfr": "6",
        "P_NEED_SWITCH_INFO": "0",
        "P_HIDE_SWITCH_INFO": "0",
        "P_OPEN_SWITCH_INFO": "0",
        "P_CREATEDATE": "2018-09-25 01:26:04",
        "P_UPDATEDATE": "2018-09-25 01:26:04"
    },
    {
        "3L9SmG6b": "10046402",
        "gvT2ds0Q": "3",
        "nm1USVcx": "300",
        "P_SKILL_NAME": "\u7dcb\u306e\u6ec5\u708e",
        "P_GROUP_ID": "1",
        "P_PRIORITY": "50",
        "P_RARE": "4",
        "moWQ30GH": "3",
        "P_PASSIVE_SKILL_GROUP_INFO": "4020004",
        "P_EXT_IMG_PARAM": "13:\u708e\u5c5e\u6027\u6b66\u5668\u306e\u5f31\u70b9\u5c5e\u6027\u30c0\u30e1\u30fc\u30b8\u309225%\u30a2\u30c3\u30d7",
        "H49qP1tw": "1",
        "97yTNbfr": "13",
        "P_NEED_SWITCH_INFO": "0",
        "P_HIDE_SWITCH_INFO": "0",
        "P_OPEN_SWITCH_INFO": "0",
        "P_CREATEDATE": "2018-09-25 01:26:04",
        "P_UPDATEDATE": "2018-09-25 01:26:04"
    },
    {
        "3L9SmG6b": "10046403",
        "gvT2ds0Q": "4",
        "nm1USVcx": "500",
        "P_SKILL_NAME": "\u7149\u71d0\u306e\u53db\u8f1d",
        "P_GROUP_ID": "1",
        "P_PRIORITY": "51",
        "P_RARE": "4",
        "moWQ30GH": "3",
        "P_PASSIVE_SKILL_GROUP_INFO": "5040015",
        "P_EXT_IMG_PARAM": "6:\u88ab\u30c0\u30e1\u30fc\u30b8\u6642\u3001BB\u30b2\u30fc\u30b8\u3092200\u5897\u52a0\uff081\u30bf\u30fc\u30f33\u56de\u307e\u3067\uff09",
        "H49qP1tw": "1",
        "97yTNbfr": "6",
        "P_NEED_SWITCH_INFO": "0",
        "P_HIDE_SWITCH_INFO": "0",
        "P_OPEN_SWITCH_INFO": "0",
        "P_CREATEDATE": "2018-09-25 01:26:04",
        "P_UPDATEDATE": "2018-09-25 01:26:04"
    },
    {
        "3L9SmG6b": "10051401",
        "gvT2ds0Q": "1",
        "nm1USVcx": "200",
        "P_SKILL_NAME": "\u7d05\u6ec5\u306e\u5203",
        "P_GROUP_ID": "1",
        "P_PRIORITY": "1038",
        "P_RARE": "4",
        "moWQ30GH": "3",
        "P_PASSIVE_SKILL_GROUP_INFO": "4020004",
        "P_EXT_IMG_PARAM": "13:\u708e\u5c5e\u6027\u6b66\u5668\u306e\u5f31\u70b9\u5c5e\u6027\u30c0\u30e1\u30fc\u30b8\u309225%\u30a2\u30c3\u30d7",
        "H49qP1tw": "1",
        "97yTNbfr": "13",
        "P_NEED_SWITCH_INFO": "0",
        "P_HIDE_SWITCH_INFO": "0",
        "P_OPEN_SWITCH_INFO": "0",
        "P_CREATEDATE": "2018-09-25 01:26:04",
        "P_UPDATEDATE": "2018-09-25 01:26:04"
    },
    {
        "3L9SmG6b": "10051402",
        "gvT2ds0Q": "3",
        "nm1USVcx": "300",
        "P_SKILL_NAME": "\u5929\u6148\u306e\u9583\u7652",
        "P_GROUP_ID": "1",
        "P_PRIORITY": "1039",
        "P_RARE": "4",
        "moWQ30GH": "3",
        "P_PASSIVE_SKILL_GROUP_INFO": "11090002",
        "P_EXT_IMG_PARAM": "15:\u30b9\u30d1\u30fc\u30af\u56de\u6570\u304c10\u56de\u3092\u8d85\u3048\u308b\u6bce\u306b\u300c3\u30bf\u30fc\u30f3\u3001\u30bf\u30fc\u30f3\u6bce\u306bHP\u3092300\u301c500\u56de\u5fa9\u300d\u3092\u767a\u52d5",
        "H49qP1tw": "1",
        "97yTNbfr": "11",
        "P_NEED_SWITCH_INFO": "0",
        "P_HIDE_SWITCH_INFO": "0",
        "P_OPEN_SWITCH_INFO": "0",
        "P_CREATEDATE": "2018-09-25 01:26:04",
        "P_UPDATEDATE": "2018-09-25 01:26:04"
    },
    {
        "3L9SmG6b": "10051403",
        "gvT2ds0Q": "2",
        "nm1USVcx": "400",
        "P_SKILL_NAME": "\u8000\u9a0e\u306e\u77ac\u5203",
        "P_GROUP_ID": "1",
        "P_PRIORITY": "1040",
        "P_RARE": "4",
        "moWQ30GH": "3",
        "P_PASSIVE_SKILL_GROUP_INFO": "4030000",
        "P_EXT_IMG_PARAM": "13:\u901a\u5e38\u653b\u6483\u306eHIT\u6570\u30921\u5897\u52a0",
        "H49qP1tw": "1",
        "97yTNbfr": "13",
        "P_NEED_SWITCH_INFO": "0",
        "P_HIDE_SWITCH_INFO": "0",
        "P_OPEN_SWITCH_INFO": "0",
        "P_CREATEDATE": "2018-09-25 01:26:04",
        "P_UPDATEDATE": "2018-09-25 01:26:04"
    },
    {
        "3L9SmG6b": "10051404",
        "gvT2ds0Q": "3",
        "nm1USVcx": "600",
        "P_SKILL_NAME": "\u95d8\u8a93\u306e\u9583\u97ff",
        "P_GROUP_ID": "1",
        "P_PRIORITY": "1041",
        "P_RARE": "4",
        "moWQ30GH": "3",
        "P_PASSIVE_SKILL_GROUP_INFO": "5070016",
        "P_EXT_IMG_PARAM": "11:\u30b9\u30d1\u30fc\u30af\u6642\u300150%\u306e\u78ba\u7387\u3067BB\u30b2\u30fc\u30b8\u3092100\u301c200\u5897\u52a0\uff081\u30bf\u30fc\u30f35\u56de\u307e\u3067\uff09",
        "H49qP1tw": "1",
        "97yTNbfr": "11",
        "P_NEED_SWITCH_INFO": "0",
        "P_HIDE_SWITCH_INFO": "0",
        "P_OPEN_SWITCH_INFO": "0",
        "P_CREATEDATE": "2018-09-25 01:26:04",
        "P_UPDATEDATE": "2018-09-25 01:26:04"
    },
    {
        "3L9SmG6b": "10051405",
        "gvT2ds0Q": "6",
        "nm1USVcx": "800",
        "P_SKILL_NAME": "\u7d05\u8000\u306e\u7fa9\u5a01",
        "P_GROUP_ID": "1",
        "P_PRIORITY": "1042",
        "P_RARE": "4",
        "moWQ30GH": "3",
        "P_PASSIVE_SKILL_GROUP_INFO": "1015004",
        "P_EXT_IMG_PARAM": "1:\u5168\u80fd\u529b\u309220%\u30a2\u30c3\u30d7",
        "H49qP1tw": "1",
        "97yTNbfr": "1",
        "P_NEED_SWITCH_INFO": "0",
        "P_HIDE_SWITCH_INFO": "0",
        "P_OPEN_SWITCH_INFO": "0",
        "P_CREATEDATE": "2018-09-25 01:26:04",
        "P_UPDATEDATE": "2018-09-25 01:26:04"
    },
    {
        "3L9SmG6b": "20016401",
        "gvT2ds0Q": "3",
        "nm1USVcx": "150",
        "P_SKILL_NAME": "\u84bc\u304d\u5b88\u308a",
        "P_GROUP_ID": "1",
        "P_PRIORITY": "12",
        "P_RARE": "3",
        "moWQ30GH": "3",
        "P_PASSIVE_SKILL_GROUP_INFO": "1010002",
        "P_EXT_IMG_PARAM": "1:\u9b54\u9632\u529b\u30fb\u6700\u5927HP\u309210%\u30a2\u30c3\u30d7",
        "H49qP1tw": "1",
        "97yTNbfr": "1",
        "P_NEED_SWITCH_INFO": "0",
        "P_HIDE_SWITCH_INFO": "0",
        "P_OPEN_SWITCH_INFO": "0",
        "P_CREATEDATE": "2018-09-25 01:26:04",
        "P_UPDATEDATE": "2018-09-25 01:26:04"
    },
    {
        "3L9SmG6b": "20016402",
        "gvT2ds0Q": "4",
        "nm1USVcx": "300",
        "P_SKILL_NAME": "\u63fa\u308b\u304e\u306a\u304d\u84bc\u885b",
        "P_GROUP_ID": "1",
        "P_PRIORITY": "13",
        "P_RARE": "4",
        "moWQ30GH": "3",
        "P_PASSIVE_SKILL_GROUP_INFO": "1010003",
        "P_EXT_IMG_PARAM": "1:\u9b54\u9632\u529b\u30fb\u6700\u5927HP\u309215%\u30a2\u30c3\u30d7",
        "H49qP1tw": "1",
        "97yTNbfr": "1",
        "P_NEED_SWITCH_INFO": "0",
        "P_HIDE_SWITCH_INFO": "0",
        "P_OPEN_SWITCH_INFO": "0",
        "P_CREATEDATE": "2018-09-25 01:26:04",
        "P_UPDATEDATE": "2018-09-25 01:26:04"
    },
    {
        "3L9SmG6b": "20017201",
        "gvT2ds0Q": "1",
        "nm1USVcx": "10",
        "P_SKILL_NAME": "\u6e05\u6d44\u306e\u5b88\u308a",
        "P_GROUP_ID": "1",
        "P_PRIORITY": "14",
        "P_RARE": "1",
        "moWQ30GH": "3",
        "P_PASSIVE_SKILL_GROUP_INFO": "1003001",
        "P_EXT_IMG_PARAM": "12:\u9b54\u9632\u529b\u30925%\u30a2\u30c3\u30d7",
        "H49qP1tw": "1",
        "97yTNbfr": "1",
        "P_NEED_SWITCH_INFO": "0",
        "P_HIDE_SWITCH_INFO": "0",
        "P_OPEN_SWITCH_INFO": "0",
        "P_CREATEDATE": "2018-09-25 01:26:04",
        "P_UPDATEDATE": "2018-09-25 01:26:04"
    },
    {
        "3L9SmG6b": "20017202",
        "gvT2ds0Q": "2",
        "nm1USVcx": "50",
        "P_SKILL_NAME": "\u546a\u6bd2\u306e\u907f\u5384",
        "P_GROUP_ID": "1",
        "P_PRIORITY": "15",
        "P_RARE": "2",
        "moWQ30GH": "3",
        "P_PASSIVE_SKILL_GROUP_INFO": "8016100",
        "P_EXT_IMG_PARAM": "5:\u6bd2\u30fb\u546a\u3044\u8010\u6027\u309230%\u30a2\u30c3\u30d7",
        "H49qP1tw": "1",
        "97yTNbfr": "5",
        "P_NEED_SWITCH_INFO": "0",
        "P_HIDE_SWITCH_INFO": "0",
        "P_OPEN_SWITCH_INFO": "0",
        "P_CREATEDATE": "2018-09-25 01:26:04",
        "P_UPDATEDATE": "2018-09-25 01:26:04"
    },
    {
        "3L9SmG6b": "20017301",
        "gvT2ds0Q": "2",
        "nm1USVcx": "50",
        "P_SKILL_NAME": "\u8056\u6d44\u306a\u308b\u5b88\u308a",
        "P_GROUP_ID": "1",
        "P_PRIORITY": "16",
        "P_RARE": "2",
        "moWQ30GH": "3",
        "P_PASSIVE_SKILL_GROUP_INFO": "1003002",
        "P_EXT_IMG_PARAM": "12:\u9b54\u9632\u529b\u309210%\u30a2\u30c3\u30d7",
        "H49qP1tw": "1",
        "97yTNbfr": "1",
        "P_NEED_SWITCH_INFO": "0",
        "P_HIDE_SWITCH_INFO": "0",
        "P_OPEN_SWITCH_INFO": "0",
        "P_CREATEDATE": "2018-09-25 01:26:04",
        "P_UPDATEDATE": "2018-09-25 01:26:04"
    },
    {
        "3L9SmG6b": "20017302",
        "gvT2ds0Q": "2",
        "nm1USVcx": "100",
        "P_SKILL_NAME": "\u4f53\u96e3\u306e\u907f\u5384",
        "P_GROUP_ID": "1",
        "P_PRIORITY": "17",
        "P_RARE": "2",
        "moWQ30GH": "3",
        "P_PASSIVE_SKILL_GROUP_INFO": "8016200",
        "P_EXT_IMG_PARAM": "5:\u602a\u6211\u30fb\u5f31\u4f53\u30fb\u75c5\u6c17\u30fb\u9ebb\u75fa\u8010\u6027\u309230%\u30a2\u30c3\u30d7",
        "H49qP1tw": "1",
        "97yTNbfr": "5",
        "P_NEED_SWITCH_INFO": "0",
        "P_HIDE_SWITCH_INFO": "0",
        "P_OPEN_SWITCH_INFO": "0",
        "P_CREATEDATE": "2018-09-25 01:26:04",
        "P_UPDATEDATE": "2018-09-25 01:26:04"
    },
    {
        "3L9SmG6b": "20017401",
        "gvT2ds0Q": "3",
        "nm1USVcx": "100",
        "P_SKILL_NAME": "\u8056\u5c0e\u8a98\u6cbb\u306e\u5b88\u308a",
        "P_GROUP_ID": "1",
        "P_PRIORITY": "18",
        "P_RARE": "3",
        "moWQ30GH": "3",
        "P_PASSIVE_SKILL_GROUP_INFO": "1003003",
        "P_EXT_IMG_PARAM": "12:\u9b54\u9632\u529b\u309215%\u30a2\u30c3\u30d7",
        "H49qP1tw": "1",
        "97yTNbfr": "1",
        "P_NEED_SWITCH_INFO": "0",
        "P_HIDE_SWITCH_INFO": "0",
        "P_OPEN_SWITCH_INFO": "0",
        "P_CREATEDATE": "2018-09-25 01:26:04",
        "P_UPDATEDATE": "2018-09-25 01:26:04"
    },
    {
        "3L9SmG6b": "20017402",
        "gvT2ds0Q": "2",
        "nm1USVcx": "100",
        "P_SKILL_NAME": "\u5fc3\u96e3\u306e\u907f\u5384",
        "P_GROUP_ID": "1",
        "P_PRIORITY": "19",
        "P_RARE": "2",
        "moWQ30GH": "3",
        "P_PASSIVE_SKILL_GROUP_INFO": "8016300",
        "P_EXT_IMG_PARAM": "5:\u96d1\u5ff5\u30fb\u865a\u8131\u30fb\u5e7b\u899a\u30fb\u6df7\u4e71\u8010\u6027\u309230%\u30a2\u30c3\u30d7",
        "H49qP1tw": "1",
        "97yTNbfr": "5",
        "P_NEED_SWITCH_INFO": "0",
        "P_HIDE_SWITCH_INFO": "0",
        "P_OPEN_SWITCH_INFO": "0",
        "P_CREATEDATE": "2018-09-25 01:26:04",
        "P_UPDATEDATE": "2018-09-25 01:26:04"
    },
    {
        "3L9SmG6b": "20017403",
        "gvT2ds0Q": "4",
        "nm1USVcx": "200",
        "P_SKILL_NAME": "\u8056\u5c0e\u795e\u79d8\u306e\u5b88\u308a",
        "P_GROUP_ID": "1",
        "P_PRIORITY": "20",
        "P_RARE": "4",
        "moWQ30GH": "3",
        "P_PASSIVE_SKILL_GROUP_INFO": "1003004",
        "P_EXT_IMG_PARAM": "12:\u9b54\u9632\u529b\u309220%\u30a2\u30c3\u30d7",
        "H49qP1tw": "1",
        "97yTNbfr": "1",
        "P_NEED_SWITCH_INFO": "0",
        "P_HIDE_SWITCH_INFO": "0",
        "P_OPEN_SWITCH_INFO": "0",
        "P_CREATEDATE": "2018-09-25 01:26:04",
        "P_UPDATEDATE": "2018-09-25 01:26:04"
    },
    {
        "3L9SmG6b": "20032201",
        "gvT2ds0Q": "1",
        "nm1USVcx": "50",
        "P_SKILL_NAME": "\u91cd\u6483\u306e\u932c\u77f3",
        "P_GROUP_ID": "1",
        "P_PRIORITY": "1008",
        "P_RARE": "2",
        "moWQ30GH": "3",
        "P_PASSIVE_SKILL_GROUP_INFO": "2020001",
        "P_EXT_IMG_PARAM": "11:\u30b9\u30d1\u30fc\u30af\u6642\u3001BC\u51fa\u73fe\u7387\u309210%\u30a2\u30c3\u30d7",
        "H49qP1tw": "1",
        "97yTNbfr": "11",
        "P_NEED_SWITCH_INFO": "0",
        "P_HIDE_SWITCH_INFO": "0",
        "P_OPEN_SWITCH_INFO": "0",
        "P_CREATEDATE": "2018-09-25 01:26:04",
        "P_UPDATEDATE": "2018-09-25 01:26:04"
    },
    {
        "3L9SmG6b": "20032301",
        "gvT2ds0Q": "2",
        "nm1USVcx": "200",
        "P_SKILL_NAME": "\u51cd\u71c3\u306e\u51db\u6b4c",
        "P_GROUP_ID": "1",
        "P_PRIORITY": "1009",
        "P_RARE": "2",
        "moWQ30GH": "3",
        "P_PASSIVE_SKILL_GROUP_INFO": "5010001",
        "P_EXT_IMG_PARAM": "6:\u30bf\u30fc\u30f3\u6bce\u306bBB\u30b2\u30fc\u30b8\u3092200\u5897\u52a0",
        "H49qP1tw": "1",
        "97yTNbfr": "6",
        "P_NEED_SWITCH_INFO": "0",
        "P_HIDE_SWITCH_INFO": "0",
        "P_OPEN_SWITCH_INFO": "0",
        "P_CREATEDATE": "2018-09-25 01:26:04",
        "P_UPDATEDATE": "2018-09-25 01:26:04"
    },
    {
        "3L9SmG6b": "20033401",
        "gvT2ds0Q": "2",
        "nm1USVcx": "100",
        "P_SKILL_NAME": "\u5e7b\u75fa\u306e\u51cd\u5203",
        "P_GROUP_ID": "1",
        "P_PRIORITY": "1010",
        "P_RARE": "2",
        "moWQ30GH": "3",
        "P_PASSIVE_SKILL_GROUP_INFO": "9020601",
        "P_EXT_IMG_PARAM": "4:10%\u306e\u78ba\u7387\u30672\u30bf\u30fc\u30f3\u3001\u5e7b\u899a\u30fb\u9ebb\u75fa\u72b6\u614b\u306b\u3059\u308b",
        "H49qP1tw": "1",
        "97yTNbfr": "4",
        "P_NEED_SWITCH_INFO": "0",
        "P_HIDE_SWITCH_INFO": "0",
        "P_OPEN_SWITCH_INFO": "0",
        "P_CREATEDATE": "2018-09-25 01:26:04",
        "P_UPDATEDATE": "2018-09-25 01:26:04"
    },
    {
        "3L9SmG6b": "20033402",
        "gvT2ds0Q": "4",
        "nm1USVcx": "300",
        "P_SKILL_NAME": "\u95d8\u821e\u306e\u932c\u6b4c",
        "P_GROUP_ID": "1",
        "P_PRIORITY": "1011",
        "P_RARE": "3",
        "moWQ30GH": "3",
        "P_PASSIVE_SKILL_GROUP_INFO": "5010002",
        "P_EXT_IMG_PARAM": "6:\u30bf\u30fc\u30f3\u6bce\u306bBB\u30b2\u30fc\u30b8\u3092300\u5897\u52a0",
        "H49qP1tw": "1",
        "97yTNbfr": "6",
        "P_NEED_SWITCH_INFO": "0",
        "P_HIDE_SWITCH_INFO": "0",
        "P_OPEN_SWITCH_INFO": "0",
        "P_CREATEDATE": "2018-09-25 01:26:04",
        "P_UPDATEDATE": "2018-09-25 01:26:04"
    },
    {
        "3L9SmG6b": "20040401",
        "gvT2ds0Q": "4",
        "nm1USVcx": "300",
        "P_SKILL_NAME": "\u5239\u90a3\u306e\u84bc\u6b66",
        "P_GROUP_ID": "1",
        "P_PRIORITY": "1023",
        "P_RARE": "4",
        "moWQ30GH": "3",
        "P_PASSIVE_SKILL_GROUP_INFO": "1019304",
        "P_EXT_IMG_PARAM": "1:\u6226\u95d8\u958b\u59cb\u304b\u30893\u30bf\u30fc\u30f3\u3001\u653b\u6483\u529b\u30fb\u9632\u5fa1\u529b\u30fb\u9b54\u9632\u529b\u309215%\u30a2\u30c3\u30d7",
        "H49qP1tw": "1",
        "97yTNbfr": "1",
        "P_NEED_SWITCH_INFO": "0",
        "P_HIDE_SWITCH_INFO": "0",
        "P_OPEN_SWITCH_INFO": "0",
        "P_CREATEDATE": "2018-09-25 01:26:04",
        "P_UPDATEDATE": "2018-09-25 01:26:04"
    },
    {
        "3L9SmG6b": "20040402",
        "gvT2ds0Q": "3",
        "nm1USVcx": "300",
        "P_SKILL_NAME": "\u53cc\u6b66\u306e\u9583\u5203",
        "P_GROUP_ID": "1",
        "P_PRIORITY": "1024",
        "P_RARE": "4",
        "moWQ30GH": "3",
        "P_PASSIVE_SKILL_GROUP_INFO": "3020008",
        "P_EXT_IMG_PARAM": "2:\u30af\u30ea\u30c6\u30a3\u30ab\u30eb\u30c0\u30e1\u30fc\u30b8\u309220%\u30a2\u30c3\u30d7",
        "H49qP1tw": "1",
        "97yTNbfr": "2",
        "P_NEED_SWITCH_INFO": "0",
        "P_HIDE_SWITCH_INFO": "0",
        "P_OPEN_SWITCH_INFO": "0",
        "P_CREATEDATE": "2018-09-25 01:26:04",
        "P_UPDATEDATE": "2018-09-25 01:26:04"
    },
    {
        "3L9SmG6b": "20043401",
        "gvT2ds0Q": "1",
        "nm1USVcx": "100",
        "P_SKILL_NAME": "\u9759\u6d41\u306e\u95d8\u5fd7",
        "P_GROUP_ID": "1",
        "P_PRIORITY": "46",
        "P_RARE": "2",
        "moWQ30GH": "3",
        "P_PASSIVE_SKILL_GROUP_INFO": "5050001",
        "P_EXT_IMG_PARAM": "6:BC\u7372\u5f97\u6642\u306e\u5897\u52a0\u91cf\u309210%\u30a2\u30c3\u30d7",
        "H49qP1tw": "1",
        "97yTNbfr": "6",
        "P_NEED_SWITCH_INFO": "0",
        "P_HIDE_SWITCH_INFO": "0",
        "P_OPEN_SWITCH_INFO": "0",
        "P_CREATEDATE": "2018-09-25 01:26:04",
        "P_UPDATEDATE": "2018-09-25 01:26:04"
    },
    {
        "3L9SmG6b": "20043402",
        "gvT2ds0Q": "3",
        "nm1USVcx": "100",
        "P_SKILL_NAME": "\u6c37\u5929\u306e\u7d71\u8863",
        "P_GROUP_ID": "1",
        "P_PRIORITY": "47",
        "P_RARE": "4",
        "moWQ30GH": "3",
        "P_PASSIVE_SKILL_GROUP_INFO": "1004003",
        "P_EXT_IMG_PARAM": "1:\u6700\u5927HP\u309215%\u30a2\u30c3\u30d7",
        "H49qP1tw": "1",
        "97yTNbfr": "1",
        "P_NEED_SWITCH_INFO": "0",
        "P_HIDE_SWITCH_INFO": "0",
        "P_OPEN_SWITCH_INFO": "0",
        "P_CREATEDATE": "2018-09-25 01:26:04",
        "P_UPDATEDATE": "2018-09-25 01:26:04"
    },
    {
        "3L9SmG6b": "20043403",
        "gvT2ds0Q": "3",
        "nm1USVcx": "300",
        "P_SKILL_NAME": "\u51f6\u7114\u3092\u93ae\u3081\u308b\u3082\u306e",
        "P_GROUP_ID": "1",
        "P_PRIORITY": "48",
        "P_RARE": "4",
        "moWQ30GH": "3",
        "P_PASSIVE_SKILL_GROUP_INFO": "4020104",
        "P_EXT_IMG_PARAM": "13:\u6c34\u5c5e\u6027\u6b66\u5668\u306e\u5f31\u70b9\u5c5e\u6027\u30c0\u30e1\u30fc\u30b8\u309225%\u30a2\u30c3\u30d7",
        "H49qP1tw": "1",
        "97yTNbfr": "13",
        "P_NEED_SWITCH_INFO": "0",
        "P_HIDE_SWITCH_INFO": "0",
        "P_OPEN_SWITCH_INFO": "0",
        "P_CREATEDATE": "2018-09-25 01:26:04",
        "P_UPDATEDATE": "2018-09-25 01:26:04"
    },
    {
        "3L9SmG6b": "20055401",
        "gvT2ds0Q": "2",
        "nm1USVcx": "300",
        "P_SKILL_NAME": "\u4f53\u96e3\u306e\u7121\u5384",
        "P_GROUP_ID": "1",
        "P_PRIORITY": "63",
        "P_RARE": "4",
        "moWQ30GH": "3",
        "P_PASSIVE_SKILL_GROUP_INFO": "8016202",
        "P_EXT_IMG_PARAM": "5:\u602a\u6211\u30fb\u5f31\u4f53\u30fb\u75c5\u6c17\u30fb\u9ebb\u75fa\u3092\u7121\u52b9",
        "H49qP1tw": "1",
        "97yTNbfr": "5",
        "P_NEED_SWITCH_INFO": "0",
        "P_HIDE_SWITCH_INFO": "0",
        "P_OPEN_SWITCH_INFO": "0",
        "P_CREATEDATE": "2018-09-25 01:26:04",
        "P_UPDATEDATE": "2018-09-25 01:26:04"
    },
    {
        "3L9SmG6b": "20055402",
        "gvT2ds0Q": "2",
        "nm1USVcx": "300",
        "P_SKILL_NAME": "\u5fc3\u96e3\u306e\u7121\u5384",
        "P_GROUP_ID": "1",
        "P_PRIORITY": "64",
        "P_RARE": "4",
        "moWQ30GH": "3",
        "P_PASSIVE_SKILL_GROUP_INFO": "8016302",
        "P_EXT_IMG_PARAM": "5:\u96d1\u5ff5\u30fb\u865a\u8131\u30fb\u5e7b\u899a\u30fb\u6df7\u4e71\u3092\u7121\u52b9",
        "H49qP1tw": "1",
        "97yTNbfr": "5",
        "P_NEED_SWITCH_INFO": "0",
        "P_HIDE_SWITCH_INFO": "0",
        "P_OPEN_SWITCH_INFO": "0",
        "P_CREATEDATE": "2018-09-25 01:26:04",
        "P_UPDATEDATE": "2018-09-25 01:26:04"
    },
    {
        "3L9SmG6b": "20055403",
        "gvT2ds0Q": "2",
        "nm1USVcx": "300",
        "P_SKILL_NAME": "\u546a\u6bd2\u306e\u7121\u5384",
        "P_GROUP_ID": "1",
        "P_PRIORITY": "65",
        "P_RARE": "4",
        "moWQ30GH": "3",
        "P_PASSIVE_SKILL_GROUP_INFO": "8016102",
        "P_EXT_IMG_PARAM": "5:\u6bd2\u30fb\u546a\u3044\u3092\u7121\u52b9",
        "H49qP1tw": "1",
        "97yTNbfr": "5",
        "P_NEED_SWITCH_INFO": "0",
        "P_HIDE_SWITCH_INFO": "0",
        "P_OPEN_SWITCH_INFO": "0",
        "P_CREATEDATE": "2018-09-25 01:26:04",
        "P_UPDATEDATE": "2018-09-25 01:26:04"
    },
    {
        "3L9SmG6b": "20055404",
        "gvT2ds0Q": "3",
        "nm1USVcx": "400",
        "P_SKILL_NAME": "\u7834\u6faa\u306e\u9b54\u5149",
        "P_GROUP_ID": "1",
        "P_PRIORITY": "66",
        "P_RARE": "4",
        "moWQ30GH": "3",
        "P_PASSIVE_SKILL_GROUP_INFO": "4050000",
        "P_EXT_IMG_PARAM": "13:\u9b54\u6cd5\u653b\u6483\u306e\u30c0\u30e1\u30fc\u30b8\u309220%\u30a2\u30c3\u30d7",
        "H49qP1tw": "1",
        "97yTNbfr": "13",
        "P_NEED_SWITCH_INFO": "0",
        "P_HIDE_SWITCH_INFO": "0",
        "P_OPEN_SWITCH_INFO": "0",
        "P_CREATEDATE": "2018-09-25 01:26:04",
        "P_UPDATEDATE": "2018-09-25 01:26:04"
    },
    {
        "3L9SmG6b": "30014201",
        "gvT2ds0Q": "1",
        "nm1USVcx": "10",
        "P_SKILL_NAME": "\u69cd\u58c1",
        "P_GROUP_ID": "1",
        "P_PRIORITY": "8",
        "P_RARE": "1",
        "moWQ30GH": "3",
        "P_PASSIVE_SKILL_GROUP_INFO": "1002001",
        "P_EXT_IMG_PARAM": "1:\u9632\u5fa1\u529b\u30925%\u30a2\u30c3\u30d7",
        "H49qP1tw": "1",
        "97yTNbfr": "1",
        "P_NEED_SWITCH_INFO": "0",
        "P_HIDE_SWITCH_INFO": "0",
        "P_OPEN_SWITCH_INFO": "0",
        "P_CREATEDATE": "2018-09-25 01:26:04",
        "P_UPDATEDATE": "2018-09-25 01:26:04"
    },
    {
        "3L9SmG6b": "30014301",
        "gvT2ds0Q": "2",
        "nm1USVcx": "50",
        "P_SKILL_NAME": "\u5b88\u8b77\u9663\u58c1",
        "P_GROUP_ID": "1",
        "P_PRIORITY": "9",
        "P_RARE": "2",
        "moWQ30GH": "3",
        "P_PASSIVE_SKILL_GROUP_INFO": "1002002",
        "P_EXT_IMG_PARAM": "1:\u9632\u5fa1\u529b\u309210%\u30a2\u30c3\u30d7",
        "H49qP1tw": "1",
        "97yTNbfr": "1",
        "P_NEED_SWITCH_INFO": "0",
        "P_HIDE_SWITCH_INFO": "0",
        "P_OPEN_SWITCH_INFO": "0",
        "P_CREATEDATE": "2018-09-25 01:26:04",
        "P_UPDATEDATE": "2018-09-25 01:26:04"
    },
    {
        "3L9SmG6b": "30015401",
        "gvT2ds0Q": "3",
        "nm1USVcx": "100",
        "P_SKILL_NAME": "\u8073\u3048\u3057\u8b77\u58c1",
        "P_GROUP_ID": "1",
        "P_PRIORITY": "10",
        "P_RARE": "3",
        "moWQ30GH": "3",
        "P_PASSIVE_SKILL_GROUP_INFO": "1002003",
        "P_EXT_IMG_PARAM": "1:\u9632\u5fa1\u529b\u309215%\u30a2\u30c3\u30d7",
        "H49qP1tw": "1",
        "97yTNbfr": "1",
        "P_NEED_SWITCH_INFO": "0",
        "P_HIDE_SWITCH_INFO": "0",
        "P_OPEN_SWITCH_INFO": "0",
        "P_CREATEDATE": "2018-09-25 01:26:04",
        "P_UPDATEDATE": "2018-09-25 01:26:04"
    },
    {
        "3L9SmG6b": "30015402",
        "gvT2ds0Q": "4",
        "nm1USVcx": "200",
        "P_SKILL_NAME": "\u93ae\u5ea7\u305b\u3057\u6226\u58c1",
        "P_GROUP_ID": "1",
        "P_PRIORITY": "11",
        "P_RARE": "4",
        "moWQ30GH": "3",
        "P_PASSIVE_SKILL_GROUP_INFO": "1002004",
        "P_EXT_IMG_PARAM": "1:\u9632\u5fa1\u529b\u309220%\u30a2\u30c3\u30d7",
        "H49qP1tw": "1",
        "97yTNbfr": "1",
        "P_NEED_SWITCH_INFO": "0",
        "P_HIDE_SWITCH_INFO": "0",
        "P_OPEN_SWITCH_INFO": "0",
        "P_CREATEDATE": "2018-09-25 01:26:04",
        "P_UPDATEDATE": "2018-09-25 01:26:04"
    },
    {
        "3L9SmG6b": "30023401",
        "gvT2ds0Q": "2",
        "nm1USVcx": "50",
        "P_SKILL_NAME": "\u8056\u6a39\u306e\u7652\u5149",
        "P_GROUP_ID": "1",
        "P_PRIORITY": "30",
        "P_RARE": "2",
        "moWQ30GH": "3",
        "P_PASSIVE_SKILL_GROUP_INFO": "6010100",
        "P_EXT_IMG_PARAM": "7:\u30bf\u30fc\u30f3\u6bce\u306bHP\u3092200\u301c300\u56de\u5fa9",
        "H49qP1tw": "1",
        "97yTNbfr": "7",
        "P_NEED_SWITCH_INFO": "0",
        "P_HIDE_SWITCH_INFO": "0",
        "P_OPEN_SWITCH_INFO": "0",
        "P_CREATEDATE": "2018-09-25 01:26:04",
        "P_UPDATEDATE": "2018-09-25 01:26:04"
    },
    {
        "3L9SmG6b": "30023402",
        "gvT2ds0Q": "2",
        "nm1USVcx": "200",
        "P_SKILL_NAME": "\u92fc\u6b66\u306e\u51f1\u6b4c",
        "P_GROUP_ID": "1",
        "P_PRIORITY": "31",
        "P_RARE": "2",
        "moWQ30GH": "3",
        "P_PASSIVE_SKILL_GROUP_INFO": "5010001",
        "P_EXT_IMG_PARAM": "6:\u30bf\u30fc\u30f3\u6bce\u306bBB\u30b2\u30fc\u30b8\u3092200\u5897\u52a0",
        "H49qP1tw": "1",
        "97yTNbfr": "6",
        "P_NEED_SWITCH_INFO": "0",
        "P_HIDE_SWITCH_INFO": "0",
        "P_OPEN_SWITCH_INFO": "0",
        "P_CREATEDATE": "2018-09-25 01:26:04",
        "P_UPDATEDATE": "2018-09-25 01:26:04"
    },
    {
        "3L9SmG6b": "30034401",
        "gvT2ds0Q": "2",
        "nm1USVcx": "150",
        "P_SKILL_NAME": "\u5927\u6a39\u306e\u5149\u5370",
        "P_GROUP_ID": "1",
        "P_PRIORITY": "1012",
        "P_RARE": "2",
        "moWQ30GH": "3",
        "P_PASSIVE_SKILL_GROUP_INFO": "4010001",
        "P_EXT_IMG_PARAM": "13:\u653b\u6483BB\u306e\u5a01\u529b\u309210%\u30a2\u30c3\u30d7",
        "H49qP1tw": "1",
        "97yTNbfr": "13",
        "P_NEED_SWITCH_INFO": "0",
        "P_HIDE_SWITCH_INFO": "0",
        "P_OPEN_SWITCH_INFO": "0",
        "P_CREATEDATE": "2018-09-25 01:26:04",
        "P_UPDATEDATE": "2018-09-25 01:26:04"
    },
    {
        "3L9SmG6b": "30034402",
        "gvT2ds0Q": "3",
        "nm1USVcx": "300",
        "P_SKILL_NAME": "\u60a0\u6b66\u306e\u5149\u5370",
        "P_GROUP_ID": "1",
        "P_PRIORITY": "1013",
        "P_RARE": "4",
        "moWQ30GH": "3",
        "P_PASSIVE_SKILL_GROUP_INFO": "4010003",
        "P_EXT_IMG_PARAM": "13:\u653b\u6483BB\u306e\u5a01\u529b\u309220%\u30a2\u30c3\u30d7",
        "H49qP1tw": "1",
        "97yTNbfr": "13",
        "P_NEED_SWITCH_INFO": "0",
        "P_HIDE_SWITCH_INFO": "0",
        "P_OPEN_SWITCH_INFO": "0",
        "P_CREATEDATE": "2018-09-25 01:26:04",
        "P_UPDATEDATE": "2018-09-25 01:26:04"
    },
    {
        "3L9SmG6b": "30038301",
        "gvT2ds0Q": "2",
        "nm1USVcx": "150",
        "P_SKILL_NAME": "\u98db\u5fd7\u306e\u932c\u77f3",
        "P_GROUP_ID": "1",
        "P_PRIORITY": "1020",
        "P_RARE": "2",
        "moWQ30GH": "3",
        "P_PASSIVE_SKILL_GROUP_INFO": "7000001",
        "P_EXT_IMG_PARAM": "3:BC\u51fa\u73fe\u7387\u309210%\u30a2\u30c3\u30d7",
        "H49qP1tw": "1",
        "97yTNbfr": "3",
        "P_NEED_SWITCH_INFO": "0",
        "P_HIDE_SWITCH_INFO": "0",
        "P_OPEN_SWITCH_INFO": "0",
        "P_CREATEDATE": "2018-09-25 01:26:04",
        "P_UPDATEDATE": "2018-09-25 01:26:04"
    },
    {
        "3L9SmG6b": "30039401",
        "gvT2ds0Q": "2",
        "nm1USVcx": "300",
        "P_SKILL_NAME": "\u6708\u5149\u306e\u932c\u7652\u77f3",
        "P_GROUP_ID": "1",
        "P_PRIORITY": "1021",
        "P_RARE": "2",
        "moWQ30GH": "3",
        "P_PASSIVE_SKILL_GROUP_INFO": "7050000",
        "P_EXT_IMG_PARAM": "3:BC\u30fbHC\u51fa\u73fe\u7387\u30925%\u30a2\u30c3\u30d7",
        "H49qP1tw": "1",
        "97yTNbfr": "3",
        "P_NEED_SWITCH_INFO": "0",
        "P_HIDE_SWITCH_INFO": "0",
        "P_OPEN_SWITCH_INFO": "0",
        "P_CREATEDATE": "2018-09-25 01:26:04",
        "P_UPDATEDATE": "2018-09-25 01:26:04"
    },
    {
        "3L9SmG6b": "30039402",
        "gvT2ds0Q": "4",
        "nm1USVcx": "500",
        "P_SKILL_NAME": "\u6708\u5f71\u306e\u6b66",
        "P_GROUP_ID": "1",
        "P_PRIORITY": "1022",
        "P_RARE": "3",
        "moWQ30GH": "3",
        "P_PASSIVE_SKILL_GROUP_INFO": "1015002",
        "P_EXT_IMG_PARAM": "1:\u5168\u80fd\u529b\u309210%\u30a2\u30c3\u30d7",
        "H49qP1tw": "1",
        "97yTNbfr": "1",
        "P_NEED_SWITCH_INFO": "0",
        "P_HIDE_SWITCH_INFO": "0",
        "P_OPEN_SWITCH_INFO": "0",
        "P_CREATEDATE": "2018-09-25 01:26:04",
        "P_UPDATEDATE": "2018-09-25 01:26:04"
    },
    {
        "3L9SmG6b": "30048402",
        "gvT2ds0Q": "1",
        "nm1USVcx": "150",
        "P_SKILL_NAME": "\u865a\u96d1\u306e\u75ab\u5de7",
        "P_GROUP_ID": "1",
        "P_PRIORITY": "1032",
        "P_RARE": "2",
        "moWQ30GH": "3",
        "P_PASSIVE_SKILL_GROUP_INFO": "9020204",
        "P_EXT_IMG_PARAM": "4:15%\u306e\u78ba\u7387\u30672\u30bf\u30fc\u30f3\u3001\u96d1\u5ff5\u30fb\u865a\u8131\u72b6\u614b\u306b\u3059\u308b",
        "H49qP1tw": "1",
        "97yTNbfr": "4",
        "P_NEED_SWITCH_INFO": "0",
        "P_HIDE_SWITCH_INFO": "0",
        "P_OPEN_SWITCH_INFO": "0",
        "P_CREATEDATE": "2018-09-25 01:26:04",
        "P_UPDATEDATE": "2018-09-25 01:26:04"
    },
    {
        "3L9SmG6b": "30048403",
        "gvT2ds0Q": "2",
        "nm1USVcx": "200",
        "P_SKILL_NAME": "\u6b66\u8208\u306e\u4e0d\u5fd7",
        "P_GROUP_ID": "1",
        "P_PRIORITY": "1033",
        "P_RARE": "3",
        "moWQ30GH": "3",
        "P_PASSIVE_SKILL_GROUP_INFO": "8103002",
        "P_EXT_IMG_PARAM": "5:\u653b\u6483\u529b\u30fb\u9632\u5fa1\u529b\u30fb\u9b54\u9632\u529b\u4f4e\u4e0b\u3078\u306e\u8010\u6027\u309230%\u30a2\u30c3\u30d7",
        "H49qP1tw": "1",
        "97yTNbfr": "5",
        "P_NEED_SWITCH_INFO": "0",
        "P_HIDE_SWITCH_INFO": "0",
        "P_OPEN_SWITCH_INFO": "0",
        "P_CREATEDATE": "2018-09-25 01:26:04",
        "P_UPDATEDATE": "2018-09-25 01:26:04"
    },
    {
        "3L9SmG6b": "30048404",
        "gvT2ds0Q": "1",
        "nm1USVcx": "200",
        "P_SKILL_NAME": "\u5e7b\u306e\u7ffb\u4f0e",
        "P_GROUP_ID": "1",
        "P_PRIORITY": "1034",
        "P_RARE": "3",
        "moWQ30GH": "3",
        "P_PASSIVE_SKILL_GROUP_INFO": "10300000",
        "P_EXT_IMG_PARAM": "10:\u4e00\u90e8\u30c0\u30e1\u30fc\u30b8\u30923%\u306e\u78ba\u7387\u3067\u7121\u52b9\u5316",
        "H49qP1tw": "1",
        "97yTNbfr": "10",
        "P_NEED_SWITCH_INFO": "0",
        "P_HIDE_SWITCH_INFO": "0",
        "P_OPEN_SWITCH_INFO": "0",
        "P_CREATEDATE": "2018-09-25 01:26:04",
        "P_UPDATEDATE": "2018-09-25 01:26:04"
    },
    {
        "3L9SmG6b": "30056401",
        "gvT2ds0Q": "3",
        "nm1USVcx": "400",
        "P_SKILL_NAME": "\u9632\u5fa1\u614b\u52e2\uff1a\u6483\u885d",
        "P_GROUP_ID": "1",
        "P_PRIORITY": "67",
        "P_RARE": "4",
        "moWQ30GH": "3",
        "P_PASSIVE_SKILL_GROUP_INFO": "10000002",
        "P_EXT_IMG_PARAM": "10:\u7269\u7406\u30c0\u30e1\u30fc\u30b8\u309210%\u8efd\u6e1b",
        "H49qP1tw": "1",
        "97yTNbfr": "10",
        "P_NEED_SWITCH_INFO": "0",
        "P_HIDE_SWITCH_INFO": "0",
        "P_OPEN_SWITCH_INFO": "0",
        "P_CREATEDATE": "2018-09-25 01:26:04",
        "P_UPDATEDATE": "2018-09-25 01:26:04"
    },
    {
        "3L9SmG6b": "30056402",
        "gvT2ds0Q": "3",
        "nm1USVcx": "400",
        "P_SKILL_NAME": "\u9632\u5fa1\u614b\u52e2\uff1a\u9b54\u885d",
        "P_GROUP_ID": "1",
        "P_PRIORITY": "69",
        "P_RARE": "4",
        "moWQ30GH": "3",
        "P_PASSIVE_SKILL_GROUP_INFO": "10001002",
        "P_EXT_IMG_PARAM": "10:\u9b54\u6cd5\u30c0\u30e1\u30fc\u30b8\u309210%\u8efd\u6e1b",
        "H49qP1tw": "1",
        "97yTNbfr": "10",
        "P_NEED_SWITCH_INFO": "0",
        "P_HIDE_SWITCH_INFO": "0",
        "P_OPEN_SWITCH_INFO": "0",
        "P_CREATEDATE": "2018-09-25 01:26:04",
        "P_UPDATEDATE": "2018-09-25 01:26:04"
    },
    {
        "3L9SmG6b": "30056403",
        "gvT2ds0Q": "2",
        "nm1USVcx": "500",
        "P_SKILL_NAME": "\u9632\u5fa1\u614b\u52e2\uff1a\u53db\u7652",
        "P_GROUP_ID": "1",
        "P_PRIORITY": "70",
        "P_RARE": "4",
        "moWQ30GH": "3",
        "P_PASSIVE_SKILL_GROUP_INFO": "6030012",
        "P_EXT_IMG_PARAM": "7:\u88ab\u30c0\u30e1\u30fc\u30b8\u6642\u300130%\u306e\u78ba\u7387\u3067HP\u309220\u301c25%\u56de\u5fa9\uff081\u30bf\u30fc\u30f33\u56de\u307e\u3067\uff09",
        "H49qP1tw": "1",
        "97yTNbfr": "7",
        "P_NEED_SWITCH_INFO": "0",
        "P_HIDE_SWITCH_INFO": "0",
        "P_OPEN_SWITCH_INFO": "0",
        "P_CREATEDATE": "2018-09-25 01:26:04",
        "P_UPDATEDATE": "2018-09-25 01:26:04"
    },
    {
        "3L9SmG6b": "30057401",
        "gvT2ds0Q": "2",
        "nm1USVcx": "300",
        "P_SKILL_NAME": "\u6b66\u95d8\u306e\u634c\u6280",
        "P_GROUP_ID": "1",
        "P_PRIORITY": "1049",
        "P_RARE": "4",
        "moWQ30GH": "3",
        "P_PASSIVE_SKILL_GROUP_INFO": "10300000,5040014",
        "P_EXT_IMG_PARAM": "10:\u4e00\u90e8\u30c0\u30e1\u30fc\u30b8\u30923%\u306e\u78ba\u7387\u3067\u7121\u52b9\u5316,\n6:\u88ab\u30c0\u30e1\u30fc\u30b8\u6642\u300150%\u306e\u78ba\u7387\u3067BB\u30b2\u30fc\u30b8\u3092100\u301c200\u5897\u52a0\uff081\u30bf\u30fc\u30f33\u56de\u307e\u3067\uff09",
        "H49qP1tw": "1",
        "97yTNbfr": "10",
        "P_NEED_SWITCH_INFO": "0",
        "P_HIDE_SWITCH_INFO": "0",
        "P_OPEN_SWITCH_INFO": "0",
        "P_CREATEDATE": "2018-09-25 01:26:04",
        "P_UPDATEDATE": "2018-09-25 01:26:04"
    },
    {
        "3L9SmG6b": "30057402",
        "gvT2ds0Q": "2",
        "nm1USVcx": "300",
        "P_SKILL_NAME": "\u6b66\u95d8\u306e\u907f\u6280",
        "P_GROUP_ID": "1",
        "P_PRIORITY": "1050",
        "P_RARE": "4",
        "moWQ30GH": "3",
        "P_PASSIVE_SKILL_GROUP_INFO": "10200000,6030014",
        "P_EXT_IMG_PARAM": "10:3%\u306e\u78ba\u7387\u3067\u30c0\u30e1\u30fc\u30b8\u3092\u56de\u907f,\n7:\u88ab\u30c0\u30e1\u30fc\u30b8\u6642\u300120%\u306e\u78ba\u7387\u3067HP\u309210\u301c15%\u56de\u5fa9\uff081\u30bf\u30fc\u30f33\u56de\u307e\u3067\uff09",
        "H49qP1tw": "1",
        "97yTNbfr": "10",
        "P_NEED_SWITCH_INFO": "0",
        "P_HIDE_SWITCH_INFO": "0",
        "P_OPEN_SWITCH_INFO": "0",
        "P_CREATEDATE": "2018-09-25 01:26:04",
        "P_UPDATEDATE": "2018-09-25 01:26:04"
    },
    {
        "3L9SmG6b": "30057403",
        "gvT2ds0Q": "3",
        "nm1USVcx": "400",
        "P_SKILL_NAME": "\u525b\u4f53\u6280",
        "P_GROUP_ID": "1",
        "P_PRIORITY": "1051",
        "P_RARE": "4",
        "moWQ30GH": "3",
        "P_PASSIVE_SKILL_GROUP_INFO": "1014003",
        "P_EXT_IMG_PARAM": "1:\u9632\u5fa1\u529b\u30fb\u9b54\u9632\u529b\u30fb\u6700\u5927HP\u309215%\u30a2\u30c3\u30d7",
        "H49qP1tw": "1",
        "97yTNbfr": "1",
        "P_NEED_SWITCH_INFO": "0",
        "P_HIDE_SWITCH_INFO": "0",
        "P_OPEN_SWITCH_INFO": "0",
        "P_CREATEDATE": "2018-09-25 01:26:04",
        "P_UPDATEDATE": "2018-09-25 01:26:04"
    },
    {
        "3L9SmG6b": "40013301",
        "gvT2ds0Q": "1",
        "nm1USVcx": "30",
        "P_SKILL_NAME": "\u96f7\u82b1",
        "P_GROUP_ID": "1",
        "P_PRIORITY": "5",
        "P_RARE": "1",
        "moWQ30GH": "3",
        "P_PASSIVE_SKILL_GROUP_INFO": "2010000",
        "P_EXT_IMG_PARAM": "11:\u30b9\u30d1\u30fc\u30af\u30c0\u30e1\u30fc\u30b8\u30925%\u30a2\u30c3\u30d7",
        "H49qP1tw": "1",
        "97yTNbfr": "11",
        "P_NEED_SWITCH_INFO": "0",
        "P_HIDE_SWITCH_INFO": "0",
        "P_OPEN_SWITCH_INFO": "0",
        "P_CREATEDATE": "2018-09-25 01:26:04",
        "P_UPDATEDATE": "2018-09-25 01:26:04"
    },
    {
        "3L9SmG6b": "40013401",
        "gvT2ds0Q": "2",
        "nm1USVcx": "100",
        "P_SKILL_NAME": "\u5954\u308b\u9cf4\u82b1",
        "P_GROUP_ID": "1",
        "P_PRIORITY": "6",
        "P_RARE": "2",
        "moWQ30GH": "3",
        "P_PASSIVE_SKILL_GROUP_INFO": "2010001",
        "P_EXT_IMG_PARAM": "11:\u30b9\u30d1\u30fc\u30af\u30c0\u30e1\u30fc\u30b8\u309210%\u30a2\u30c3\u30d7",
        "H49qP1tw": "1",
        "97yTNbfr": "11",
        "P_NEED_SWITCH_INFO": "0",
        "P_HIDE_SWITCH_INFO": "0",
        "P_OPEN_SWITCH_INFO": "0",
        "P_CREATEDATE": "2018-09-25 01:26:04",
        "P_UPDATEDATE": "2018-09-25 01:26:04"
    },
    {
        "3L9SmG6b": "40013402",
        "gvT2ds0Q": "3",
        "nm1USVcx": "200",
        "P_SKILL_NAME": "\u5207\u308a\u88c2\u304f\u8fc5\u82b1",
        "P_GROUP_ID": "1",
        "P_PRIORITY": "7",
        "P_RARE": "3",
        "moWQ30GH": "3",
        "P_PASSIVE_SKILL_GROUP_INFO": "2010002",
        "P_EXT_IMG_PARAM": "11:\u30b9\u30d1\u30fc\u30af\u30c0\u30e1\u30fc\u30b8\u309215%\u30a2\u30c3\u30d7",
        "H49qP1tw": "1",
        "97yTNbfr": "11",
        "P_NEED_SWITCH_INFO": "0",
        "P_HIDE_SWITCH_INFO": "0",
        "P_OPEN_SWITCH_INFO": "0",
        "P_CREATEDATE": "2018-09-25 01:26:04",
        "P_UPDATEDATE": "2018-09-25 01:26:04"
    },
    {
        "3L9SmG6b": "40024301",
        "gvT2ds0Q": "1",
        "nm1USVcx": "50",
        "P_SKILL_NAME": "\u7a7f\u5f3e\u306e\u932c\u77f3",
        "P_GROUP_ID": "1",
        "P_PRIORITY": "32",
        "P_RARE": "1",
        "moWQ30GH": "3",
        "P_PASSIVE_SKILL_GROUP_INFO": "7000000",
        "P_EXT_IMG_PARAM": "3:BC\u51fa\u73fe\u7387\u30925%\u30a2\u30c3\u30d7",
        "H49qP1tw": "1",
        "97yTNbfr": "3",
        "P_NEED_SWITCH_INFO": "0",
        "P_HIDE_SWITCH_INFO": "0",
        "P_OPEN_SWITCH_INFO": "0",
        "P_CREATEDATE": "2018-09-25 01:26:04",
        "P_UPDATEDATE": "2018-09-25 01:26:04"
    },
    {
        "3L9SmG6b": "40024302",
        "gvT2ds0Q": "2",
        "nm1USVcx": "150",
        "P_SKILL_NAME": "\u9583\u6483\u306e\u932c\u77f3",
        "P_GROUP_ID": "1",
        "P_PRIORITY": "33",
        "P_RARE": "2",
        "moWQ30GH": "3",
        "P_PASSIVE_SKILL_GROUP_INFO": "7000001",
        "P_EXT_IMG_PARAM": "3:BC\u51fa\u73fe\u7387\u309210%\u30a2\u30c3\u30d7",
        "H49qP1tw": "1",
        "97yTNbfr": "3",
        "P_NEED_SWITCH_INFO": "0",
        "P_HIDE_SWITCH_INFO": "0",
        "P_OPEN_SWITCH_INFO": "0",
        "P_CREATEDATE": "2018-09-25 01:26:04",
        "P_UPDATEDATE": "2018-09-25 01:26:04"
    },
    {
        "3L9SmG6b": "40025401",
        "gvT2ds0Q": "2",
        "nm1USVcx": "150",
        "P_SKILL_NAME": "\u91cd\u6fc0\u306e\u932c\u6b4c",
        "P_GROUP_ID": "1",
        "P_PRIORITY": "34",
        "P_RARE": "3",
        "moWQ30GH": "3",
        "P_PASSIVE_SKILL_GROUP_INFO": "5070006",
        "P_EXT_IMG_PARAM": "11:\u30b9\u30d1\u30fc\u30af\u6642\u300150%\u306e\u78ba\u7387\u3067BB\u30b2\u30fc\u30b8\u309250\u301c100\u5897\u52a0\uff081\u30bf\u30fc\u30f35\u56de\u307e\u3067\uff09",
        "H49qP1tw": "1",
        "97yTNbfr": "11",
        "P_NEED_SWITCH_INFO": "0",
        "P_HIDE_SWITCH_INFO": "0",
        "P_OPEN_SWITCH_INFO": "0",
        "P_CREATEDATE": "2018-09-25 01:26:04",
        "P_UPDATEDATE": "2018-09-25 01:26:04"
    },
    {
        "3L9SmG6b": "40025402",
        "gvT2ds0Q": "2",
        "nm1USVcx": "200",
        "P_SKILL_NAME": "\u8f5f\u932c\u306e\u5e1d\u51a0",
        "P_GROUP_ID": "1",
        "P_PRIORITY": "35",
        "P_RARE": "4",
        "moWQ30GH": "3",
        "P_PASSIVE_SKILL_GROUP_INFO": "5050004",
        "P_EXT_IMG_PARAM": "6:BC\u7372\u5f97\u6642\u306e\u5897\u52a0\u91cf\u309225%\u30a2\u30c3\u30d7",
        "H49qP1tw": "1",
        "97yTNbfr": "6",
        "P_NEED_SWITCH_INFO": "0",
        "P_HIDE_SWITCH_INFO": "0",
        "P_OPEN_SWITCH_INFO": "0",
        "P_CREATEDATE": "2018-09-25 01:26:04",
        "P_UPDATEDATE": "2018-09-25 01:26:04"
    },
    {
        "3L9SmG6b": "40027201",
        "gvT2ds0Q": "1",
        "nm1USVcx": "10",
        "P_SKILL_NAME": "\u52c7\u6c17\u306e\u9583\u6483",
        "P_GROUP_ID": "1",
        "P_PRIORITY": "1000",
        "P_RARE": "1",
        "moWQ30GH": "3",
        "P_PASSIVE_SKILL_GROUP_INFO": "3010005",
        "P_EXT_IMG_PARAM": "2:\u30af\u30ea\u30c6\u30a3\u30ab\u30eb\u7387\u30923%\u30a2\u30c3\u30d7",
        "H49qP1tw": "1",
        "97yTNbfr": "2",
        "P_NEED_SWITCH_INFO": "0",
        "P_HIDE_SWITCH_INFO": "0",
        "P_OPEN_SWITCH_INFO": "0",
        "P_CREATEDATE": "2018-09-25 01:26:04",
        "P_UPDATEDATE": "2018-09-25 01:26:04"
    },
    {
        "3L9SmG6b": "40028301",
        "gvT2ds0Q": "1",
        "nm1USVcx": "100",
        "P_SKILL_NAME": "\u70c8\u7834\u306e\u9583\u6483",
        "P_GROUP_ID": "1",
        "P_PRIORITY": "1001",
        "P_RARE": "2",
        "moWQ30GH": "3",
        "P_PASSIVE_SKILL_GROUP_INFO": "3010000",
        "P_EXT_IMG_PARAM": "2:\u30af\u30ea\u30c6\u30a3\u30ab\u30eb\u7387\u30925%\u30a2\u30c3\u30d7",
        "H49qP1tw": "1",
        "97yTNbfr": "2",
        "P_NEED_SWITCH_INFO": "0",
        "P_HIDE_SWITCH_INFO": "0",
        "P_OPEN_SWITCH_INFO": "0",
        "P_CREATEDATE": "2018-09-25 01:26:04",
        "P_UPDATEDATE": "2018-09-25 01:26:04"
    },
    {
        "3L9SmG6b": "40029401",
        "gvT2ds0Q": "2",
        "nm1USVcx": "150",
        "P_SKILL_NAME": "\u81f3\u5929\u306e\u9583\u5203",
        "P_GROUP_ID": "1",
        "P_PRIORITY": "1002",
        "P_RARE": "2",
        "moWQ30GH": "3",
        "P_PASSIVE_SKILL_GROUP_INFO": "3020006",
        "P_EXT_IMG_PARAM": "2:\u30af\u30ea\u30c6\u30a3\u30ab\u30eb\u30c0\u30e1\u30fc\u30b8\u309210%\u30a2\u30c3\u30d7",
        "H49qP1tw": "1",
        "97yTNbfr": "2",
        "P_NEED_SWITCH_INFO": "0",
        "P_HIDE_SWITCH_INFO": "0",
        "P_OPEN_SWITCH_INFO": "0",
        "P_CREATEDATE": "2018-09-25 01:26:04",
        "P_UPDATEDATE": "2018-09-25 01:26:04"
    },
    {
        "3L9SmG6b": "40042401",
        "gvT2ds0Q": "2",
        "nm1USVcx": "150",
        "P_SKILL_NAME": "\u5730\u306b\u97ff\u304f\u96f7\u7159",
        "P_GROUP_ID": "1",
        "P_PRIORITY": "43",
        "P_RARE": "2",
        "moWQ30GH": "3",
        "P_PASSIVE_SKILL_GROUP_INFO": "3010006",
        "P_EXT_IMG_PARAM": "2:\u30af\u30ea\u30c6\u30a3\u30ab\u30eb\u7387\u30928%\u30a2\u30c3\u30d7",
        "H49qP1tw": "1",
        "97yTNbfr": "2",
        "P_NEED_SWITCH_INFO": "0",
        "P_HIDE_SWITCH_INFO": "0",
        "P_OPEN_SWITCH_INFO": "0",
        "P_CREATEDATE": "2018-09-25 01:26:04",
        "P_UPDATEDATE": "2018-09-25 01:26:04"
    },
    {
        "3L9SmG6b": "40042402",
        "gvT2ds0Q": "1",
        "nm1USVcx": "150",
        "P_SKILL_NAME": "\u6e26\u5dfb\u304f\u84b8\u5d50",
        "P_GROUP_ID": "1",
        "P_PRIORITY": "44",
        "P_RARE": "1",
        "moWQ30GH": "3",
        "P_PASSIVE_SKILL_GROUP_INFO": "9020701",
        "P_EXT_IMG_PARAM": "4:10%\u306e\u78ba\u7387\u30672\u30bf\u30fc\u30f3\u3001\u602a\u6211\u72b6\u614b\u306b\u3059\u308b,\n4:10%\u306e\u78ba\u7387\u30671\u30bf\u30fc\u30f3\u3001\u9ebb\u75fa\u72b6\u614b\u306b\u3059\u308b",
        "H49qP1tw": "1",
        "97yTNbfr": "4",
        "P_NEED_SWITCH_INFO": "0",
        "P_HIDE_SWITCH_INFO": "0",
        "P_OPEN_SWITCH_INFO": "0",
        "P_CREATEDATE": "2018-09-25 01:26:04",
        "P_UPDATEDATE": "2018-09-25 01:26:04"
    },
    {
        "3L9SmG6b": "40042403",
        "gvT2ds0Q": "3",
        "nm1USVcx": "300",
        "P_SKILL_NAME": "\u84b8\u96f7\u5f0f\u9b54\u52d5\u7089",
        "P_GROUP_ID": "1",
        "P_PRIORITY": "45",
        "P_RARE": "3",
        "moWQ30GH": "3",
        "P_PASSIVE_SKILL_GROUP_INFO": "5070008",
        "P_EXT_IMG_PARAM": "11:\u30b9\u30d1\u30fc\u30af\u6642\u3001BB\u30b2\u30fc\u30b8\u3092300\u5897\u52a0\uff081\u30bf\u30fc\u30f31\u56de\u307e\u3067\uff09",
        "H49qP1tw": "1",
        "97yTNbfr": "11",
        "P_NEED_SWITCH_INFO": "0",
        "P_HIDE_SWITCH_INFO": "0",
        "P_OPEN_SWITCH_INFO": "0",
        "P_CREATEDATE": "2018-09-25 01:26:04",
        "P_UPDATEDATE": "2018-09-25 01:26:04"
    },
    {
        "3L9SmG6b": "40049401",
        "gvT2ds0Q": "3",
        "nm1USVcx": "300",
        "P_SKILL_NAME": "\u8fc5\u70c8\u306e\u6602\u529b",
        "P_GROUP_ID": "1",
        "P_PRIORITY": "1035",
        "P_RARE": "4",
        "moWQ30GH": "3",
        "P_PASSIVE_SKILL_GROUP_INFO": "1030100",
        "P_EXT_IMG_PARAM": "1:\u30bf\u30fc\u30f3\u6bce\u306b\u653b\u6483\u529b\u30925%\u30a2\u30c3\u30d7\uff08\u6700\u592720%\uff09",
        "H49qP1tw": "1",
        "97yTNbfr": "1",
        "P_NEED_SWITCH_INFO": "0",
        "P_HIDE_SWITCH_INFO": "0",
        "P_OPEN_SWITCH_INFO": "0",
        "P_CREATEDATE": "2018-09-25 01:26:04",
        "P_UPDATEDATE": "2018-09-25 01:26:04"
    },
    {
        "3L9SmG6b": "40049402",
        "gvT2ds0Q": "3",
        "nm1USVcx": "300",
        "P_SKILL_NAME": "\u8fc5\u70c8\u306e\u6602\u8b77",
        "P_GROUP_ID": "1",
        "P_PRIORITY": "1036",
        "P_RARE": "4",
        "moWQ30GH": "3",
        "P_PASSIVE_SKILL_GROUP_INFO": "1030200",
        "P_EXT_IMG_PARAM": "1:\u30bf\u30fc\u30f3\u6bce\u306b\u9632\u5fa1\u529b\u30925%\u30a2\u30c3\u30d7\uff08\u6700\u592720%\uff09",
        "H49qP1tw": "1",
        "97yTNbfr": "1",
        "P_NEED_SWITCH_INFO": "0",
        "P_HIDE_SWITCH_INFO": "0",
        "P_OPEN_SWITCH_INFO": "0",
        "P_CREATEDATE": "2018-09-25 01:26:04",
        "P_UPDATEDATE": "2018-09-25 01:26:04"
    },
    {
        "3L9SmG6b": "40049403",
        "gvT2ds0Q": "5",
        "nm1USVcx": "750",
        "P_SKILL_NAME": "\u5f57\u92fc\u306e\u6838\u5a01",
        "P_GROUP_ID": "1",
        "P_PRIORITY": "1037",
        "P_RARE": "4",
        "moWQ30GH": "3",
        "P_PASSIVE_SKILL_GROUP_INFO": "1015003",
        "P_EXT_IMG_PARAM": "1:\u5168\u80fd\u529b\u309215%\u30a2\u30c3\u30d7",
        "H49qP1tw": "1",
        "97yTNbfr": "1",
        "P_NEED_SWITCH_INFO": "0",
        "P_HIDE_SWITCH_INFO": "0",
        "P_OPEN_SWITCH_INFO": "0",
        "P_CREATEDATE": "2018-09-25 01:26:04",
        "P_UPDATEDATE": "2018-09-25 01:26:04"
    },
    {
        "3L9SmG6b": "50022301",
        "gvT2ds0Q": "2",
        "nm1USVcx": "30",
        "P_SKILL_NAME": "\u7815\u5149\u306e\u9663",
        "P_GROUP_ID": "1",
        "P_PRIORITY": "27",
        "P_RARE": "2",
        "moWQ30GH": "3",
        "P_PASSIVE_SKILL_GROUP_INFO": "1005001",
        "P_EXT_IMG_PARAM": "1:\u653b\u6483\u529b\u30fb\u9632\u5fa1\u529b\u30925%\u30a2\u30c3\u30d7",
        "H49qP1tw": "1",
        "97yTNbfr": "1",
        "P_NEED_SWITCH_INFO": "0",
        "P_HIDE_SWITCH_INFO": "0",
        "P_OPEN_SWITCH_INFO": "0",
        "P_CREATEDATE": "2018-09-25 01:26:04",
        "P_UPDATEDATE": "2018-09-25 01:26:04"
    },
    {
        "3L9SmG6b": "50022401",
        "gvT2ds0Q": "3",
        "nm1USVcx": "150",
        "P_SKILL_NAME": "\u653b\u9632\u306e\u9663",
        "P_GROUP_ID": "1",
        "P_PRIORITY": "28",
        "P_RARE": "3",
        "moWQ30GH": "3",
        "P_PASSIVE_SKILL_GROUP_INFO": "1005002",
        "P_EXT_IMG_PARAM": "1:\u653b\u6483\u529b\u30fb\u9632\u5fa1\u529b\u309210%\u30a2\u30c3\u30d7",
        "H49qP1tw": "1",
        "97yTNbfr": "1",
        "P_NEED_SWITCH_INFO": "0",
        "P_HIDE_SWITCH_INFO": "0",
        "P_OPEN_SWITCH_INFO": "0",
        "P_CREATEDATE": "2018-09-25 01:26:04",
        "P_UPDATEDATE": "2018-09-25 01:26:04"
    },
    {
        "3L9SmG6b": "50022402",
        "gvT2ds0Q": "4",
        "nm1USVcx": "300",
        "P_SKILL_NAME": "\u8056\u65ad\u306e\u9663",
        "P_GROUP_ID": "1",
        "P_PRIORITY": "29",
        "P_RARE": "4",
        "moWQ30GH": "3",
        "P_PASSIVE_SKILL_GROUP_INFO": "1005003",
        "P_EXT_IMG_PARAM": "1:\u653b\u6483\u529b\u30fb\u9632\u5fa1\u529b\u309215%\u30a2\u30c3\u30d7",
        "H49qP1tw": "1",
        "97yTNbfr": "1",
        "P_NEED_SWITCH_INFO": "0",
        "P_HIDE_SWITCH_INFO": "0",
        "P_OPEN_SWITCH_INFO": "0",
        "P_CREATEDATE": "2018-09-25 01:26:04",
        "P_UPDATEDATE": "2018-09-25 01:26:04"
    },
    {
        "3L9SmG6b": "50026401",
        "gvT2ds0Q": "2",
        "nm1USVcx": "150",
        "P_SKILL_NAME": "\u7834\u58ca\u306e\u5149\u5370",
        "P_GROUP_ID": "1",
        "P_PRIORITY": "36",
        "P_RARE": "2",
        "moWQ30GH": "3",
        "P_PASSIVE_SKILL_GROUP_INFO": "4010001",
        "P_EXT_IMG_PARAM": "13:\u653b\u6483BB\u306e\u5a01\u529b\u309210%\u30a2\u30c3\u30d7",
        "H49qP1tw": "1",
        "97yTNbfr": "13",
        "P_NEED_SWITCH_INFO": "0",
        "P_HIDE_SWITCH_INFO": "0",
        "P_OPEN_SWITCH_INFO": "0",
        "P_CREATEDATE": "2018-09-25 01:26:04",
        "P_UPDATEDATE": "2018-09-25 01:26:04"
    },
    {
        "3L9SmG6b": "50026402",
        "gvT2ds0Q": "3",
        "nm1USVcx": "300",
        "P_SKILL_NAME": "\u8987\u976d\u306e\u5149\u5370",
        "P_GROUP_ID": "1",
        "P_PRIORITY": "37",
        "P_RARE": "4",
        "moWQ30GH": "3",
        "P_PASSIVE_SKILL_GROUP_INFO": "4010003",
        "P_EXT_IMG_PARAM": "13:\u653b\u6483BB\u306e\u5a01\u529b\u309220%\u30a2\u30c3\u30d7",
        "H49qP1tw": "1",
        "97yTNbfr": "13",
        "P_NEED_SWITCH_INFO": "0",
        "P_HIDE_SWITCH_INFO": "0",
        "P_OPEN_SWITCH_INFO": "0",
        "P_CREATEDATE": "2018-09-25 01:26:04",
        "P_UPDATEDATE": "2018-09-25 01:26:04"
    },
    {
        "3L9SmG6b": "50026403",
        "gvT2ds0Q": "5",
        "nm1USVcx": "750",
        "P_SKILL_NAME": "\u6975\u5149\u306e\u6b66",
        "P_GROUP_ID": "1",
        "P_PRIORITY": "38",
        "P_RARE": "4",
        "moWQ30GH": "3",
        "P_PASSIVE_SKILL_GROUP_INFO": "1015003",
        "P_EXT_IMG_PARAM": "1:\u5168\u80fd\u529b\u309215%\u30a2\u30c3\u30d7",
        "H49qP1tw": "1",
        "97yTNbfr": "1",
        "P_NEED_SWITCH_INFO": "0",
        "P_HIDE_SWITCH_INFO": "0",
        "P_OPEN_SWITCH_INFO": "0",
        "P_CREATEDATE": "2018-09-25 01:26:04",
        "P_UPDATEDATE": "2018-09-25 01:26:04"
    },
    {
        "3L9SmG6b": "50030401",
        "gvT2ds0Q": "2",
        "nm1USVcx": "100",
        "P_SKILL_NAME": "\u9583\u722a\u306e\u82b1",
        "P_GROUP_ID": "1",
        "P_PRIORITY": "1003",
        "P_RARE": "2",
        "moWQ30GH": "3",
        "P_PASSIVE_SKILL_GROUP_INFO": "2010001",
        "P_EXT_IMG_PARAM": "11:\u30b9\u30d1\u30fc\u30af\u30c0\u30e1\u30fc\u30b8\u309210%\u30a2\u30c3\u30d7",
        "H49qP1tw": "1",
        "97yTNbfr": "11",
        "P_NEED_SWITCH_INFO": "0",
        "P_HIDE_SWITCH_INFO": "0",
        "P_OPEN_SWITCH_INFO": "0",
        "P_CREATEDATE": "2018-09-25 01:26:04",
        "P_UPDATEDATE": "2018-09-25 01:26:04"
    },
    {
        "3L9SmG6b": "50030402",
        "gvT2ds0Q": "3",
        "nm1USVcx": "200",
        "P_SKILL_NAME": "\u65ac\u5149\u306e\u5486\u82b1",
        "P_GROUP_ID": "1",
        "P_PRIORITY": "1004",
        "P_RARE": "3",
        "moWQ30GH": "3",
        "P_PASSIVE_SKILL_GROUP_INFO": "2010002",
        "P_EXT_IMG_PARAM": "11:\u30b9\u30d1\u30fc\u30af\u30c0\u30e1\u30fc\u30b8\u309215%\u30a2\u30c3\u30d7",
        "H49qP1tw": "1",
        "97yTNbfr": "11",
        "P_NEED_SWITCH_INFO": "0",
        "P_HIDE_SWITCH_INFO": "0",
        "P_OPEN_SWITCH_INFO": "0",
        "P_CREATEDATE": "2018-09-25 01:26:04",
        "P_UPDATEDATE": "2018-09-25 01:26:04"
    },
    {
        "3L9SmG6b": "50036301",
        "gvT2ds0Q": "3",
        "nm1USVcx": "150",
        "P_SKILL_NAME": "\u656c\u8654\u306a\u308b\u8b77\u5370",
        "P_GROUP_ID": "1",
        "P_PRIORITY": "1016",
        "P_RARE": "2",
        "moWQ30GH": "3",
        "P_PASSIVE_SKILL_GROUP_INFO": "1010002",
        "P_EXT_IMG_PARAM": "1:\u9b54\u9632\u529b\u30fb\u6700\u5927HP\u309210%\u30a2\u30c3\u30d7",
        "H49qP1tw": "1",
        "97yTNbfr": "1",
        "P_NEED_SWITCH_INFO": "0",
        "P_HIDE_SWITCH_INFO": "0",
        "P_OPEN_SWITCH_INFO": "0",
        "P_CREATEDATE": "2018-09-25 01:26:04",
        "P_UPDATEDATE": "2018-09-25 01:26:04"
    },
    {
        "3L9SmG6b": "50036302",
        "gvT2ds0Q": "4",
        "nm1USVcx": "300",
        "P_SKILL_NAME": "\u5149\u6167\u306e\u6cbb\u7652",
        "P_GROUP_ID": "1",
        "P_PRIORITY": "1017",
        "P_RARE": "3",
        "moWQ30GH": "3",
        "P_PASSIVE_SKILL_GROUP_INFO": "6010101",
        "P_EXT_IMG_PARAM": "7:\u30bf\u30fc\u30f3\u6bce\u306bHP\u3092300\u301c400\u56de\u5fa9",
        "H49qP1tw": "1",
        "97yTNbfr": "7",
        "P_NEED_SWITCH_INFO": "0",
        "P_HIDE_SWITCH_INFO": "0",
        "P_OPEN_SWITCH_INFO": "0",
        "P_CREATEDATE": "2018-09-25 01:26:04",
        "P_UPDATEDATE": "2018-09-25 01:26:04"
    },
    {
        "3L9SmG6b": "50037401",
        "gvT2ds0Q": "4",
        "nm1USVcx": "100",
        "P_SKILL_NAME": "\u53e1\u667a\u306e\u8b77\u5370",
        "P_GROUP_ID": "1",
        "P_PRIORITY": "1018",
        "P_RARE": "4",
        "moWQ30GH": "3",
        "P_PASSIVE_SKILL_GROUP_INFO": "1010003",
        "P_EXT_IMG_PARAM": "1:\u9b54\u9632\u529b\u30fb\u6700\u5927HP\u309215%\u30a2\u30c3\u30d7",
        "H49qP1tw": "1",
        "97yTNbfr": "1",
        "P_NEED_SWITCH_INFO": "0",
        "P_HIDE_SWITCH_INFO": "0",
        "P_OPEN_SWITCH_INFO": "0",
        "P_CREATEDATE": "2018-09-25 01:26:04",
        "P_UPDATEDATE": "2018-09-25 01:26:04"
    },
    {
        "3L9SmG6b": "50037402",
        "gvT2ds0Q": "4",
        "nm1USVcx": "300",
        "P_SKILL_NAME": "\u4e07\u969c\u306e\u907f\u5384",
        "P_GROUP_ID": "1",
        "P_PRIORITY": "1019",
        "P_RARE": "4",
        "moWQ30GH": "3",
        "P_PASSIVE_SKILL_GROUP_INFO": "8017000",
        "P_EXT_IMG_PARAM": "5:\u6bd2\u30fb\u602a\u6211\u30fb\u5f31\u4f53\u30fb\u96d1\u5ff5\u30fb\u865a\u8131\u30fb\u75c5\u6c17\u30fb\u9ebb\u75fa\u30fb\u546a\u3044\u30fb\u5e7b\u899a\u30fb\u6df7\u4e71\u8010\u6027\u309225%\u30a2\u30c3\u30d7",
        "H49qP1tw": "1",
        "97yTNbfr": "5",
        "P_NEED_SWITCH_INFO": "0",
        "P_HIDE_SWITCH_INFO": "0",
        "P_OPEN_SWITCH_INFO": "0",
        "P_CREATEDATE": "2018-09-25 01:26:04",
        "P_UPDATEDATE": "2018-09-25 01:26:04"
    },
    {
        "3L9SmG6b": "50041301",
        "gvT2ds0Q": "2",
        "nm1USVcx": "100",
        "P_SKILL_NAME": "\u5149\u5a92\u7c92\u5b50",
        "P_GROUP_ID": "1",
        "P_PRIORITY": "39",
        "P_RARE": "2",
        "moWQ30GH": "3",
        "P_PASSIVE_SKILL_GROUP_INFO": "1006001",
        "P_EXT_IMG_PARAM": "1:\u653b\u6483\u529b\u30fb\u9b54\u9632\u529b\u30925%\u30a2\u30c3\u30d7",
        "H49qP1tw": "1",
        "97yTNbfr": "1",
        "P_NEED_SWITCH_INFO": "0",
        "P_HIDE_SWITCH_INFO": "0",
        "P_OPEN_SWITCH_INFO": "0",
        "P_CREATEDATE": "2018-09-25 01:26:04",
        "P_UPDATEDATE": "2018-09-25 01:26:04"
    },
    {
        "3L9SmG6b": "50041302",
        "gvT2ds0Q": "3",
        "nm1USVcx": "200",
        "P_SKILL_NAME": "\u5149\u5a92\u5faa\u74b0",
        "P_GROUP_ID": "1",
        "P_PRIORITY": "40",
        "P_RARE": "3",
        "moWQ30GH": "3",
        "P_PASSIVE_SKILL_GROUP_INFO": "1006002",
        "P_EXT_IMG_PARAM": "1:\u653b\u6483\u529b\u30fb\u9b54\u9632\u529b\u309210%\u30a2\u30c3\u30d7",
        "H49qP1tw": "1",
        "97yTNbfr": "1",
        "P_NEED_SWITCH_INFO": "0",
        "P_HIDE_SWITCH_INFO": "0",
        "P_OPEN_SWITCH_INFO": "0",
        "P_CREATEDATE": "2018-09-25 01:26:04",
        "P_UPDATEDATE": "2018-09-25 01:26:04"
    },
    {
        "3L9SmG6b": "50041401",
        "gvT2ds0Q": "4",
        "nm1USVcx": "300",
        "P_SKILL_NAME": "\u661f\u5a92\u8ecc\u74b0",
        "P_GROUP_ID": "1",
        "P_PRIORITY": "41",
        "P_RARE": "4",
        "moWQ30GH": "3",
        "P_PASSIVE_SKILL_GROUP_INFO": "1006003",
        "P_EXT_IMG_PARAM": "1:\u653b\u6483\u529b\u30fb\u9b54\u9632\u529b\u309215%\u30a2\u30c3\u30d7",
        "H49qP1tw": "1",
        "97yTNbfr": "1",
        "P_NEED_SWITCH_INFO": "0",
        "P_HIDE_SWITCH_INFO": "0",
        "P_OPEN_SWITCH_INFO": "0",
        "P_CREATEDATE": "2018-09-25 01:26:04",
        "P_UPDATEDATE": "2018-09-25 01:26:04"
    },
    {
        "3L9SmG6b": "50041402",
        "gvT2ds0Q": "3",
        "nm1USVcx": "500",
        "P_SKILL_NAME": "\u5de1\u6052\u306e\u661f\u967d",
        "P_GROUP_ID": "1",
        "P_PRIORITY": "42",
        "P_RARE": "3",
        "moWQ30GH": "3",
        "P_PASSIVE_SKILL_GROUP_INFO": "5080001",
        "P_EXT_IMG_PARAM": "6:BB\u767a\u52d5\u306b\u5fc5\u8981\u306aBB\u30b2\u30fc\u30b8\u91cf\u309210%\u8efd\u6e1b",
        "H49qP1tw": "1",
        "97yTNbfr": "6",
        "P_NEED_SWITCH_INFO": "0",
        "P_HIDE_SWITCH_INFO": "0",
        "P_OPEN_SWITCH_INFO": "0",
        "P_CREATEDATE": "2018-09-25 01:26:04",
        "P_UPDATEDATE": "2018-09-25 01:26:04"
    },
    {
        "3L9SmG6b": "50050401",
        "gvT2ds0Q": "1",
        "nm1USVcx": "200",
        "P_SKILL_NAME": "\u95c7\u4f10\u306e\u8056\u8f1d",
        "P_GROUP_ID": "1",
        "P_PRIORITY": "55",
        "P_RARE": "4",
        "moWQ30GH": "3",
        "P_PASSIVE_SKILL_GROUP_INFO": "4020404",
        "P_EXT_IMG_PARAM": "13:\u5149\u5c5e\u6027\u6b66\u5668\u306e\u5f31\u70b9\u5c5e\u6027\u30c0\u30e1\u30fc\u30b8\u309225%\u30a2\u30c3\u30d7",
        "H49qP1tw": "1",
        "97yTNbfr": "13",
        "P_NEED_SWITCH_INFO": "0",
        "P_HIDE_SWITCH_INFO": "0",
        "P_OPEN_SWITCH_INFO": "0",
        "P_CREATEDATE": "2018-09-25 01:26:04",
        "P_UPDATEDATE": "2018-09-25 01:26:04"
    },
    {
        "3L9SmG6b": "50050402",
        "gvT2ds0Q": "3",
        "nm1USVcx": "300",
        "P_SKILL_NAME": "\u53db\u8a93\u306e\u51f1\u6b4c",
        "P_GROUP_ID": "1",
        "P_PRIORITY": "56",
        "P_RARE": "3",
        "moWQ30GH": "3",
        "P_PASSIVE_SKILL_GROUP_INFO": "12000103",
        "P_EXT_IMG_PARAM": "15:\u88ab\u30c0\u30e1\u30fc\u30b8\u304c3000\u3092\u8d85\u3048\u308b\u6bce\u306b\u300c3\u30bf\u30fc\u30f3\u3001\u30bf\u30fc\u30f3\u6bce\u306bBB\u30b2\u30fc\u30b8\u3092400\u5897\u52a0\u300d\u3092\u767a\u52d5",
        "H49qP1tw": "1",
        "97yTNbfr": "6",
        "P_NEED_SWITCH_INFO": "0",
        "P_HIDE_SWITCH_INFO": "0",
        "P_OPEN_SWITCH_INFO": "0",
        "P_CREATEDATE": "2018-09-25 01:26:04",
        "P_UPDATEDATE": "2018-09-25 01:26:04"
    },
    {
        "3L9SmG6b": "50050403",
        "gvT2ds0Q": "3",
        "nm1USVcx": "400",
        "P_SKILL_NAME": "\u714c\u9a0e\u306e\u52c7\u5203",
        "P_GROUP_ID": "1",
        "P_PRIORITY": "57",
        "P_RARE": "4",
        "moWQ30GH": "3",
        "P_PASSIVE_SKILL_GROUP_INFO": "1011003",
        "P_EXT_IMG_PARAM": "1:\u653b\u6483\u529b\u30fb\u9632\u5fa1\u529b\u30fb\u9b54\u9632\u529b\u309215%\u30a2\u30c3\u30d7",
        "H49qP1tw": "1",
        "97yTNbfr": "1",
        "P_NEED_SWITCH_INFO": "0",
        "P_HIDE_SWITCH_INFO": "0",
        "P_OPEN_SWITCH_INFO": "0",
        "P_CREATEDATE": "2018-09-25 01:26:04",
        "P_UPDATEDATE": "2018-09-25 01:26:04"
    },
    {
        "3L9SmG6b": "50050404",
        "gvT2ds0Q": "2",
        "nm1USVcx": "600",
        "P_SKILL_NAME": "\u53db\u5929\u306e\u5bbf\u8b77",
        "P_GROUP_ID": "1",
        "P_PRIORITY": "58",
        "P_RARE": "4",
        "moWQ30GH": "3",
        "P_PASSIVE_SKILL_GROUP_INFO": "12000302",
        "P_EXT_IMG_PARAM": "15:\u88ab\u30c0\u30e1\u30fc\u30b8\u304c5000\u3092\u8d85\u3048\u308b\u6bce\u306b\u300c3\u30bf\u30fc\u30f3\u3001\u7269\u7406\u30c0\u30e1\u30fc\u30b8\u309210%\u8efd\u6e1b\u300d\u3092\u767a\u52d5",
        "H49qP1tw": "1",
        "97yTNbfr": "10",
        "P_NEED_SWITCH_INFO": "0",
        "P_HIDE_SWITCH_INFO": "0",
        "P_OPEN_SWITCH_INFO": "0",
        "P_CREATEDATE": "2018-09-25 01:26:04",
        "P_UPDATEDATE": "2018-09-25 01:26:04"
    },
    {
        "3L9SmG6b": "50050405",
        "gvT2ds0Q": "6",
        "nm1USVcx": "800",
        "P_SKILL_NAME": "\u84bc\u714c\u306e\u7fa9\u5a01",
        "P_GROUP_ID": "1",
        "P_PRIORITY": "59",
        "P_RARE": "4",
        "moWQ30GH": "3",
        "P_PASSIVE_SKILL_GROUP_INFO": "1015004",
        "P_EXT_IMG_PARAM": "1:\u5168\u80fd\u529b\u309220%\u30a2\u30c3\u30d7",
        "H49qP1tw": "1",
        "97yTNbfr": "1",
        "P_NEED_SWITCH_INFO": "0",
        "P_HIDE_SWITCH_INFO": "0",
        "P_OPEN_SWITCH_INFO": "0",
        "P_CREATEDATE": "2018-09-25 01:26:04",
        "P_UPDATEDATE": "2018-09-25 01:26:04"
    },
    {
        "3L9SmG6b": "50052401",
        "gvT2ds0Q": "4",
        "nm1USVcx": "300",
        "P_SKILL_NAME": "\u8056\u5ec9\u306a\u308b\u8abf\u3079",
        "P_GROUP_ID": "1",
        "P_PRIORITY": "1043",
        "P_RARE": "4",
        "moWQ30GH": "3",
        "P_PASSIVE_SKILL_GROUP_INFO": "1008004",
        "P_EXT_IMG_PARAM": "1:\u9632\u5fa1\u529b\u30fb\u9b54\u9632\u529b\u309220%\u30a2\u30c3\u30d7",
        "H49qP1tw": "1",
        "97yTNbfr": "1",
        "P_NEED_SWITCH_INFO": "0",
        "P_HIDE_SWITCH_INFO": "0",
        "P_OPEN_SWITCH_INFO": "0",
        "P_CREATEDATE": "2018-09-25 01:26:04",
        "P_UPDATEDATE": "2018-09-25 01:26:04"
    },
    {
        "3L9SmG6b": "50052402",
        "gvT2ds0Q": "2",
        "nm1USVcx": "500",
        "P_SKILL_NAME": "\u6148\u9e97\u306e\u594f\u66f2",
        "P_GROUP_ID": "1",
        "P_PRIORITY": "1044",
        "P_RARE": "4",
        "moWQ30GH": "3",
        "P_PASSIVE_SKILL_GROUP_INFO": "6030009",
        "P_EXT_IMG_PARAM": "7:\u88ab\u30c0\u30e1\u30fc\u30b8\u6642\u300130%\u306e\u78ba\u7387\u3067HP\u309220\u301c25%\u56de\u5fa9\uff081\u30bf\u30fc\u30f32\u56de\u307e\u3067\uff09",
        "H49qP1tw": "1",
        "97yTNbfr": "7",
        "P_NEED_SWITCH_INFO": "0",
        "P_HIDE_SWITCH_INFO": "0",
        "P_OPEN_SWITCH_INFO": "0",
        "P_CREATEDATE": "2018-09-25 01:26:04",
        "P_UPDATEDATE": "2018-09-25 01:26:04"
    },
    {
        "3L9SmG6b": "50052403",
        "gvT2ds0Q": "3",
        "nm1USVcx": "700",
        "P_SKILL_NAME": "\u53db\u51f1\u306e\u97ff\u66f2",
        "P_GROUP_ID": "1",
        "P_PRIORITY": "1045",
        "P_RARE": "4",
        "moWQ30GH": "3",
        "P_PASSIVE_SKILL_GROUP_INFO": "12000303",
        "P_EXT_IMG_PARAM": "15:\u88ab\u30c0\u30e1\u30fc\u30b8\u304c5000\u3092\u8d85\u3048\u308b\u6bce\u306b\u300c2\u30bf\u30fc\u30f3\u3001BC\u7372\u5f97\u6642\u306e\u5897\u52a0\u91cf\u309250%\u30a2\u30c3\u30d7\u300d\u3092\u767a\u52d5",
        "H49qP1tw": "1",
        "97yTNbfr": "6",
        "P_NEED_SWITCH_INFO": "0",
        "P_HIDE_SWITCH_INFO": "0",
        "P_OPEN_SWITCH_INFO": "0",
        "P_CREATEDATE": "2018-09-25 01:26:04",
        "P_UPDATEDATE": "2018-09-25 01:26:04"
    },
    {
        "3L9SmG6b": "50058401",
        "gvT2ds0Q": "3",
        "nm1USVcx": "400",
        "P_SKILL_NAME": "\u30aa\u30fc\u30eb\u30ec\u30b8\u30b9\u30c8",
        "P_GROUP_ID": "1",
        "P_PRIORITY": "1052",
        "P_RARE": "3",
        "moWQ30GH": "3",
        "P_PASSIVE_SKILL_GROUP_INFO": "8017002",
        "P_EXT_IMG_PARAM": "5:\u6bd2\u30fb\u602a\u6211\u30fb\u5f31\u4f53\u30fb\u96d1\u5ff5\u30fb\u865a\u8131\u30fb\u75c5\u6c17\u30fb\u9ebb\u75fa\u30fb\u546a\u3044\u30fb\u5e7b\u899a\u30fb\u6df7\u4e71\u8010\u6027\u309250%\u30a2\u30c3\u30d7",
        "H49qP1tw": "1",
        "97yTNbfr": "5",
        "P_NEED_SWITCH_INFO": "0",
        "P_HIDE_SWITCH_INFO": "0",
        "P_OPEN_SWITCH_INFO": "0",
        "P_CREATEDATE": "2018-09-25 01:26:04",
        "P_UPDATEDATE": "2018-09-25 01:26:04"
    },
    {
        "3L9SmG6b": "50058402",
        "gvT2ds0Q": "2",
        "nm1USVcx": "300",
        "P_SKILL_NAME": "\u30a8\u30f3\u30c1\u30e3\u30f3\u30c8\u30fb\u30d5\u30ec\u30a4\u30e0",
        "P_GROUP_ID": "1",
        "P_PRIORITY": "1053",
        "P_RARE": "3",
        "moWQ30GH": "3",
        "P_PASSIVE_SKILL_GROUP_INFO": "4070000",
        "P_EXT_IMG_PARAM": "13:\u653b\u6483\u306b\u708e\u5c5e\u6027\u3092\u4ed8\u4e0e",
        "H49qP1tw": "1",
        "97yTNbfr": "13",
        "P_NEED_SWITCH_INFO": "0",
        "P_HIDE_SWITCH_INFO": "0",
        "P_OPEN_SWITCH_INFO": "0",
        "P_CREATEDATE": "2018-09-25 01:26:04",
        "P_UPDATEDATE": "2018-09-25 01:26:04"
    },
    {
        "3L9SmG6b": "50058403",
        "gvT2ds0Q": "2",
        "nm1USVcx": "300",
        "P_SKILL_NAME": "\u30a8\u30f3\u30c1\u30e3\u30f3\u30c8\u30fb\u30a2\u30af\u30a2",
        "P_GROUP_ID": "1",
        "P_PRIORITY": "1054",
        "P_RARE": "3",
        "moWQ30GH": "3",
        "P_PASSIVE_SKILL_GROUP_INFO": "4070100",
        "P_EXT_IMG_PARAM": "13:\u653b\u6483\u306b\u6c34\u5c5e\u6027\u3092\u4ed8\u4e0e",
        "H49qP1tw": "1",
        "97yTNbfr": "13",
        "P_NEED_SWITCH_INFO": "0",
        "P_HIDE_SWITCH_INFO": "0",
        "P_OPEN_SWITCH_INFO": "0",
        "P_CREATEDATE": "2018-09-25 01:26:04",
        "P_UPDATEDATE": "2018-09-25 01:26:04"
    },
    {
        "3L9SmG6b": "50058404",
        "gvT2ds0Q": "2",
        "nm1USVcx": "300",
        "P_SKILL_NAME": "\u30a8\u30f3\u30c1\u30e3\u30f3\u30c8\u30fb\u30a8\u30e1\u30e9\u30eb\u30c9",
        "P_GROUP_ID": "1",
        "P_PRIORITY": "1055",
        "P_RARE": "3",
        "moWQ30GH": "3",
        "P_PASSIVE_SKILL_GROUP_INFO": "4070200",
        "P_EXT_IMG_PARAM": "13:\u653b\u6483\u306b\u6a39\u5c5e\u6027\u3092\u4ed8\u4e0e",
        "H49qP1tw": "1",
        "97yTNbfr": "13",
        "P_NEED_SWITCH_INFO": "0",
        "P_HIDE_SWITCH_INFO": "0",
        "P_OPEN_SWITCH_INFO": "0",
        "P_CREATEDATE": "2018-09-25 01:26:04",
        "P_UPDATEDATE": "2018-09-25 01:26:04"
    },
    {
        "3L9SmG6b": "50058405",
        "gvT2ds0Q": "2",
        "nm1USVcx": "300",
        "P_SKILL_NAME": "\u30a8\u30f3\u30c1\u30e3\u30f3\u30c8\u30fb\u30f4\u30a9\u30eb\u30c8",
        "P_GROUP_ID": "1",
        "P_PRIORITY": "1056",
        "P_RARE": "3",
        "moWQ30GH": "3",
        "P_PASSIVE_SKILL_GROUP_INFO": "4070300",
        "P_EXT_IMG_PARAM": "13:\u653b\u6483\u306b\u96f7\u5c5e\u6027\u3092\u4ed8\u4e0e",
        "H49qP1tw": "1",
        "97yTNbfr": "13",
        "P_NEED_SWITCH_INFO": "0",
        "P_HIDE_SWITCH_INFO": "0",
        "P_OPEN_SWITCH_INFO": "0",
        "P_CREATEDATE": "2018-09-25 01:26:04",
        "P_UPDATEDATE": "2018-09-25 01:26:04"
    },
    {
        "3L9SmG6b": "50058406",
        "gvT2ds0Q": "3",
        "nm1USVcx": "400",
        "P_SKILL_NAME": "\u30a8\u30f3\u30c1\u30e3\u30f3\u30c8\u30fb\u30c0\u30fc\u30af",
        "P_GROUP_ID": "1",
        "P_PRIORITY": "1057",
        "P_RARE": "4",
        "moWQ30GH": "3",
        "P_PASSIVE_SKILL_GROUP_INFO": "4070400",
        "P_EXT_IMG_PARAM": "13:\u653b\u6483\u306b\u5149\u5c5e\u6027\u3092\u4ed8\u4e0e",
        "H49qP1tw": "1",
        "97yTNbfr": "13",
        "P_NEED_SWITCH_INFO": "0",
        "P_HIDE_SWITCH_INFO": "0",
        "P_OPEN_SWITCH_INFO": "0",
        "P_CREATEDATE": "2018-09-25 01:26:04",
        "P_UPDATEDATE": "2018-09-25 01:26:04"
    },
    {
        "3L9SmG6b": "50058407",
        "gvT2ds0Q": "3",
        "nm1USVcx": "400",
        "P_SKILL_NAME": "\u30a8\u30f3\u30c1\u30e3\u30f3\u30c8\u30fb\u30b7\u30e3\u30a4\u30f3",
        "P_GROUP_ID": "1",
        "P_PRIORITY": "1058",
        "P_RARE": "4",
        "moWQ30GH": "3",
        "P_PASSIVE_SKILL_GROUP_INFO": "4070500",
        "P_EXT_IMG_PARAM": "13:\u653b\u6483\u306b\u95c7\u5c5e\u6027\u3092\u4ed8\u4e0e",
        "H49qP1tw": "1",
        "97yTNbfr": "13",
        "P_NEED_SWITCH_INFO": "0",
        "P_HIDE_SWITCH_INFO": "0",
        "P_OPEN_SWITCH_INFO": "0",
        "P_CREATEDATE": "2018-09-25 01:26:04",
        "P_UPDATEDATE": "2018-09-25 01:26:04"
    },
    {
        "3L9SmG6b": "60018401",
        "gvT2ds0Q": "1",
        "nm1USVcx": "30",
        "P_SKILL_NAME": "\u95c7\u306b\u7a7f\u305f\u308c\u308b\u546a\u8a5b",
        "P_GROUP_ID": "1",
        "P_PRIORITY": "21",
        "P_RARE": "1",
        "moWQ30GH": "3",
        "P_PASSIVE_SKILL_GROUP_INFO": "9020501",
        "P_EXT_IMG_PARAM": "4:10%\u306e\u78ba\u7387\u30672\u30bf\u30fc\u30f3\u3001\u5f31\u4f53\u30fb\u546a\u3044\u72b6\u614b\u306b\u3059\u308b",
        "H49qP1tw": "1",
        "97yTNbfr": "4",
        "P_NEED_SWITCH_INFO": "0",
        "P_HIDE_SWITCH_INFO": "0",
        "P_OPEN_SWITCH_INFO": "0",
        "P_CREATEDATE": "2018-09-25 01:26:04",
        "P_UPDATEDATE": "2018-09-25 01:26:04"
    },
    {
        "3L9SmG6b": "60018402",
        "gvT2ds0Q": "2",
        "nm1USVcx": "150",
        "P_SKILL_NAME": "\u9b54\u5f13\u306e\u6226\u6b4c",
        "P_GROUP_ID": "1",
        "P_PRIORITY": "22",
        "P_RARE": "2",
        "moWQ30GH": "3",
        "P_PASSIVE_SKILL_GROUP_INFO": "5020003",
        "P_EXT_IMG_PARAM": "6:\u653b\u6483\u6642\u300150%\u306e\u78ba\u7387\u3067BB\u30b2\u30fc\u30b8\u3092200\u5897\u52a0",
        "H49qP1tw": "1",
        "97yTNbfr": "6",
        "P_NEED_SWITCH_INFO": "0",
        "P_HIDE_SWITCH_INFO": "0",
        "P_OPEN_SWITCH_INFO": "0",
        "P_CREATEDATE": "2018-09-25 01:26:04",
        "P_UPDATEDATE": "2018-09-25 01:26:04"
    },
    {
        "3L9SmG6b": "60019301",
        "gvT2ds0Q": "1",
        "nm1USVcx": "100",
        "P_SKILL_NAME": "\u9ed2\u304d\u9583\u6483",
        "P_GROUP_ID": "1",
        "P_PRIORITY": "23",
        "P_RARE": "2",
        "moWQ30GH": "3",
        "P_PASSIVE_SKILL_GROUP_INFO": "3010000",
        "P_EXT_IMG_PARAM": "2:\u30af\u30ea\u30c6\u30a3\u30ab\u30eb\u7387\u30925%\u30a2\u30c3\u30d7",
        "H49qP1tw": "1",
        "97yTNbfr": "2",
        "P_NEED_SWITCH_INFO": "0",
        "P_HIDE_SWITCH_INFO": "0",
        "P_OPEN_SWITCH_INFO": "0",
        "P_CREATEDATE": "2018-09-25 01:26:04",
        "P_UPDATEDATE": "2018-09-25 01:26:04"
    },
    {
        "3L9SmG6b": "60020401",
        "gvT2ds0Q": "4",
        "nm1USVcx": "500",
        "P_SKILL_NAME": "\u51a5\u738b\u306e\u6b66",
        "P_GROUP_ID": "1",
        "P_PRIORITY": "24",
        "P_RARE": "3",
        "moWQ30GH": "3",
        "P_PASSIVE_SKILL_GROUP_INFO": "1015002",
        "P_EXT_IMG_PARAM": "1:\u5168\u80fd\u529b\u309210%\u30a2\u30c3\u30d7",
        "H49qP1tw": "1",
        "97yTNbfr": "1",
        "P_NEED_SWITCH_INFO": "0",
        "P_HIDE_SWITCH_INFO": "0",
        "P_OPEN_SWITCH_INFO": "0",
        "P_CREATEDATE": "2018-09-25 01:26:04",
        "P_UPDATEDATE": "2018-09-25 01:26:04"
    },
    {
        "3L9SmG6b": "60035401",
        "gvT2ds0Q": "1",
        "nm1USVcx": "50",
        "P_SKILL_NAME": "\u6bb2\u88c2\u306a\u308b\u4e00\u9583",
        "P_GROUP_ID": "1",
        "P_PRIORITY": "1014",
        "P_RARE": "2",
        "moWQ30GH": "3",
        "P_PASSIVE_SKILL_GROUP_INFO": "9002007",
        "P_EXT_IMG_PARAM": "4:10%\u306e\u78ba\u7387\u30672\u30bf\u30fc\u30f3\u3001\u602a\u6211\u72b6\u614b\u306b\u3059\u308b",
        "H49qP1tw": "1",
        "97yTNbfr": "4",
        "P_NEED_SWITCH_INFO": "0",
        "P_HIDE_SWITCH_INFO": "0",
        "P_OPEN_SWITCH_INFO": "0",
        "P_CREATEDATE": "2018-09-25 01:26:04",
        "P_UPDATEDATE": "2018-09-25 01:26:04"
    },
    {
        "3L9SmG6b": "60035402",
        "gvT2ds0Q": "2",
        "nm1USVcx": "200",
        "P_SKILL_NAME": "\u5199\u3057\u8eab\u306e\u9b54\u6b4c",
        "P_GROUP_ID": "1",
        "P_PRIORITY": "1015",
        "P_RARE": "3",
        "moWQ30GH": "3",
        "P_PASSIVE_SKILL_GROUP_INFO": "5040013",
        "P_EXT_IMG_PARAM": "6:\u88ab\u30c0\u30e1\u30fc\u30b8\u6642\u300150%\u306e\u78ba\u7387\u3067BB\u30b2\u30fc\u30b8\u3092100\u301c150\u5897\u52a0\uff081\u30bf\u30fc\u30f33\u56de\u307e\u3067\uff09",
        "H49qP1tw": "1",
        "97yTNbfr": "6",
        "P_NEED_SWITCH_INFO": "0",
        "P_HIDE_SWITCH_INFO": "0",
        "P_OPEN_SWITCH_INFO": "0",
        "P_CREATEDATE": "2018-09-25 01:26:04",
        "P_UPDATEDATE": "2018-09-25 01:26:04"
    },
    {
        "3L9SmG6b": "60044301",
        "gvT2ds0Q": "2",
        "nm1USVcx": "200",
        "P_SKILL_NAME": "\u5927\u9858\u306e\u9b3c\u9053",
        "P_GROUP_ID": "1",
        "P_PRIORITY": "1025",
        "P_RARE": "2",
        "moWQ30GH": "3",
        "P_PASSIVE_SKILL_GROUP_INFO": "5030003",
        "P_EXT_IMG_PARAM": "6:\u6575\u6483\u7834\u6642\u3001BB\u30b2\u30fc\u30b8\u3092300\u5897\u52a0",
        "H49qP1tw": "1",
        "97yTNbfr": "6",
        "P_NEED_SWITCH_INFO": "0",
        "P_HIDE_SWITCH_INFO": "0",
        "P_OPEN_SWITCH_INFO": "0",
        "P_CREATEDATE": "2018-09-25 01:26:04",
        "P_UPDATEDATE": "2018-09-25 01:26:04"
    },
    {
        "3L9SmG6b": "60044302",
        "gvT2ds0Q": "2",
        "nm1USVcx": "200",
        "P_SKILL_NAME": "\u4e0d\u5fdc\u306e\u696d\u679c",
        "P_GROUP_ID": "1",
        "P_PRIORITY": "1026",
        "P_RARE": "3",
        "moWQ30GH": "3",
        "P_PASSIVE_SKILL_GROUP_INFO": "1018002",
        "P_EXT_IMG_PARAM": "1:\u6b8b\u308aHP\u304c\u591a\u3044\u307b\u3069\u653b\u6483\u529b\u3092\u6700\u592715%\u30a2\u30c3\u30d7",
        "H49qP1tw": "1",
        "97yTNbfr": "1",
        "P_NEED_SWITCH_INFO": "0",
        "P_HIDE_SWITCH_INFO": "0",
        "P_OPEN_SWITCH_INFO": "0",
        "P_CREATEDATE": "2018-09-25 01:26:04",
        "P_UPDATEDATE": "2018-09-25 01:26:04"
    },
    {
        "3L9SmG6b": "60044401",
        "gvT2ds0Q": "4",
        "nm1USVcx": "400",
        "P_SKILL_NAME": "\u8ee2\u547d\u306e\u696d\u679c",
        "P_GROUP_ID": "1",
        "P_PRIORITY": "1027",
        "P_RARE": "4",
        "moWQ30GH": "3",
        "P_PASSIVE_SKILL_GROUP_INFO": "1018003",
        "P_EXT_IMG_PARAM": "1:\u6b8b\u308aHP\u304c\u591a\u3044\u307b\u3069\u653b\u6483\u529b\u3092\u6700\u592725%\u30a2\u30c3\u30d7",
        "H49qP1tw": "1",
        "97yTNbfr": "1",
        "P_NEED_SWITCH_INFO": "0",
        "P_HIDE_SWITCH_INFO": "0",
        "P_OPEN_SWITCH_INFO": "0",
        "P_CREATEDATE": "2018-09-25 01:26:04",
        "P_UPDATEDATE": "2018-09-25 01:26:04"
    },
    {
        "3L9SmG6b": "60044402",
        "gvT2ds0Q": "3",
        "nm1USVcx": "400",
        "P_SKILL_NAME": "\u5bb5\u306e\u96eb",
        "P_GROUP_ID": "1",
        "P_PRIORITY": "1028",
        "P_RARE": "2",
        "moWQ30GH": "3",
        "P_PASSIVE_SKILL_GROUP_INFO": "6060004",
        "P_EXT_IMG_PARAM": "7:20%\u306e\u78ba\u7387\u3067HP\u3092\u4e0e\u30c0\u30e1\u30fc\u30b8\u306e1\uff05\u301c3%\u56de\u5fa9",
        "H49qP1tw": "1",
        "97yTNbfr": "7",
        "P_NEED_SWITCH_INFO": "0",
        "P_HIDE_SWITCH_INFO": "0",
        "P_OPEN_SWITCH_INFO": "0",
        "P_CREATEDATE": "2018-09-25 01:26:04",
        "P_UPDATEDATE": "2018-09-25 01:26:04"
    },
    {
        "3L9SmG6b": "60047401",
        "gvT2ds0Q": "2",
        "nm1USVcx": "200",
        "P_SKILL_NAME": "\u95d8\u5fc3\u306e\u5149",
        "P_GROUP_ID": "1",
        "P_PRIORITY": "52",
        "P_RARE": "3",
        "moWQ30GH": "3",
        "P_PASSIVE_SKILL_GROUP_INFO": "2060003",
        "P_EXT_IMG_PARAM": "11:\u30b9\u30d1\u30fc\u30af\u6642\u3001BC\u30fbHC\u51fa\u73fe\u7387\u309215%\u30a2\u30c3\u30d7",
        "H49qP1tw": "1",
        "97yTNbfr": "11",
        "P_NEED_SWITCH_INFO": "0",
        "P_HIDE_SWITCH_INFO": "0",
        "P_OPEN_SWITCH_INFO": "0",
        "P_CREATEDATE": "2018-09-25 01:26:04",
        "P_UPDATEDATE": "2018-09-25 01:26:04"
    },
    {
        "3L9SmG6b": "60047402",
        "gvT2ds0Q": "3",
        "nm1USVcx": "200",
        "P_SKILL_NAME": "\u8c6a\u96d9\u306e\u5875\u9583",
        "P_GROUP_ID": "1",
        "P_PRIORITY": "53",
        "P_RARE": "4",
        "moWQ30GH": "3",
        "P_PASSIVE_SKILL_GROUP_INFO": "11090001",
        "P_EXT_IMG_PARAM": "15:\u30b9\u30d1\u30fc\u30af\u56de\u6570\u304c15\u56de\u3092\u8d85\u3048\u308b\u6bce\u306b\u300c3\u30bf\u30fc\u30f3\u3001\u653b\u6483\u529b\u309220%\u30a2\u30c3\u30d7\u300d\u3092\u767a\u52d5",
        "H49qP1tw": "1",
        "97yTNbfr": "11",
        "P_NEED_SWITCH_INFO": "0",
        "P_HIDE_SWITCH_INFO": "0",
        "P_OPEN_SWITCH_INFO": "0",
        "P_CREATEDATE": "2018-09-25 01:26:04",
        "P_UPDATEDATE": "2018-09-25 01:26:04"
    },
    {
        "3L9SmG6b": "60047403",
        "gvT2ds0Q": "3",
        "nm1USVcx": "300",
        "P_SKILL_NAME": "\u6602\u92ed\u306e\u9583\u5203",
        "P_GROUP_ID": "1",
        "P_PRIORITY": "54",
        "P_RARE": "4",
        "moWQ30GH": "3",
        "P_PASSIVE_SKILL_GROUP_INFO": "2010103",
        "P_EXT_IMG_PARAM": "11:HP\u304c\u534a\u5206\u4ee5\u4e0a\u306e\u6642\u3001\u30b9\u30d1\u30fc\u30af\u30c0\u30e1\u30fc\u30b8\u309220%\u30a2\u30c3\u30d7",
        "H49qP1tw": "1",
        "97yTNbfr": "11",
        "P_NEED_SWITCH_INFO": "0",
        "P_HIDE_SWITCH_INFO": "0",
        "P_OPEN_SWITCH_INFO": "0",
        "P_CREATEDATE": "2018-09-25 01:26:04",
        "P_UPDATEDATE": "2018-09-25 01:26:04"
    },
    {
        "3L9SmG6b": "60053401",
        "gvT2ds0Q": "1",
        "nm1USVcx": "300",
        "P_SKILL_NAME": "\u7d2b\u7634\u306e\u9b44\u596a",
        "P_GROUP_ID": "1",
        "P_PRIORITY": "60",
        "P_RARE": "4",
        "moWQ30GH": "3",
        "P_PASSIVE_SKILL_GROUP_INFO": "6060009",
        "P_EXT_IMG_PARAM": "7:30%\u306e\u78ba\u7387\u3067HP\u3092\u4e0e\u30c0\u30e1\u30fc\u30b8\u306e4%\u301c6%\u56de\u5fa9",
        "H49qP1tw": "1",
        "97yTNbfr": "7",
        "P_NEED_SWITCH_INFO": "0",
        "P_HIDE_SWITCH_INFO": "0",
        "P_OPEN_SWITCH_INFO": "0",
        "P_CREATEDATE": "2018-09-25 01:26:04",
        "P_UPDATEDATE": "2018-09-25 01:26:04"
    },
    {
        "3L9SmG6b": "60053402",
        "gvT2ds0Q": "2",
        "nm1USVcx": "400",
        "P_SKILL_NAME": "\u7981\u696d\u306e\u54ed\u9583",
        "P_GROUP_ID": "1",
        "P_PRIORITY": "61",
        "P_RARE": "4",
        "moWQ30GH": "3",
        "P_PASSIVE_SKILL_GROUP_INFO": "2010110",
        "P_EXT_IMG_PARAM": "11:HP\u304c80%\u4ee5\u4e0a\u306e\u6642\u3001\u30b9\u30d1\u30fc\u30af\u30c0\u30e1\u30fc\u30b8\u309230%\u30a2\u30c3\u30d7",
        "H49qP1tw": "1",
        "97yTNbfr": "11",
        "P_NEED_SWITCH_INFO": "0",
        "P_HIDE_SWITCH_INFO": "0",
        "P_OPEN_SWITCH_INFO": "0",
        "P_CREATEDATE": "2018-09-25 01:26:04",
        "P_UPDATEDATE": "2018-09-25 01:26:04"
    },
    {
        "3L9SmG6b": "60053403",
        "gvT2ds0Q": "3",
        "nm1USVcx": "600",
        "P_SKILL_NAME": "\u7121\u74b0\u306e\u5147\u5a01",
        "P_GROUP_ID": "1",
        "P_PRIORITY": "62",
        "P_RARE": "4",
        "moWQ30GH": "3",
        "P_PASSIVE_SKILL_GROUP_INFO": "1018003",
        "P_EXT_IMG_PARAM": "1:\u6b8b\u308aHP\u304c\u591a\u3044\u307b\u3069\u653b\u6483\u529b\u3092\u6700\u592725%\u30a2\u30c3\u30d7",
        "H49qP1tw": "1",
        "97yTNbfr": "1",
        "P_NEED_SWITCH_INFO": "0",
        "P_HIDE_SWITCH_INFO": "0",
        "P_OPEN_SWITCH_INFO": "0",
        "P_CREATEDATE": "2018-09-25 01:26:04",
        "P_UPDATEDATE": "2018-09-25 01:26:04"
    },
    {
        "3L9SmG6b": "60054401",
        "gvT2ds0Q": "1",
        "nm1USVcx": "200",
        "P_SKILL_NAME": "\u9b45\u73b2\u306e\u622f\u5fc3",
        "P_GROUP_ID": "1",
        "P_PRIORITY": "1046",
        "P_RARE": "3",
        "moWQ30GH": "3",
        "P_PASSIVE_SKILL_GROUP_INFO": "6020003",
        "P_EXT_IMG_PARAM": "7:HC\u7372\u5f97\u6642\u306e\u56de\u5fa9\u91cf\u309220%\u30a2\u30c3\u30d7",
        "H49qP1tw": "1",
        "97yTNbfr": "7",
        "P_NEED_SWITCH_INFO": "0",
        "P_HIDE_SWITCH_INFO": "0",
        "P_OPEN_SWITCH_INFO": "0",
        "P_CREATEDATE": "2018-09-25 01:26:04",
        "P_UPDATEDATE": "2018-09-25 01:26:04"
    },
    {
        "3L9SmG6b": "60054402",
        "gvT2ds0Q": "4",
        "nm1USVcx": "300",
        "P_SKILL_NAME": "\u7834\u9b54\u306e\u7149\u5203",
        "P_GROUP_ID": "1",
        "P_PRIORITY": "1047",
        "P_RARE": "4",
        "moWQ30GH": "3",
        "P_PASSIVE_SKILL_GROUP_INFO": "1006004",
        "P_EXT_IMG_PARAM": "1:\u653b\u6483\u529b\u30fb\u9b54\u9632\u529b\u309220%\u30a2\u30c3\u30d7",
        "H49qP1tw": "1",
        "97yTNbfr": "1",
        "P_NEED_SWITCH_INFO": "0",
        "P_HIDE_SWITCH_INFO": "0",
        "P_OPEN_SWITCH_INFO": "0",
        "P_CREATEDATE": "2018-09-25 01:26:04",
        "P_UPDATEDATE": "2018-09-25 01:26:04"
    },
    {
        "3L9SmG6b": "60054403",
        "gvT2ds0Q": "3",
        "nm1USVcx": "500",
        "P_SKILL_NAME": "\u5996\u9e97\u306e\u846c\u65ad",
        "P_GROUP_ID": "1",
        "P_PRIORITY": "1048",
        "P_RARE": "4",
        "moWQ30GH": "3",
        "P_PASSIVE_SKILL_GROUP_INFO": "3010006,3020007",
        "P_EXT_IMG_PARAM": "2:\u30af\u30ea\u30c6\u30a3\u30ab\u30eb\u7387\u30928%\u30a2\u30c3\u30d7,\n2:\u30af\u30ea\u30c6\u30a3\u30ab\u30eb\u30c0\u30e1\u30fc\u30b8\u309215%\u30a2\u30c3\u30d7",
        "H49qP1tw": "1",
        "97yTNbfr": "2",
        "P_NEED_SWITCH_INFO": "0",
        "P_HIDE_SWITCH_INFO": "0",
        "P_OPEN_SWITCH_INFO": "0",
        "P_CREATEDATE": "2018-09-25 01:26:04",
        "P_UPDATEDATE": "2018-09-25 01:26:04"
    }
]