[
    {
        "P_DEFINE_KEY": "ADD_EXT_BASE",
        "P_NAME": "\u67a0\u62e1\u5f35\u5358\u4f4d",
        "P_DEFINE_VALUE": "5",
        "P_CREATEDATE": "2018-02-06 15:19:00",
        "P_UPDATEDATE": "2018-02-06 15:19:00"
    },
    {
        "P_DEFINE_KEY": "ADD_EXT_DIA",
        "P_NAME": "\u67a0\u62e1\u5f35\u306b\u5fc5\u8981\u306a\u30c0\u30a4\u30e4",
        "P_DEFINE_VALUE": "1",
        "P_CREATEDATE": "2018-02-06 15:19:00",
        "P_UPDATEDATE": "2018-02-06 15:19:00"
    },
    {
        "P_DEFINE_KEY": "ARCHIVE_COUNTER_ID_ABP",
        "P_NAME": "\u30a2\u30ea\u30fc\u30ca\u306eABP\u306e\u7d2f\u7a4d\u306e\u6226\u7e3e\u30ab\u30a6\u30f3\u30bf\u30fcID",
        "P_DEFINE_VALUE": "51000",
        "P_CREATEDATE": "2018-02-06 15:19:00",
        "P_UPDATEDATE": "2018-02-06 15:19:00"
    },
    {
        "P_DEFINE_KEY": "ARCHIVE_COUNTER_ID_ARENA_BATTLE_CNT",
        "P_NAME": "\u30a2\u30ea\u30fc\u30ca\u306e\u30d0\u30c8\u30eb\u6570\u306e\u7d2f\u7a4d\u306e\u6226\u7e3e\u30ab\u30a6\u30f3\u30bf\u30fcID",
        "P_DEFINE_VALUE": "50000",
        "P_CREATEDATE": "2018-02-06 15:19:00",
        "P_UPDATEDATE": "2018-02-06 15:19:00"
    },
    {
        "P_DEFINE_KEY": "ARCHIVE_COUNTER_ID_ARENA_WIN_CNT",
        "P_NAME": "\u30a2\u30ea\u30fc\u30ca\u306e\u52dd\u5229\u6570\u306e\u7d2f\u7a4d\u306e\u6226\u7e3e\u30ab\u30a6\u30f3\u30bf\u30fcID",
        "P_DEFINE_VALUE": "50100",
        "P_CREATEDATE": "2018-02-06 15:19:00",
        "P_UPDATEDATE": "2018-02-06 15:19:00"
    },
    {
        "P_DEFINE_KEY": "ARCHIVE_COUNTER_ID_FAME",
        "P_NAME": "\u540d\u58f0\u306e\u6226\u7e3e\u30ab\u30a6\u30f3\u30bf\u30fcID",
        "P_DEFINE_VALUE": "10700",
        "P_CREATEDATE": "2018-02-06 15:19:00",
        "P_UPDATEDATE": "2018-02-06 15:19:00"
    },
    {
        "P_DEFINE_KEY": "ARCHIVE_COUNTER_ID_FROHUN_P",
        "P_NAME": "\u30d5\u30ed\u30f3\u30c6\u30a3\u30a2\u30cf\u30f3\u30bf\u30fc\u30dd\u30a4\u30f3\u30c8\u306e\u7d2f\u7a4d\u306e\u6226\u7e3e\u30ab\u30a6\u30f3\u30bf\u30fcID",
        "P_DEFINE_VALUE": "41200",
        "P_CREATEDATE": "2018-02-06 15:19:00",
        "P_UPDATEDATE": "2018-02-06 15:19:00"
    },
    {
        "P_DEFINE_KEY": "ARCHIVE_ID_ABP",
        "P_NAME": "\u30a2\u30ea\u30fc\u30ca\u306eABP\u306e\u7d2f\u7a4d\u306e\u6226\u7e3eID",
        "P_DEFINE_VALUE": "51000",
        "P_CREATEDATE": "2018-02-06 15:19:00",
        "P_UPDATEDATE": "2018-02-06 15:19:00"
    },
    {
        "P_DEFINE_KEY": "ARCHIVE_ID_ARENA_BATTLE_CNT",
        "P_NAME": "\u30a2\u30ea\u30fc\u30ca\u306e\u30d0\u30c8\u30eb\u6570\u306e\u7d2f\u7a4d\u306e\u6226\u7e3eID",
        "P_DEFINE_VALUE": "50000",
        "P_CREATEDATE": "2018-02-06 15:19:00",
        "P_UPDATEDATE": "2018-02-06 15:19:00"
    },
    {
        "P_DEFINE_KEY": "ARCHIVE_ID_ARENA_WIN_CNT",
        "P_NAME": "\u30a2\u30ea\u30fc\u30ca\u306e\u52dd\u5229\u6570\u306e\u7d2f\u7a4d\u306e\u6226\u7e3eID",
        "P_DEFINE_VALUE": "50100",
        "P_CREATEDATE": "2018-02-06 15:19:00",
        "P_UPDATEDATE": "2018-02-06 15:19:00"
    },
    {
        "P_DEFINE_KEY": "ARCHIVE_ID_FAME",
        "P_NAME": "\u540d\u58f0\u306e\u6226\u7e3eID",
        "P_DEFINE_VALUE": "10700",
        "P_CREATEDATE": "2018-02-06 15:19:00",
        "P_UPDATEDATE": "2018-02-06 15:19:00"
    },
    {
        "P_DEFINE_KEY": "ARCHIVE_ID_FROHUN_P",
        "P_NAME": "\u30d5\u30ed\u30f3\u30c6\u30a3\u30a2\u30cf\u30f3\u30bf\u30fc\u30dd\u30a4\u30f3\u30c8\u306e\u7d2f\u7a4d\u306e\u6226\u7e3eID",
        "P_DEFINE_VALUE": "41200",
        "P_CREATEDATE": "2018-02-06 15:19:00",
        "P_UPDATEDATE": "2018-02-06 15:19:00"
    },
    {
        "P_DEFINE_KEY": "ARENA_BASE_DATE",
        "P_NAME": "\u30a2\u30ea\u30fc\u30ca\u306e\u958b\u50ac\u57fa\u6e96\u65e5",
        "P_DEFINE_VALUE": "2017-11-07 11:00:00",
        "P_CREATEDATE": "2018-02-06 15:19:00",
        "P_UPDATEDATE": "2018-02-06 15:19:00"
    },
    {
        "P_DEFINE_KEY": "ARENA_BATTLE_CNT",
        "P_NAME": "\u30a2\u30ea\u30fc\u30ca\u306e\u30d0\u30c8\u30eb\u6570",
        "P_DEFINE_VALUE": "5",
        "P_CREATEDATE": "2018-02-06 15:19:00",
        "P_UPDATEDATE": "2018-02-06 15:19:00"
    },
    {
        "P_DEFINE_KEY": "ARENA_DURATION_DAYS",
        "P_NAME": "\u30a2\u30ea\u30fc\u30ca\u306e\u958b\u50ac\u65e5\u6570",
        "P_DEFINE_VALUE": "1",
        "P_CREATEDATE": "2018-02-06 15:19:00",
        "P_UPDATEDATE": "2018-02-06 15:19:00"
    },
    {
        "P_DEFINE_KEY": "ARENA_OPPOSITION_CHECK",
        "P_NAME": "\u30a2\u30ea\u30fc\u30ca\u306e\u5bfe\u6226\u76f8\u624b\u3092\u30c1\u30a7\u30c3\u30af\u3059\u308b\u6570",
        "P_DEFINE_VALUE": "50",
        "P_CREATEDATE": "2018-02-06 15:19:00",
        "P_UPDATEDATE": "2018-02-06 15:19:00"
    },
    {
        "P_DEFINE_KEY": "ARENA_OPPOSITION_RANGE",
        "P_NAME": "\u30a2\u30ea\u30fc\u30ca\u306e\u5bfe\u6226\u76f8\u624b\u62bd\u9078\u306e\u7bc4\u56f2",
        "P_DEFINE_VALUE": "100",
        "P_CREATEDATE": "2018-02-06 15:19:00",
        "P_UPDATEDATE": "2018-02-06 15:19:00"
    },
    {
        "P_DEFINE_KEY": "BC_DROP_PERCENT",
        "P_NAME": "BC\u30c9\u30ed\u30c3\u30d7\u91cf\u306e\u57fa\u790e\u5024",
        "P_DEFINE_VALUE": "30",
        "P_CREATEDATE": "2018-02-06 15:18:59",
        "P_UPDATEDATE": "2018-02-06 15:18:59"
    },
    {
        "P_DEFINE_KEY": "CHANGE_SEX_DIA",
        "P_NAME": "\u6027\u5225\u5909\u66f4\u306b\u5fc5\u8981\u306a\u30c0\u30a4\u30e4",
        "P_DEFINE_VALUE": "1",
        "P_CREATEDATE": "2018-02-06 15:19:00",
        "P_UPDATEDATE": "2018-02-06 15:19:00"
    },
    {
        "P_DEFINE_KEY": "DEFAULT_ARENA_ORB_CNT",
        "P_NAME": "\u30c7\u30d5\u30a9\u30eb\u30c8\u306e\u30a2\u30ea\u30fc\u30ca\u30aa\u30fc\u30d6\u6570",
        "P_DEFINE_VALUE": "5",
        "P_CREATEDATE": "2018-02-06 15:18:59",
        "P_UPDATEDATE": "2018-02-06 15:18:59"
    },
    {
        "P_DEFINE_KEY": "DEFAULT_DUNGEON_KEY_CNT",
        "P_NAME": "\u30c0\u30f3\u30b8\u30e7\u30f3\u30ad\u30fc\u4e0a\u9650\u6570(ID\u3054\u3068\u306e\u6240\u6301\u4e0a\u9650)",
        "P_DEFINE_VALUE": "100000000",
        "P_CREATEDATE": "2018-02-06 15:18:59",
        "P_UPDATEDATE": "2018-02-06 15:18:59"
    },
    {
        "P_DEFINE_KEY": "DEFAULT_FRIENDPOINT_CNT",
        "P_NAME": "\u30d5\u30ec\u30f3\u30c9\u30dd\u30a4\u30f3\u30c8\u4e0a\u9650\u6570",
        "P_DEFINE_VALUE": "100000000",
        "P_CREATEDATE": "2018-02-06 15:18:59",
        "P_UPDATEDATE": "2018-02-06 15:18:59"
    },
    {
        "P_DEFINE_KEY": "DEFAULT_FROHUN_ORB_CNT",
        "P_NAME": "\u30c7\u30d5\u30a9\u30eb\u30c8\u306e\u30d5\u30ed\u30cf\u30f3\u30aa\u30fc\u30d6\u6570",
        "P_DEFINE_VALUE": "5",
        "P_CREATEDATE": "2018-02-06 15:18:59",
        "P_UPDATEDATE": "2018-02-06 15:18:59"
    },
    {
        "P_DEFINE_KEY": "DEFAULT_IMPORTANT_ITEM_CNT",
        "P_NAME": "\u5927\u4e8b\u306a\u3082\u306e\u4e0a\u9650\u6570(ID\u3054\u3068\u306e\u6240\u6301\u4e0a\u9650)",
        "P_DEFINE_VALUE": "100000000",
        "P_CREATEDATE": "2018-02-06 15:18:59",
        "P_UPDATEDATE": "2018-02-06 15:18:59"
    },
    {
        "P_DEFINE_KEY": "DEFAULT_ITEM_CNT",
        "P_NAME": "\u5009\u5eab\u67a0\u6570",
        "P_DEFINE_VALUE": "10",
        "P_CREATEDATE": "2018-02-06 15:18:59",
        "P_UPDATEDATE": "2018-02-06 15:18:59"
    },
    {
        "P_DEFINE_KEY": "DEFAULT_MISSION_REPEAT_CNT",
        "P_NAME": "\u81ea\u52d5\u5468\u56de\u6570\u30c7\u30d5\u30a9\u30eb\u30c8",
        "P_DEFINE_VALUE": "100",
        "P_CREATEDATE": "2018-02-06 15:19:00",
        "P_UPDATEDATE": "2018-02-06 15:19:00"
    },
    {
        "P_DEFINE_KEY": "DEFAULT_SCHEDULE",
        "P_NAME": "\u30c7\u30d5\u30a9\u30eb\u30c8\u306e\u30b9\u30b1\u30b8\u30e5\u30fc\u30ebID\u751f\u6210\u7528",
        "P_DEFINE_VALUE": "0024,0512",
        "P_CREATEDATE": "2018-02-06 15:19:00",
        "P_UPDATEDATE": "2018-02-06 15:19:00"
    },
    {
        "P_DEFINE_KEY": "DEFAULT_SPHERE_CNT",
        "P_NAME": "\u30b9\u30d5\u30a3\u30a2\u4e0a\u9650\u6570(ID\u3054\u3068\u306e\u6240\u6301\u4e0a\u9650)",
        "P_DEFINE_VALUE": "100000000",
        "P_CREATEDATE": "2018-02-06 15:18:59",
        "P_UPDATEDATE": "2018-02-06 15:18:59"
    },
    {
        "P_DEFINE_KEY": "DEFAULT_SP_CNT",
        "P_NAME": "SP\u4e0a\u9650\u6570",
        "P_DEFINE_VALUE": "100000000",
        "P_CREATEDATE": "2018-02-06 15:18:59",
        "P_UPDATEDATE": "2018-02-06 15:18:59"
    },
    {
        "P_DEFINE_KEY": "DEFAULT_UNIT_CNT",
        "P_NAME": "\u30e6\u30cb\u30c3\u30c8\u4e0a\u9650\u6570",
        "P_DEFINE_VALUE": "100",
        "P_CREATEDATE": "2018-02-06 15:18:59",
        "P_UPDATEDATE": "2018-02-06 15:18:59"
    },
    {
        "P_DEFINE_KEY": "DEFAULT_ZEL_CNT",
        "P_NAME": "\u30bc\u30eb\u4e0a\u9650\u6570",
        "P_DEFINE_VALUE": "100000000",
        "P_CREATEDATE": "2018-02-06 15:18:59",
        "P_UPDATEDATE": "2018-02-06 15:18:59"
    },
    {
        "P_DEFINE_KEY": "FH_TIMEATTACK_ADJUST",
        "P_NAME": "FH\u30bf\u30a4\u30e0\u30a2\u30bf\u30c3\u30af\u306e\u6700\u7d42\u30bf\u30a4\u30e0\u30de\u30a4\u30ca\u30b9\u8abf\u6574\u5024",
        "P_DEFINE_VALUE": "5",
        "P_CREATEDATE": "2018-02-06 15:19:00",
        "P_UPDATEDATE": "2018-02-06 15:19:00"
    },
    {
        "P_DEFINE_KEY": "FOLLOWER_REIN_DISPLAY_COUNT",
        "P_NAME": "\u30d5\u30a9\u30ed\u30fc\u63f4\u8ecd\u8868\u793a\u6570",
        "P_DEFINE_VALUE": "50",
        "P_CREATEDATE": "2018-02-06 15:19:00",
        "P_UPDATEDATE": "2018-02-06 15:19:00"
    },
    {
        "P_DEFINE_KEY": "FRIEND_INVITE_FLG",
        "P_NAME": "\u30d5\u30ec\u30f3\u30c9\u62db\u5f85\u6a5f\u80fd\u30d5\u30e9\u30b0",
        "P_DEFINE_VALUE": "0",
        "P_CREATEDATE": "2018-02-06 15:19:00",
        "P_UPDATEDATE": "2018-02-06 15:19:00"
    },
    {
        "P_DEFINE_KEY": "FRIEND_NUM_PER_PAGE",
        "P_NAME": "1\u30da\u30fc\u30b8\u306e\u8868\u793a\u4ef6\u6570",
        "P_DEFINE_VALUE": "10",
        "P_CREATEDATE": "2018-02-06 15:19:00",
        "P_UPDATEDATE": "2018-02-06 15:19:00"
    },
    {
        "P_DEFINE_KEY": "FRIEND_SUGGEST_COUNT",
        "P_NAME": "\u30ea\u30b9\u30c8\u304b\u3089\u63a2\u3059\u306e\u63a8\u85a6\u6570",
        "P_DEFINE_VALUE": "100",
        "P_CREATEDATE": "2018-02-06 15:19:00",
        "P_UPDATEDATE": "2018-02-06 15:19:00"
    },
    {
        "P_DEFINE_KEY": "HANDLE_CHANGE_INTERVAL",
        "P_NAME": "\u30cf\u30f3\u30c9\u30eb\u30cd\u30fc\u30e0\u5909\u66f4\u53ef\u80fd\u306b\u306a\u308b\u671f\u9593",
        "P_DEFINE_VALUE": "14",
        "P_CREATEDATE": "2018-02-06 15:19:00",
        "P_UPDATEDATE": "2018-02-06 15:19:00"
    },
    {
        "P_DEFINE_KEY": "HC_DROP_PERCENT",
        "P_NAME": "HC\u30c9\u30ed\u30c3\u30d7\u91cf\u306e\u57fa\u790e\u5024",
        "P_DEFINE_VALUE": "5",
        "P_CREATEDATE": "2018-02-06 15:18:59",
        "P_UPDATEDATE": "2018-02-06 15:18:59"
    },
    {
        "P_DEFINE_KEY": "HC_RECOVERY_AMOUNT",
        "P_NAME": "HC\u56de\u5fa9\u91cf\u5897\u52a0\u306e\u4e0a\u9650\u5024",
        "P_DEFINE_VALUE": "25",
        "P_CREATEDATE": "2018-02-06 15:18:59",
        "P_UPDATEDATE": "2018-02-06 15:18:59"
    },
    {
        "P_DEFINE_KEY": "HC_RECOVER_MAX",
        "P_NAME": "\uff28\uff231\u500b\u306e\u56de\u5fa9\u91cf\uff08max\uff09",
        "P_DEFINE_VALUE": "8",
        "P_CREATEDATE": "2018-02-06 15:18:59",
        "P_UPDATEDATE": "2018-02-06 15:18:59"
    },
    {
        "P_DEFINE_KEY": "HC_RECOVER_MIN",
        "P_NAME": "\uff28\uff231\u500b\u306e\u56de\u5fa9\u91cf\uff08min\uff09",
        "P_DEFINE_VALUE": "5",
        "P_CREATEDATE": "2018-02-06 15:18:59",
        "P_UPDATEDATE": "2018-02-06 15:18:59"
    },
    {
        "P_DEFINE_KEY": "HEROINE_HOME_BG",
        "P_NAME": "\u30ea\u30f3\u30db\u30fc\u30e0\u30c7\u30d5\u30a9\u30eb\u30c8\u80cc\u666f\uff08\u30df\u30c3\u30b7\u30e7\u30f3ID\u3092\u6307\u5b9a\uff09",
        "P_DEFINE_VALUE": "1001",
        "P_CREATEDATE": "2018-02-06 15:19:00",
        "P_UPDATEDATE": "2018-02-06 15:19:00"
    },
    {
        "P_DEFINE_KEY": "HEROINE_PET_NAME",
        "P_NAME": "\u30d2\u30ed\u30a4\u30f3\u306e\u30da\u30c3\u30c8\u540d",
        "P_DEFINE_VALUE": "\u30c7\u30e5\u30fc\u30a4",
        "P_CREATEDATE": "2018-02-06 15:19:00",
        "P_UPDATEDATE": "2018-02-06 15:19:00"
    },
    {
        "P_DEFINE_KEY": "HERO_HOME_BG",
        "P_NAME": "\u4e3b\u4eba\u516c\u30db\u30fc\u30e0\u30c7\u30d5\u30a9\u30eb\u30c8\u80cc\u666f\uff08\u30df\u30c3\u30b7\u30e7\u30f3ID\u3092\u6307\u5b9a\uff09",
        "P_DEFINE_VALUE": "101",
        "P_CREATEDATE": "2018-02-06 15:19:00",
        "P_UPDATEDATE": "2018-02-06 15:19:00"
    },
    {
        "P_DEFINE_KEY": "HOME_NOTICE_INTERVAL",
        "P_NAME": "\u30db\u30fc\u30e0\u753b\u9762\u306e\u304a\u77e5\u3089\u305b\u5b9a\u671f\u901a\u4fe1\u9593\u9694",
        "P_DEFINE_VALUE": "600",
        "P_CREATEDATE": "2018-02-06 15:19:00",
        "P_UPDATEDATE": "2018-02-06 15:19:00"
    },
    {
        "P_DEFINE_KEY": "HOME_UPDATE_INTERVAL",
        "P_NAME": "\u30db\u30fc\u30e0\u753b\u9762\u306e\u66f4\u65b0\u60c5\u5831\u5b9a\u671f\u901a\u4fe1\u9593\u9694",
        "P_DEFINE_VALUE": "300",
        "P_CREATEDATE": "2018-02-06 15:19:00",
        "P_UPDATEDATE": "2018-02-06 15:19:00"
    },
    {
        "P_DEFINE_KEY": "INITIAL_EQP_ITEM",
        "P_NAME": "\u88c5\u5099\u30a2\u30a4\u30c6\u30e0\u6570",
        "P_DEFINE_VALUE": "5",
        "P_CREATEDATE": "2018-02-06 15:18:59",
        "P_UPDATEDATE": "2018-02-06 15:18:59"
    },
    {
        "P_DEFINE_KEY": "INITIAL_SELECT_UNIT",
        "P_NAME": "\u521d\u671f\u9078\u629e\u30e6\u30cb\u30c3\u30c8",
        "P_DEFINE_VALUE": "1000122,2000122,3000122,4000122",
        "P_CREATEDATE": "2018-02-06 15:19:00",
        "P_UPDATEDATE": "2018-02-06 15:19:00"
    },
    {
        "P_DEFINE_KEY": "INITIAL_UNIT",
        "P_NAME": "\u30e6\u30cb\u30c3\u30c8\u521d\u671f",
        "P_DEFINE_VALUE": "10",
        "P_CREATEDATE": "2018-02-06 15:18:59",
        "P_UPDATEDATE": "2018-02-06 15:18:59"
    },
    {
        "P_DEFINE_KEY": "INIT_PLAYER_TITLE_COLOR_ID",
        "P_NAME": "\u521d\u671f\u53ec\u559a\u5e2b\u79f0\u53f7\u30ab\u30e9\u30fcID",
        "P_DEFINE_VALUE": "1",
        "P_CREATEDATE": "2018-02-06 15:19:00",
        "P_UPDATEDATE": "2018-02-06 15:19:00"
    },
    {
        "P_DEFINE_KEY": "INIT_PLAYER_TITLE_ID",
        "P_NAME": "\u521d\u671f\u53ec\u559a\u5e2b\u79f0\u53f7ID",
        "P_DEFINE_VALUE": "1001,1002",
        "P_CREATEDATE": "2018-02-06 15:19:00",
        "P_UPDATEDATE": "2018-02-06 15:19:00"
    },
    {
        "P_DEFINE_KEY": "ITEM_ID_JEWEL_KEY",
        "P_NAME": "\u30b8\u30e5\u30a8\u30eb\u30ad\u30fc\u306e\u30a2\u30a4\u30c6\u30e0ID",
        "P_DEFINE_VALUE": "200001",
        "P_CREATEDATE": "2018-02-06 15:19:00",
        "P_UPDATEDATE": "2018-02-06 15:19:00"
    },
    {
        "P_DEFINE_KEY": "ITEM_ID_METAL_KEY",
        "P_NAME": "\u30e1\u30bf\u30eb\u30ad\u30fc\u306e\u30a2\u30a4\u30c6\u30e0ID",
        "P_DEFINE_VALUE": "200000",
        "P_CREATEDATE": "2018-02-06 15:19:00",
        "P_UPDATEDATE": "2018-02-06 15:19:00"
    },
    {
        "P_DEFINE_KEY": "ITEM_ID_UNIT_TICKET_3",
        "P_NAME": "\u53ec\u559a\u30c1\u30b1\u30c3\u30c8\u30ec\u30a23",
        "P_DEFINE_VALUE": "300000",
        "P_CREATEDATE": "2018-02-06 15:19:00",
        "P_UPDATEDATE": "2018-02-06 15:19:00"
    },
    {
        "P_DEFINE_KEY": "ITEM_ID_UNIT_TICKET_4",
        "P_NAME": "\u53ec\u559a\u30c1\u30b1\u30c3\u30c8\u30ec\u30a24",
        "P_DEFINE_VALUE": "300001",
        "P_CREATEDATE": "2018-02-06 15:19:00",
        "P_UPDATEDATE": "2018-02-06 15:19:00"
    },
    {
        "P_DEFINE_KEY": "ITEM_ID_UNIT_TICKET_5",
        "P_NAME": "\u53ec\u559a\u30c1\u30b1\u30c3\u30c8\u30ec\u30a25",
        "P_DEFINE_VALUE": "300002",
        "P_CREATEDATE": "2018-02-06 15:19:00",
        "P_UPDATEDATE": "2018-02-06 15:19:00"
    },
    {
        "P_DEFINE_KEY": "MAX_ACHIEVEMENT_P_CNT",
        "P_NAME": "\u529f\u7e3e\u30dd\u30a4\u30f3\u30c8\u4e0a\u9650\u6570\uff08\u30b7\u30b9\u30c6\u30e0\u7684\u306a\u9650\u754c\u6570\uff09",
        "P_DEFINE_VALUE": "100000",
        "P_CREATEDATE": "2018-02-06 15:18:59",
        "P_UPDATEDATE": "2018-02-06 15:18:59"
    },
    {
        "P_DEFINE_KEY": "MAX_ACTION_POINT_CNT",
        "P_NAME": "\u4f53\u529b\u4e0a\u9650\u6570",
        "P_DEFINE_VALUE": "99",
        "P_CREATEDATE": "2018-02-06 15:18:59",
        "P_UPDATEDATE": "2018-02-06 15:18:59"
    },
    {
        "P_DEFINE_KEY": "MAX_ARENA_ORB_CNT",
        "P_NAME": "\u30a2\u30ea\u30fc\u30ca\u30aa\u30fc\u30d6\u4e0a\u9650\u6570\uff08\u30b7\u30b9\u30c6\u30e0\u7684\u306a\u9650\u754c\u6570\uff09",
        "P_DEFINE_VALUE": "99",
        "P_CREATEDATE": "2018-02-06 15:18:59",
        "P_UPDATEDATE": "2018-02-06 15:18:59"
    },
    {
        "P_DEFINE_KEY": "MAX_DIA_CNT",
        "P_NAME": "\u30c0\u30a4\u30e4\u6570\u4e0a\u9650\u6570\uff08\u30b7\u30b9\u30c6\u30e0\u7684\u306a\u9650\u754c\u6570\uff09",
        "P_DEFINE_VALUE": "9999999",
        "P_CREATEDATE": "2018-02-06 15:18:59",
        "P_UPDATEDATE": "2018-02-06 15:18:59"
    },
    {
        "P_DEFINE_KEY": "MAX_DUNGEONKEY_CNT",
        "P_NAME": "\u30c0\u30f3\u30b8\u30e7\u30f3\u30ad\u30fc\u4e0a\u9650\u6570(ID\u3054\u3068\u306e\u6240\u6301\u4e0a\u9650)",
        "P_DEFINE_VALUE": "999999",
        "P_CREATEDATE": "2018-02-06 15:18:59",
        "P_UPDATEDATE": "2018-02-06 15:18:59"
    },
    {
        "P_DEFINE_KEY": "MAX_FRIEND_POINT_CNT",
        "P_NAME": "\u7d46\u30dd\u30a4\u30f3\u30c8\u4e0a\u9650\u6570\uff08\u30b7\u30b9\u30c6\u30e0\u7684\u306a\u9650\u754c\u6570\uff09",
        "P_DEFINE_VALUE": "100000",
        "P_CREATEDATE": "2018-02-06 15:18:59",
        "P_UPDATEDATE": "2018-02-06 15:18:59"
    },
    {
        "P_DEFINE_KEY": "MAX_FROHUN_ORB_CNT",
        "P_NAME": "\u30d5\u30ed\u30cf\u30f3\u30aa\u30fc\u30d6\u4e0a\u9650\u6570\uff08\u30b7\u30b9\u30c6\u30e0\u7684\u306a\u9650\u754c\u6570\uff09",
        "P_DEFINE_VALUE": "99",
        "P_CREATEDATE": "2018-02-06 15:18:59",
        "P_UPDATEDATE": "2018-02-06 15:18:59"
    },
    {
        "P_DEFINE_KEY": "MAX_IMPORTANT_ITEM_CNT",
        "P_NAME": "\u5927\u4e8b\u306a\u3082\u306e\u4e0a\u9650\u6570(ID\u3054\u3068\u306e\u6240\u6301\u4e0a\u9650)",
        "P_DEFINE_VALUE": "999999",
        "P_CREATEDATE": "2018-02-06 15:18:59",
        "P_UPDATEDATE": "2018-02-06 15:18:59"
    },
    {
        "P_DEFINE_KEY": "MAX_ITEM_CNT",
        "P_NAME": "\u30a2\u30a4\u30c6\u30e0\u306e\u4e0a\u9650\u6570(ID\u3054\u3068\u306e\u6240\u6301\u4e0a\u9650)",
        "P_DEFINE_VALUE": "999999",
        "P_CREATEDATE": "2018-02-06 15:18:59",
        "P_UPDATEDATE": "2018-02-06 15:18:59"
    },
    {
        "P_DEFINE_KEY": "MAX_MATERIAL_ITEM_CNT",
        "P_NAME": "\u7d20\u6750\u30a2\u30a4\u30c6\u30e0\u306e\u4e0a\u9650\u6570(ID\u3054\u3068\u306e\u6240\u6301\u4e0a\u9650)",
        "P_DEFINE_VALUE": "999999",
        "P_CREATEDATE": "2018-02-06 15:18:59",
        "P_UPDATEDATE": "2018-02-06 15:18:59"
    },
    {
        "P_DEFINE_KEY": "MAX_PARTY_DECK_CNT",
        "P_NAME": "\u30c7\u30c3\u30ad\u4e0a\u9650\u6570",
        "P_DEFINE_VALUE": "5",
        "P_CREATEDATE": "2018-02-06 15:18:59",
        "P_UPDATEDATE": "2018-02-06 15:18:59"
    },
    {
        "P_DEFINE_KEY": "MAX_SPHERE_CNT",
        "P_NAME": "\u30b9\u30d5\u30a3\u30a2\u4e0a\u9650\u6570(ID\u3054\u3068\u306e\u6240\u6301\u4e0a\u9650)",
        "P_DEFINE_VALUE": "999999",
        "P_CREATEDATE": "2018-02-06 15:18:59",
        "P_UPDATEDATE": "2018-02-06 15:18:59"
    },
    {
        "P_DEFINE_KEY": "MAX_SP_CNT",
        "P_NAME": "SP\u4e0a\u9650\u6570\uff08\u30b7\u30b9\u30c6\u30e0\u7684\u306a\u9650\u754c\u6570\uff09",
        "P_DEFINE_VALUE": "99999",
        "P_CREATEDATE": "2018-02-06 15:18:59",
        "P_UPDATEDATE": "2018-02-06 15:18:59"
    },
    {
        "P_DEFINE_KEY": "MAX_TEAM_LV",
        "P_NAME": "\u6700\u5927\u90e8\u968a\u30ec\u30d9\u30eb",
        "P_DEFINE_VALUE": "50",
        "P_CREATEDATE": "2018-02-06 15:18:59",
        "P_UPDATEDATE": "2018-02-06 15:18:59"
    },
    {
        "P_DEFINE_KEY": "MAX_ZEL_CNT",
        "P_NAME": "\u30bc\u30eb\u4e0a\u9650\u6570\uff08\u30b7\u30b9\u30c6\u30e0\u7684\u306a\u9650\u754c\u6570\uff09",
        "P_DEFINE_VALUE": "99999999",
        "P_CREATEDATE": "2018-02-06 15:18:59",
        "P_UPDATEDATE": "2018-02-06 15:18:59"
    },
    {
        "P_DEFINE_KEY": "MISSION_CONTINUE_DIA",
        "P_NAME": "\u30df\u30c3\u30b7\u30e7\u30f3\u306e\u30b3\u30f3\u30c6\u30a3\u30cb\u30e5\u30fc\u306b\u5fc5\u8981\u306a\u30c0\u30a4\u30e4",
        "P_DEFINE_VALUE": "1",
        "P_CREATEDATE": "2018-02-06 15:19:00",
        "P_UPDATEDATE": "2018-02-06 15:19:00"
    },
    {
        "P_DEFINE_KEY": "MIX_SUCCESS_RATE",
        "P_NAME": "\u5927\u6210\u529f\u78ba\u7387\u3001\u8d85\u6210\u529f\u78ba\u7387",
        "P_DEFINE_VALUE": "15,3",
        "P_CREATEDATE": "2018-02-06 15:19:00",
        "P_UPDATEDATE": "2018-02-06 15:19:00"
    },
    {
        "P_DEFINE_KEY": "RECOVERTIME_ACTION_POINT",
        "P_NAME": "\u4f53\u529b\u56de\u5fa9\u6642\u9593(\u79d2)",
        "P_DEFINE_VALUE": "600",
        "P_CREATEDATE": "2018-02-06 15:18:59",
        "P_UPDATEDATE": "2018-02-06 15:18:59"
    },
    {
        "P_DEFINE_KEY": "RECOVERTIME_ARENA_ORB",
        "P_NAME": "\u30a2\u30ea\u30fc\u30ca\u30aa\u30fc\u30d6\u56de\u5fa9\u6642\u9593(\u79d2)",
        "P_DEFINE_VALUE": "3600",
        "P_CREATEDATE": "2018-02-06 15:18:59",
        "P_UPDATEDATE": "2018-02-06 15:18:59"
    },
    {
        "P_DEFINE_KEY": "RECOVERTIME_FROHUN_ORB",
        "P_NAME": "\u30d5\u30ed\u30cf\u30f3\u30aa\u30fc\u30d6\u56de\u5fa9\u6642\u9593(\u79d2)",
        "P_DEFINE_VALUE": "10800",
        "P_CREATEDATE": "2018-02-06 15:18:59",
        "P_UPDATEDATE": "2018-02-06 15:18:59"
    },
    {
        "P_DEFINE_KEY": "RECOVER_ACTION_POINT_DIA",
        "P_NAME": "\u4f53\u529b\u56de\u5fa9\u306b\u5fc5\u8981\u306a\u30c0\u30a4\u30e4",
        "P_DEFINE_VALUE": "1",
        "P_CREATEDATE": "2018-02-06 15:19:00",
        "P_UPDATEDATE": "2018-02-06 15:19:00"
    },
    {
        "P_DEFINE_KEY": "RECOVER_ARENA_ORB_DIA",
        "P_NAME": "\u30a2\u30ea\u30fc\u30ca\u30aa\u30fc\u30d6\u56de\u5fa9\u306b\u5fc5\u8981\u306a\u30c0\u30a4\u30e4",
        "P_DEFINE_VALUE": "1",
        "P_CREATEDATE": "2018-02-06 15:19:00",
        "P_UPDATEDATE": "2018-02-06 15:19:00"
    },
    {
        "P_DEFINE_KEY": "RECOVER_FROHUN_ORB_DIA",
        "P_NAME": "\u30d5\u30ed\u30cf\u30f3\u30aa\u30fc\u30d6\u56de\u5fa9\u306b\u5fc5\u8981\u306a\u30c0\u30a4\u30e4",
        "P_DEFINE_VALUE": "1",
        "P_CREATEDATE": "2018-02-06 15:19:00",
        "P_UPDATEDATE": "2018-02-06 15:19:00"
    },
    {
        "P_DEFINE_KEY": "REINFORCEMENT_REREQUEST_HOUR",
        "P_NAME": "\u63f4\u8ecd\u518d\u4f9d\u983c\u6642\u9593",
        "P_DEFINE_VALUE": "6",
        "P_CREATEDATE": "2018-02-06 15:19:00",
        "P_UPDATEDATE": "2018-02-06 15:19:00"
    },
    {
        "P_DEFINE_KEY": "RESET_UNIT_STATUS_DIA",
        "P_NAME": "\u30e6\u30cb\u30c3\u30c8\u306e\u30b9\u30c6\u30fc\u30bf\u30b9\u30ea\u30bb\u30c3\u30c8\u306b\u5fc5\u8981\u306a\u30c0\u30a4\u30e4",
        "P_DEFINE_VALUE": "1",
        "P_CREATEDATE": "2018-02-06 15:19:00",
        "P_UPDATEDATE": "2018-02-06 15:19:00"
    },
    {
        "P_DEFINE_KEY": "SCHEDULE_TIME_RANGE",
        "P_NAME": "\u30b9\u30b1\u30b8\u30e5\u30fc\u30eb\u60c5\u5831\u3092\u9001\u308b\u6642\u9593\u306e\u7bc4\u56f2",
        "P_DEFINE_VALUE": "600",
        "P_CREATEDATE": "2018-02-06 15:19:00",
        "P_UPDATEDATE": "2018-02-06 15:19:00"
    },
    {
        "P_DEFINE_KEY": "SPARK_DAMGE_RATE_MAX",
        "P_NAME": "\u30b9\u30d1\u30fc\u30af\u30c0\u30e1\u30fc\u30b8\u500d\u7387\u4e0a\u9650",
        "P_DEFINE_VALUE": "4",
        "P_CREATEDATE": "2018-02-06 15:18:59",
        "P_UPDATEDATE": "2018-02-06 15:18:59"
    },
    {
        "P_DEFINE_KEY": "STATUS_P_BASE_ATK",
        "P_NAME": "\u30b9\u30c6\u30fc\u30bf\u30b9P\u30d9\u30fc\u30b9\u5024ATK",
        "P_DEFINE_VALUE": "10",
        "P_CREATEDATE": "2018-02-06 15:19:00",
        "P_UPDATEDATE": "2018-02-06 15:19:00"
    },
    {
        "P_DEFINE_KEY": "STATUS_P_BASE_DEF",
        "P_NAME": "\u30b9\u30c6\u30fc\u30bf\u30b9P\u30d9\u30fc\u30b9\u5024DEF",
        "P_DEFINE_VALUE": "10",
        "P_CREATEDATE": "2018-02-06 15:19:00",
        "P_UPDATEDATE": "2018-02-06 15:19:00"
    },
    {
        "P_DEFINE_KEY": "STATUS_P_BASE_HP",
        "P_NAME": "\u30b9\u30c6\u30fc\u30bf\u30b9P\u30d9\u30fc\u30b9\u5024HP",
        "P_DEFINE_VALUE": "30",
        "P_CREATEDATE": "2018-02-06 15:19:00",
        "P_UPDATEDATE": "2018-02-06 15:19:00"
    },
    {
        "P_DEFINE_KEY": "STATUS_P_BASE_MDEF",
        "P_NAME": "\u30b9\u30c6\u30fc\u30bf\u30b9P\u30d9\u30fc\u30b9\u5024MDEF",
        "P_DEFINE_VALUE": "10",
        "P_CREATEDATE": "2018-02-06 15:19:00",
        "P_UPDATEDATE": "2018-02-06 15:19:00"
    },
    {
        "P_DEFINE_KEY": "STRANGER_SUGGEST_COUNT",
        "P_NAME": "\u91ce\u826f\u30d7\u30ec\u30a4\u30e4\u30fc\u63a8\u85a6\u6570",
        "P_DEFINE_VALUE": "5",
        "P_CREATEDATE": "2018-02-06 15:19:00",
        "P_UPDATEDATE": "2018-02-06 15:19:00"
    },
    {
        "P_DEFINE_KEY": "SUBSCRIPTION_ARENA_ORB_CNT",
        "P_NAME": "\u30b5\u30d6\u30b9\u30af\u30ea\u30d7\u30b7\u30e7\u30f3\u306e\u30a2\u30ea\u30fc\u30ca\u30aa\u30fc\u30d6\u6570",
        "P_DEFINE_VALUE": "10",
        "P_CREATEDATE": "2018-02-06 15:18:59",
        "P_UPDATEDATE": "2018-02-06 15:18:59"
    },
    {
        "P_DEFINE_KEY": "SUBSCRIPTION_DIA",
        "P_NAME": "\u30b5\u30d6\u30b9\u30af\u30ea\u30d7\u30b7\u30e7\u30f3\u306e\u30c0\u30a4\u30e4\u6570",
        "P_DEFINE_VALUE": "5",
        "P_CREATEDATE": "2018-02-06 15:19:00",
        "P_UPDATEDATE": "2018-02-06 15:19:00"
    },
    {
        "P_DEFINE_KEY": "SUBSCRIPTION_MISSION_REPEAT_CNT",
        "P_NAME": "\u81ea\u52d5\u5468\u56de\u6570\u30b5\u30d6\u30b9\u30af",
        "P_DEFINE_VALUE": "300",
        "P_CREATEDATE": "2018-02-06 15:19:00",
        "P_UPDATEDATE": "2018-02-06 15:19:00"
    },
    {
        "P_DEFINE_KEY": "SWITCH_BOOK_TUTORIAL_1",
        "P_NAME": "\u30d6\u30c3\u30af\u7528\u30c1\u30e5\u30fc\u30c8\u30ea\u30a2\u30ebPT\u7de8\u6210\u30b9\u30a4\u30c3\u30c1\u5224\u5b9a",
        "P_DEFINE_VALUE": "82000001",
        "P_CREATEDATE": "2018-02-06 15:19:00",
        "P_UPDATEDATE": "2018-02-06 15:19:00"
    },
    {
        "P_DEFINE_KEY": "SWITCH_BOOK_TUTORIAL_2",
        "P_NAME": "\u30d6\u30c3\u30af\u7528\u30c1\u30e5\u30fc\u30c8\u30ea\u30a2\u30eb\u30a2\u30a4\u30c6\u30e0\u7de8\u6210\u30b9\u30a4\u30c3\u30c1\u5224\u5b9a",
        "P_DEFINE_VALUE": "82000002",
        "P_CREATEDATE": "2018-02-06 15:19:00",
        "P_UPDATEDATE": "2018-02-06 15:19:00"
    },
    {
        "P_DEFINE_KEY": "SWITCH_ID_BF1BF2LINK_REWARD",
        "P_NAME": "BF1\u3068BF2\u306e\u9023\u643a\u3092\u3057\u3066\u5831\u916c\u3092\u3082\u3089\u3063\u305f\u5224\u5b9a",
        "P_DEFINE_VALUE": "2200000",
        "P_CREATEDATE": "2018-02-06 15:19:00",
        "P_UPDATEDATE": "2018-02-06 15:19:00"
    },
    {
        "P_DEFINE_KEY": "SWITCH_ID_BF2LINK_REWARD",
        "P_NAME": "BF2\u3068\u306e\u9023\u643a\u3092\u3057\u3066\u5831\u916c\u3092\u3082\u3089\u3063\u305f\u5224\u5b9a",
        "P_DEFINE_VALUE": "2200001",
        "P_CREATEDATE": "2018-02-06 15:19:00",
        "P_UPDATEDATE": "2018-02-06 15:19:00"
    },
    {
        "P_DEFINE_KEY": "SWITCH_ID_HERO_MEET_HEROINE",
        "P_NAME": "\u4e3b\u4eba\u516c\u3068\u30d2\u30ed\u30a4\u30f3\u5408\u6d41",
        "P_DEFINE_VALUE": "2000010",
        "P_CREATEDATE": "2018-02-06 15:19:00",
        "P_UPDATEDATE": "2018-02-06 15:19:00"
    },
    {
        "P_DEFINE_KEY": "SWITCH_ID_OPEN_ARENA",
        "P_NAME": "\u30a2\u30ea\u30fc\u30ca\u958b\u653e\u306e\u30b9\u30a4\u30c3\u30c1ID",
        "P_DEFINE_VALUE": "10000027",
        "P_CREATEDATE": "2018-02-06 15:19:00",
        "P_UPDATEDATE": "2018-02-06 15:19:00"
    },
    {
        "P_DEFINE_KEY": "SWITCH_ID_OPEN_GATE",
        "P_NAME": "\u30b2\u30fc\u30c8\u306e\u72ed\u9593\u958b\u653e\u306e\u30b9\u30a4\u30c3\u30c1ID",
        "P_DEFINE_VALUE": "10000002",
        "P_CREATEDATE": "2018-02-06 15:19:00",
        "P_UPDATEDATE": "2018-02-06 15:19:00"
    },
    {
        "P_DEFINE_KEY": "SWITCH_ID_OPEN_HEROINE_SIDE",
        "P_NAME": "\u30d2\u30ed\u30a4\u30f3\u306e\u7ae0\u30aa\u30fc\u30d7\u30f3",
        "P_DEFINE_VALUE": "2000000",
        "P_CREATEDATE": "2018-02-06 15:19:00",
        "P_UPDATEDATE": "2018-02-06 15:19:00"
    },
    {
        "P_DEFINE_KEY": "SWITCH_ID_OPEN_LABO",
        "P_NAME": "\u53ec\u559a\u8853\u7814\u7a76\u6240\u958b\u653e\u306e\u30b9\u30a4\u30c3\u30c1ID",
        "P_DEFINE_VALUE": "10000027",
        "P_CREATEDATE": "2018-02-06 15:19:00",
        "P_UPDATEDATE": "2018-02-06 15:19:00"
    },
    {
        "P_DEFINE_KEY": "SWITCH_ID_OPEN_PET_EVO_1",
        "P_NAME": "\u30da\u30c3\u30c8\u9032\u5316\u30b9\u30a4\u30c3\u30c101",
        "P_DEFINE_VALUE": "11000100",
        "P_CREATEDATE": "2018-02-06 15:19:00",
        "P_UPDATEDATE": "2018-02-06 15:19:00"
    },
    {
        "P_DEFINE_KEY": "SWITCH_ID_OPEN_PET_EVO_2",
        "P_NAME": "\u30da\u30c3\u30c8\u9032\u5316\u30b9\u30a4\u30c3\u30c102",
        "P_DEFINE_VALUE": "11000200",
        "P_CREATEDATE": "2018-02-06 15:19:00",
        "P_UPDATEDATE": "2018-02-06 15:19:00"
    },
    {
        "P_DEFINE_KEY": "SWITCH_ID_OPEN_PET_EVO_3",
        "P_NAME": "\u30da\u30c3\u30c8\u9032\u5316\u30b9\u30a4\u30c3\u30c103",
        "P_DEFINE_VALUE": "999999999",
        "P_CREATEDATE": "2018-02-06 15:19:00",
        "P_UPDATEDATE": "2018-02-06 15:19:00"
    },
    {
        "P_DEFINE_KEY": "SWITCH_ID_OPEN_PET_EVO_4",
        "P_NAME": "\u30da\u30c3\u30c8\u9032\u5316\u30b9\u30a4\u30c3\u30c104",
        "P_DEFINE_VALUE": "11000150",
        "P_CREATEDATE": "2018-02-06 15:19:00",
        "P_UPDATEDATE": "2018-02-06 15:19:00"
    },
    {
        "P_DEFINE_KEY": "SWITCH_ID_OPEN_PET_EVO_5",
        "P_NAME": "\u30da\u30c3\u30c8\u9032\u5316\u30b9\u30a4\u30c3\u30c105",
        "P_DEFINE_VALUE": "999999999",
        "P_CREATEDATE": "2018-02-06 15:19:00",
        "P_UPDATEDATE": "2018-02-06 15:19:00"
    },
    {
        "P_DEFINE_KEY": "SWITCH_ID_OPEN_PET_EVO_6",
        "P_NAME": "\u30da\u30c3\u30c8\u9032\u5316\u30b9\u30a4\u30c3\u30c106",
        "P_DEFINE_VALUE": "999999999",
        "P_CREATEDATE": "2018-02-06 15:19:00",
        "P_UPDATEDATE": "2018-02-06 15:19:00"
    },
    {
        "P_DEFINE_KEY": "SWITCH_ID_OPEN_RANDALL",
        "P_NAME": "\u30e9\u30f3\u30c9\u30fc\u30eb\u958b\u653e\u306e\u30b9\u30a4\u30c3\u30c1ID",
        "P_DEFINE_VALUE": "10000027",
        "P_CREATEDATE": "2018-02-06 15:19:00",
        "P_UPDATEDATE": "2018-02-06 15:19:00"
    },
    {
        "P_DEFINE_KEY": "SWITCH_ID_TUTORIAL_1_BATTLE_CLEAR",
        "P_NAME": "\u30d0\u30c8\u30eb:\u8972\u308f\u308c\u305f\u738b\u56fd\u30af\u30ea\u30a2",
        "P_DEFINE_VALUE": "1000001",
        "P_CREATEDATE": "2018-02-06 15:19:00",
        "P_UPDATEDATE": "2018-02-06 15:19:00"
    },
    {
        "P_DEFINE_KEY": "SWITCH_ID_TUTORIAL_1_EVENT_CLEAR",
        "P_NAME": "\u304a\u8a71:\u8972\u308f\u308c\u305f\u738b\u56fd\u5f8c\u306e\u30a4\u30d9\u30f3\u30c8\u7d42\u4e86",
        "P_DEFINE_VALUE": "1000002",
        "P_CREATEDATE": "2018-02-06 15:19:00",
        "P_UPDATEDATE": "2018-02-06 15:19:00"
    },
    {
        "P_DEFINE_KEY": "SWITCH_ID_TUTORIAL_2_BATTLE_CLEAR",
        "P_NAME": "\u30d0\u30c8\u30eb:\u9ed2\u3044\u9a0e\u58eb\u30af\u30ea\u30a2",
        "P_DEFINE_VALUE": "1000003",
        "P_CREATEDATE": "2018-02-06 15:19:00",
        "P_UPDATEDATE": "2018-02-06 15:19:00"
    },
    {
        "P_DEFINE_KEY": "SWITCH_ID_TUTORIAL_2_EVENTA_CLEAR",
        "P_NAME": "\u304a\u8a71:\u9ed2\u3044\u9a0e\u58eb\u5f8c\u306e\u30a4\u30d9\u30f3\u30c8\u30b9\u30af\u30ea\u30d7\u30c8A\u7d42\u4e86",
        "P_DEFINE_VALUE": "1000004",
        "P_CREATEDATE": "2018-02-06 15:19:00",
        "P_UPDATEDATE": "2018-02-06 15:19:00"
    },
    {
        "P_DEFINE_KEY": "SWITCH_ID_TUTORIAL_2_EVENTB_CLEAR",
        "P_NAME": "\u304a\u8a71:\u9ed2\u3044\u9a0e\u58eb\u5f8c\u306e\u30a4\u30d9\u30f3\u30c8\u30b9\u30af\u30ea\u30d7\u30c8B\u7d42\u4e86",
        "P_DEFINE_VALUE": "1000005",
        "P_CREATEDATE": "2018-02-06 15:19:00",
        "P_UPDATEDATE": "2018-02-06 15:19:00"
    },
    {
        "P_DEFINE_KEY": "SWITCH_ID_TUTORIAL_2_EVENTC_CLEAR",
        "P_NAME": "\u304a\u8a71:\u5bb9\u59ff\u3092\u6c7a\u3081\u3066\u30da\u30c3\u30c8\u306e\u540d\u524d\u3092\u6c7a\u3081\u308b\u307e\u3067\u306e\u8a71\u7d42\u4e86",
        "P_DEFINE_VALUE": "1000007",
        "P_CREATEDATE": "2018-02-06 15:19:00",
        "P_UPDATEDATE": "2018-02-06 15:19:00"
    },
    {
        "P_DEFINE_KEY": "SWITCH_ID_TUTORIAL_2_EVENTD_CLEAR",
        "P_NAME": "\u304a\u8a71:\u30da\u30c3\u30c8\u306e\u540d\u524d\u3092\u6c7a\u3081\u305f\u3042\u3068\u306e\u8a71\u7d42\u4e86",
        "P_DEFINE_VALUE": "1000009",
        "P_CREATEDATE": "2018-02-06 15:19:00",
        "P_UPDATEDATE": "2018-02-06 15:19:00"
    },
    {
        "P_DEFINE_KEY": "SWITCH_ID_TUTORIAL_APPEARANCE_DECISION",
        "P_NAME": "\u5165\u529b:\u5bb9\u59ff\u3092\u6c7a\u3081\u305f",
        "P_DEFINE_VALUE": "1000006",
        "P_CREATEDATE": "2018-02-06 15:19:00",
        "P_UPDATEDATE": "2018-02-06 15:19:00"
    },
    {
        "P_DEFINE_KEY": "SWITCH_ID_TUTORIAL_HOME_TAP",
        "P_NAME": "\u30db\u30fc\u30e0\u306e\u30af\u30a8\u30b9\u30c8\u30bf\u30c3\u30d7\u8868\u793a\u304c\u6d88\u3048\u308b\u30b9\u30a4\u30c3\u30c1\u6761\u4ef6",
        "P_DEFINE_VALUE": "1000010",
        "P_CREATEDATE": "2018-02-06 15:19:00",
        "P_UPDATEDATE": "2018-02-06 15:19:00"
    },
    {
        "P_DEFINE_KEY": "SWITCH_ID_TUTORIAL_INITIALDATACREATE",
        "P_NAME": "\u30b7\u30b9\u30c6\u30e0:\u521d\u671f\u30c7\u30fc\u30bf\u306e\u4f5c\u6210\u7d42\u4e86",
        "P_DEFINE_VALUE": "1000000",
        "P_CREATEDATE": "2018-02-06 15:19:00",
        "P_UPDATEDATE": "2018-02-06 15:19:00"
    },
    {
        "P_DEFINE_KEY": "SWITCH_ID_TUTORIAL_OP2_END",
        "P_NAME": "\u30b7\u30f3\u30dc\u30eb:\u30aa\u30fc\u30d7\u30cb\u30f3\u30b0\u30c1\u30e5\u30fc\u30c8\u30ea\u30a2\u30eb\u7d42\u4e86",
        "P_DEFINE_VALUE": "1000016",
        "P_CREATEDATE": "2018-02-06 15:19:00",
        "P_UPDATEDATE": "2018-02-06 15:19:00"
    },
    {
        "P_DEFINE_KEY": "SWITCH_ID_TUTORIAL_PARTNER_DECISION",
        "P_NAME": "\u5165\u529b:\u30da\u30c3\u30c8\u306e\u540d\u524d\u3092\u6c7a\u3081\u305f",
        "P_DEFINE_VALUE": "1000008",
        "P_CREATEDATE": "2018-02-06 15:19:00",
        "P_UPDATEDATE": "2018-02-06 15:19:00"
    },
    {
        "P_DEFINE_KEY": "SWITCH_ID_TUTORIAL_RESERVE",
        "P_NAME": "\u672a\u4f7f\u7528:",
        "P_DEFINE_VALUE": "1000015",
        "P_CREATEDATE": "2018-02-06 15:19:00",
        "P_UPDATEDATE": "2018-02-06 15:19:00"
    },
    {
        "P_DEFINE_KEY": "SWITCH_ID_TUTORIAL_SUMMON_BATTLE_CLEAR",
        "P_NAME": "\u30d0\u30c8\u30eb:\u30b5\u30fc\u30b7\u30e3\u306e\u53ec\u559a\u30af\u30ea\u30a2",
        "P_DEFINE_VALUE": "1000011",
        "P_CREATEDATE": "2018-02-06 15:19:00",
        "P_UPDATEDATE": "2018-02-06 15:19:00"
    },
    {
        "P_DEFINE_KEY": "SWITCH_ID_TUTORIAL_SUMMON_EVENT1_CLEAR",
        "P_NAME": "\u304a\u8a71:\u30b5\u30fc\u30b7\u30e3\u304c\u53ec\u559a\u8853\u3092\u4f7f\u3046\u8a71",
        "P_DEFINE_VALUE": "1000010",
        "P_CREATEDATE": "2018-02-06 15:19:00",
        "P_UPDATEDATE": "2018-02-06 15:19:00"
    },
    {
        "P_DEFINE_KEY": "SWITCH_ID_TUTORIAL_SUMMON_EVENT2_CLEAR",
        "P_NAME": "\u304a\u8a71:\u82f1\u96c4\u3092\u601d\u3044\u6d6e\u304b\u3079\u308b\u8a71",
        "P_DEFINE_VALUE": "1000012",
        "P_CREATEDATE": "2018-02-06 15:19:00",
        "P_UPDATEDATE": "2018-02-06 15:19:00"
    },
    {
        "P_DEFINE_KEY": "SWITCH_ID_TUTORIAL_SUMMON_EVENT3_CLEAR",
        "P_NAME": "\u304a\u8a71:\u53ec\u559a\u3067\u304d\u3066\u30b5\u30fc\u30b7\u30e3\u304c\u9a5a\u304f\u8a71",
        "P_DEFINE_VALUE": "1000014",
        "P_CREATEDATE": "2018-02-06 15:19:00",
        "P_UPDATEDATE": "2018-02-06 15:19:00"
    },
    {
        "P_DEFINE_KEY": "SWITCH_ID_TUTORIAL_SUMMON_UNIT_DECISION",
        "P_NAME": "\u5165\u529b:\u82f1\u96c4\u9078\u629e",
        "P_DEFINE_VALUE": "1000013",
        "P_CREATEDATE": "2018-02-06 15:19:00",
        "P_UPDATEDATE": "2018-02-06 15:19:00"
    },
    {
        "P_DEFINE_KEY": "SWITCH_TYPE_DICTIONARY_ARMS",
        "P_NAME": "\u6b66\u5668\u56f3\u9451\u30b9\u30a4\u30c3\u30c1\u30bf\u30a4\u30d7",
        "P_DEFINE_VALUE": "51",
        "P_CREATEDATE": "2018-02-06 15:18:59",
        "P_UPDATEDATE": "2018-02-06 15:18:59"
    },
    {
        "P_DEFINE_KEY": "SWITCH_TYPE_DICTIONARY_IMPORTANT",
        "P_NAME": "\u5927\u4e8b\u306a\u3082\u306e\u56f3\u9451\u30b9\u30a4\u30c3\u30c1\u30bf\u30a4\u30d7",
        "P_DEFINE_VALUE": "57",
        "P_CREATEDATE": "2018-02-06 15:19:00",
        "P_UPDATEDATE": "2018-02-06 15:19:00"
    },
    {
        "P_DEFINE_KEY": "SWITCH_TYPE_DICTIONARY_ITEM",
        "P_NAME": "\u30a2\u30a4\u30c6\u30e0\u56f3\u9451\u30b9\u30a4\u30c3\u30c1\u30bf\u30a4\u30d7",
        "P_DEFINE_VALUE": "52",
        "P_CREATEDATE": "2018-02-06 15:19:00",
        "P_UPDATEDATE": "2018-02-06 15:19:00"
    },
    {
        "P_DEFINE_KEY": "SWITCH_TYPE_DICTIONARY_MATERIAL",
        "P_NAME": "\u7d20\u6750\u56f3\u9451\u30b9\u30a4\u30c3\u30c1\u30bf\u30a4\u30d7",
        "P_DEFINE_VALUE": "56",
        "P_CREATEDATE": "2018-02-06 15:19:00",
        "P_UPDATEDATE": "2018-02-06 15:19:00"
    },
    {
        "P_DEFINE_KEY": "SWITCH_TYPE_DICTIONARY_MONSTER",
        "P_NAME": "\u30a8\u30cd\u30df\u30fc\u56f3\u9451\u30b9\u30a4\u30c3\u30c1\u30bf\u30a4\u30d7",
        "P_DEFINE_VALUE": "53",
        "P_CREATEDATE": "2018-02-06 15:19:00",
        "P_UPDATEDATE": "2018-02-06 15:19:00"
    },
    {
        "P_DEFINE_KEY": "SWITCH_TYPE_DICTIONARY_SPHERE",
        "P_NAME": "\u30b9\u30d5\u30a3\u30a2\u56f3\u9451\u30b9\u30a4\u30c3\u30c1\u30bf\u30a4\u30d7",
        "P_DEFINE_VALUE": "55",
        "P_CREATEDATE": "2018-02-06 15:19:00",
        "P_UPDATEDATE": "2018-02-06 15:19:00"
    },
    {
        "P_DEFINE_KEY": "SWITCH_TYPE_DICTIONARY_UNIT",
        "P_NAME": "\u30e6\u30cb\u30c3\u30c8\u56f3\u9451\u30b9\u30a4\u30c3\u30c1\u30bf\u30a4\u30d7",
        "P_DEFINE_VALUE": "50",
        "P_CREATEDATE": "2018-02-06 15:18:59",
        "P_UPDATEDATE": "2018-02-06 15:18:59"
    },
    {
        "P_DEFINE_KEY": "TREASUREBOX_BCHC_RATE",
        "P_NAME": "\u5b9d\u7bb1\u304b\u3089\u306eBCHC\u30ec\u30fc\u30c8",
        "P_DEFINE_VALUE": "75",
        "P_CREATEDATE": "2018-02-06 15:19:00",
        "P_UPDATEDATE": "2018-02-06 15:19:00"
    },
    {
        "P_DEFINE_KEY": "TRIAL_FRIEND_UPDATE_TIME",
        "P_NAME": "\u53ec\u559a\u8853\u7814\u7a76\u6240\u306e\u30d5\u30ec\u30f3\u30c9\u30ea\u30b9\u30c8\u306e\u66f4\u65b0\u9593\u9694\uff08\u79d2\uff09",
        "P_DEFINE_VALUE": "300",
        "P_CREATEDATE": "2018-02-06 15:19:00",
        "P_UPDATEDATE": "2018-02-06 15:19:00"
    },
    {
        "P_DEFINE_KEY": "TURN_DROP_BC_CNT",
        "P_NAME": "1\u30bf\u30fc\u30f3\u6bce\u306b\u51fa\u73fe\u3059\u308bBC\u306e\u5236\u9650\u4e0a\u9650",
        "P_DEFINE_VALUE": "100",
        "P_CREATEDATE": "2018-02-06 15:18:59",
        "P_UPDATEDATE": "2018-02-06 15:18:59"
    },
    {
        "P_DEFINE_KEY": "TURN_DROP_HC_CNT",
        "P_NAME": "1\u30bf\u30fc\u30f3\u6bce\u306b\u51fa\u73fe\u3059\u308bHC\u306e\u5236\u9650\u4e0a\u9650",
        "P_DEFINE_VALUE": "20",
        "P_CREATEDATE": "2018-02-06 15:18:59",
        "P_UPDATEDATE": "2018-02-06 15:18:59"
    },
    {
        "P_DEFINE_KEY": "WEAK_DAMGE_RATE_MAX",
        "P_NAME": "\u5f31\u70b9\u5c5e\u6027\u30c0\u30e1\u30fc\u30b8\u500d\u7387\u4e0a\u9650",
        "P_DEFINE_VALUE": "4",
        "P_CREATEDATE": "2018-02-06 15:18:59",
        "P_UPDATEDATE": "2018-02-06 15:18:59"
    },
    {
        "P_DEFINE_KEY": "XBB_GAUGE_DOWN_MAX_RATE",
        "P_NAME": "XBB\u6e1b\u5c11\u91cf\u306e\u6700\u5927\u5024",
        "P_DEFINE_VALUE": "0.8",
        "P_CREATEDATE": "2018-02-06 15:19:00",
        "P_UPDATEDATE": "2018-02-06 15:19:00"
    },
    {
        "P_DEFINE_KEY": "XBB_GAUGE_DOWN_RATE",
        "P_NAME": "XBB\u30b2\u30fc\u30b8\u6d88\u8cbb1\u6bce\u306e\u6e1b\u5c11\u91cf",
        "P_DEFINE_VALUE": "0.00002",
        "P_CREATEDATE": "2018-02-06 15:19:00",
        "P_UPDATEDATE": "2018-02-06 15:19:00"
    },
    {
        "P_DEFINE_KEY": "XBB_GAUGE_UP_BB_RATE",
        "P_NAME": "XBB\u84c4\u7a4d\u5024_BB\u767a\u52d5",
        "P_DEFINE_VALUE": "75",
        "P_CREATEDATE": "2018-02-06 15:19:00",
        "P_UPDATEDATE": "2018-02-06 15:19:00"
    },
    {
        "P_DEFINE_KEY": "XBB_GAUGE_UP_GET_BC_MAX_RATE",
        "P_NAME": "XBB\u84c4\u7a4d\u5024_BC\u53d6\u5f97\u6700\u5927\u5024",
        "P_DEFINE_VALUE": "500",
        "P_CREATEDATE": "2018-02-06 15:19:00",
        "P_UPDATEDATE": "2018-02-06 15:19:00"
    },
    {
        "P_DEFINE_KEY": "XBB_GAUGE_UP_GET_BC_RATE",
        "P_NAME": "XBB\u84c4\u7a4d\u5024_\u4f59\u3063\u305fBC\u53d6\u5f971\u500b",
        "P_DEFINE_VALUE": "25",
        "P_CREATEDATE": "2018-02-06 15:19:00",
        "P_UPDATEDATE": "2018-02-06 15:19:00"
    },
    {
        "P_DEFINE_KEY": "XBB_GAUGE_UP_MEMBER_DEAD_RATE",
        "P_NAME": "XBB\u84c4\u7a4d\u5024_\u4ef2\u9593\u30e6\u30cb\u30c3\u30c8\u6b7b\u4ea1",
        "P_DEFINE_VALUE": "1000",
        "P_CREATEDATE": "2018-02-06 15:19:00",
        "P_UPDATEDATE": "2018-02-06 15:19:00"
    },
    {
        "P_DEFINE_KEY": "XBB_GAUGE_UP_NORMAL_ATTACK_RATE",
        "P_NAME": "XBB\u84c4\u7a4d\u5024_\u901a\u5e38\u653b\u6483",
        "P_DEFINE_VALUE": "150",
        "P_CREATEDATE": "2018-02-06 15:19:00",
        "P_UPDATEDATE": "2018-02-06 15:19:00"
    },
    {
        "P_DEFINE_KEY": "XBB_GAUGE_UP_SBB_RATE",
        "P_NAME": "XBB\u84c4\u7a4d\u5024_SBB\u767a\u52d5",
        "P_DEFINE_VALUE": "75",
        "P_CREATEDATE": "2018-02-06 15:19:00",
        "P_UPDATEDATE": "2018-02-06 15:19:00"
    },
    {
        "P_DEFINE_KEY": "XBB_GAUGE_UP_TURN_RATE",
        "P_NAME": "XBB\u84c4\u7a4d\u5024_\u30bf\u30fc\u30f3\u7d4c\u904e",
        "P_DEFINE_VALUE": "500",
        "P_CREATEDATE": "2018-02-06 15:19:00",
        "P_UPDATEDATE": "2018-02-06 15:19:00"
    },
    {
        "P_DEFINE_KEY": "XBB_MAX_GAUGE",
        "P_NAME": "XBB\u30b2\u30fc\u30b8\u6700\u5927\u5024",
        "P_DEFINE_VALUE": "10000",
        "P_CREATEDATE": "2018-02-06 15:19:00",
        "P_UPDATEDATE": "2018-02-06 15:19:00"
    },
    {
        "P_DEFINE_KEY": "ZEL_DROP_PERCENT",
        "P_NAME": "\u30bc\u30eb\u30c9\u30ed\u30c3\u30d7\u91cf\u306e\u57fa\u790e\u5024",
        "P_DEFINE_VALUE": "0",
        "P_CREATEDATE": "2018-02-06 15:18:59",
        "P_UPDATEDATE": "2018-02-06 15:18:59"
    }
]