[
    {
        "P_ITEM_ID": "1000",
        "P_NAME": "\u56de\u5fa9\u85ac",
        "8Cx57oAk": "\u56de\u5fa9\u85ac",
        "P_RARE": "1",
        "P_DISPORDER": "1",
        "60IsqxDt": "1",
        "o7e4HXMP": "1,0,0",
        "moWQ30GH": "2",
        "9EpvI1ay": "1",
        "c8N4mMSb": "",
        "P_SKILL_ID": "1",
        "CA7uXs6D": "99",
        "ze2sX0EF": "0:5,60000001:3",
        "P_DISP_DICTIONARY": "0",
        "P_ICON_ID": "1",
        "P_DICTIONARY_NO": "1",
        "P_DICTIONARY_BG": "1",
        "P_PROCESS_PARAM": "",
        "P_NEED_SWITCH_INFO": "0",
        "P_HIDE_SWITCH_INFO": "0",
        "P_OPEN_SWITCH_INFO": "0",
        "P_CREATEDATE": "2018-02-18 01:46:17",
        "P_UPDATEDATE": "2018-02-18 01:46:17"
    },
    {
        "P_ITEM_ID": "1010",
        "P_NAME": "\u795d\u798f\u306e\u5149",
        "8Cx57oAk": "\u795d\u798f\u306e\u5149",
        "P_RARE": "2",
        "P_DISPORDER": "2",
        "60IsqxDt": "1",
        "o7e4HXMP": "1,0,0",
        "moWQ30GH": "2",
        "9EpvI1ay": "2",
        "c8N4mMSb": "",
        "P_SKILL_ID": "4",
        "CA7uXs6D": "99",
        "ze2sX0EF": "0:2,60000002:1",
        "P_DISP_DICTIONARY": "0",
        "P_ICON_ID": "2",
        "P_DICTIONARY_NO": "1",
        "P_DICTIONARY_BG": "2",
        "P_PROCESS_PARAM": "",
        "P_NEED_SWITCH_INFO": "0",
        "P_HIDE_SWITCH_INFO": "0",
        "P_OPEN_SWITCH_INFO": "0",
        "P_CREATEDATE": "2018-02-18 01:46:17",
        "P_UPDATEDATE": "2018-02-18 01:46:17"
    },
    {
        "P_ITEM_ID": "1020",
        "P_NAME": "\u7d99\u5fa9\u5149",
        "8Cx57oAk": "\u7d99\u5fa9\u5149",
        "P_RARE": "3",
        "P_DISPORDER": "3",
        "60IsqxDt": "1",
        "o7e4HXMP": "1,0,0",
        "moWQ30GH": "2",
        "9EpvI1ay": "2",
        "c8N4mMSb": "",
        "P_SKILL_ID": "5",
        "CA7uXs6D": "99",
        "ze2sX0EF": "0:2,60000003:1",
        "P_DISP_DICTIONARY": "0",
        "P_ICON_ID": "3",
        "P_DICTIONARY_NO": "1",
        "P_DICTIONARY_BG": "3",
        "P_PROCESS_PARAM": "",
        "P_NEED_SWITCH_INFO": "0",
        "P_HIDE_SWITCH_INFO": "0",
        "P_OPEN_SWITCH_INFO": "0",
        "P_CREATEDATE": "2018-02-18 01:46:17",
        "P_UPDATEDATE": "2018-02-18 01:46:17"
    },
    {
        "P_ITEM_ID": "1100",
        "P_NAME": "\u6d44\u5316\u85ac",
        "8Cx57oAk": "\u6d44\u5316\u85ac",
        "P_RARE": "1",
        "P_DISPORDER": "4",
        "60IsqxDt": "1",
        "o7e4HXMP": "1,0,0",
        "moWQ30GH": "2",
        "9EpvI1ay": "1",
        "c8N4mMSb": "",
        "P_SKILL_ID": "6",
        "CA7uXs6D": "99",
        "ze2sX0EF": "0:5,60000004:3",
        "P_DISP_DICTIONARY": "0",
        "P_ICON_ID": "4",
        "P_DICTIONARY_NO": "1",
        "P_DICTIONARY_BG": "4",
        "P_PROCESS_PARAM": "",
        "P_NEED_SWITCH_INFO": "0",
        "P_HIDE_SWITCH_INFO": "0",
        "P_OPEN_SWITCH_INFO": "0",
        "P_CREATEDATE": "2018-02-18 01:46:17",
        "P_UPDATEDATE": "2018-02-18 01:46:17"
    },
    {
        "P_ITEM_ID": "1101",
        "P_NAME": "\u6d3b\u6027\u85ac",
        "8Cx57oAk": "\u6d3b\u6027\u85ac",
        "P_RARE": "1",
        "P_DISPORDER": "5",
        "60IsqxDt": "1",
        "o7e4HXMP": "1,0,0",
        "moWQ30GH": "2",
        "9EpvI1ay": "1",
        "c8N4mMSb": "",
        "P_SKILL_ID": "7",
        "CA7uXs6D": "99",
        "ze2sX0EF": "0:5,60000005:3",
        "P_DISP_DICTIONARY": "0",
        "P_ICON_ID": "5",
        "P_DICTIONARY_NO": "1",
        "P_DICTIONARY_BG": "5",
        "P_PROCESS_PARAM": "",
        "P_NEED_SWITCH_INFO": "0",
        "P_HIDE_SWITCH_INFO": "0",
        "P_OPEN_SWITCH_INFO": "0",
        "P_CREATEDATE": "2018-02-18 01:46:17",
        "P_UPDATEDATE": "2018-02-18 01:46:17"
    },
    {
        "P_ITEM_ID": "1102",
        "P_NAME": "\u93ae\u9759\u85ac",
        "8Cx57oAk": "\u93ae\u9759\u85ac",
        "P_RARE": "1",
        "P_DISPORDER": "6",
        "60IsqxDt": "1",
        "o7e4HXMP": "1,0,0",
        "moWQ30GH": "2",
        "9EpvI1ay": "1",
        "c8N4mMSb": "",
        "P_SKILL_ID": "8",
        "CA7uXs6D": "99",
        "ze2sX0EF": "0:5,60000006:3",
        "P_DISP_DICTIONARY": "0",
        "P_ICON_ID": "6",
        "P_DICTIONARY_NO": "1",
        "P_DICTIONARY_BG": "6",
        "P_PROCESS_PARAM": "",
        "P_NEED_SWITCH_INFO": "0",
        "P_HIDE_SWITCH_INFO": "0",
        "P_OPEN_SWITCH_INFO": "0",
        "P_CREATEDATE": "2018-02-18 01:46:17",
        "P_UPDATEDATE": "2018-02-18 01:46:17"
    },
    {
        "P_ITEM_ID": "1200",
        "P_NAME": "\u5f37\u5316\u98df",
        "8Cx57oAk": "\u5f37\u5316\u98df",
        "P_RARE": "1",
        "P_DISPORDER": "8",
        "60IsqxDt": "1",
        "o7e4HXMP": "1,0,0",
        "moWQ30GH": "2",
        "9EpvI1ay": "1",
        "c8N4mMSb": "",
        "P_SKILL_ID": "13",
        "CA7uXs6D": "99",
        "ze2sX0EF": "0:4,60000007:2",
        "P_DISP_DICTIONARY": "0",
        "P_ICON_ID": "8",
        "P_DICTIONARY_NO": "1",
        "P_DICTIONARY_BG": "7",
        "P_PROCESS_PARAM": "",
        "P_NEED_SWITCH_INFO": "0",
        "P_HIDE_SWITCH_INFO": "0",
        "P_OPEN_SWITCH_INFO": "0",
        "P_CREATEDATE": "2018-02-18 01:46:17",
        "P_UPDATEDATE": "2018-02-18 01:46:17"
    },
    {
        "P_ITEM_ID": "1201",
        "P_NAME": "\u786c\u5316\u98df",
        "8Cx57oAk": "\u786c\u5316\u98df",
        "P_RARE": "1",
        "P_DISPORDER": "9",
        "60IsqxDt": "1",
        "o7e4HXMP": "1,0,0",
        "moWQ30GH": "2",
        "9EpvI1ay": "1",
        "c8N4mMSb": "",
        "P_SKILL_ID": "14",
        "CA7uXs6D": "99",
        "ze2sX0EF": "0:4,60000008:2",
        "P_DISP_DICTIONARY": "0",
        "P_ICON_ID": "9",
        "P_DICTIONARY_NO": "1",
        "P_DICTIONARY_BG": "8",
        "P_PROCESS_PARAM": "",
        "P_NEED_SWITCH_INFO": "0",
        "P_HIDE_SWITCH_INFO": "0",
        "P_OPEN_SWITCH_INFO": "0",
        "P_CREATEDATE": "2018-02-18 01:46:17",
        "P_UPDATEDATE": "2018-02-18 01:46:17"
    },
    {
        "P_ITEM_ID": "1202",
        "P_NAME": "\u6226\u976d\u98df",
        "8Cx57oAk": "\u6226\u976d\u98df",
        "P_RARE": "2",
        "P_DISPORDER": "10",
        "60IsqxDt": "1",
        "o7e4HXMP": "1,0,0",
        "moWQ30GH": "2",
        "9EpvI1ay": "1",
        "c8N4mMSb": "",
        "P_SKILL_ID": "19",
        "CA7uXs6D": "99",
        "ze2sX0EF": "0:4,60000009:2",
        "P_DISP_DICTIONARY": "0",
        "P_ICON_ID": "10",
        "P_DICTIONARY_NO": "1",
        "P_DICTIONARY_BG": "9",
        "P_PROCESS_PARAM": "",
        "P_NEED_SWITCH_INFO": "0",
        "P_HIDE_SWITCH_INFO": "0",
        "P_OPEN_SWITCH_INFO": "0",
        "P_CREATEDATE": "2018-02-18 01:46:17",
        "P_UPDATEDATE": "2018-02-18 01:46:17"
    },
    {
        "P_ITEM_ID": "1300",
        "P_NAME": "\u6b66\u795e\u85ac",
        "8Cx57oAk": "\u6b66\u795e\u85ac",
        "P_RARE": "2",
        "P_DISPORDER": "11",
        "60IsqxDt": "1",
        "o7e4HXMP": "1,0,0",
        "moWQ30GH": "2",
        "9EpvI1ay": "1",
        "c8N4mMSb": "",
        "P_SKILL_ID": "15",
        "CA7uXs6D": "99",
        "ze2sX0EF": "0:2,60000010:1",
        "P_DISP_DICTIONARY": "0",
        "P_ICON_ID": "11",
        "P_DICTIONARY_NO": "1",
        "P_DICTIONARY_BG": "10",
        "P_PROCESS_PARAM": "",
        "P_NEED_SWITCH_INFO": "0",
        "P_HIDE_SWITCH_INFO": "0",
        "P_OPEN_SWITCH_INFO": "0",
        "P_CREATEDATE": "2018-02-18 01:46:17",
        "P_UPDATEDATE": "2018-02-18 01:46:17"
    },
    {
        "P_ITEM_ID": "1310",
        "P_NAME": "\u795e\u4ed9\u7434",
        "8Cx57oAk": "\u795e\u4ed9\u7434",
        "P_RARE": "2",
        "P_DISPORDER": "12",
        "60IsqxDt": "1",
        "o7e4HXMP": "1,0,0",
        "moWQ30GH": "2",
        "9EpvI1ay": "2",
        "c8N4mMSb": "",
        "P_SKILL_ID": "20",
        "CA7uXs6D": "99",
        "ze2sX0EF": "0:1,60000011:1",
        "P_DISP_DICTIONARY": "0",
        "P_ICON_ID": "12",
        "P_DICTIONARY_NO": "1",
        "P_DICTIONARY_BG": "11",
        "P_PROCESS_PARAM": "",
        "P_NEED_SWITCH_INFO": "0",
        "P_HIDE_SWITCH_INFO": "0",
        "P_OPEN_SWITCH_INFO": "0",
        "P_CREATEDATE": "2018-02-18 01:46:17",
        "P_UPDATEDATE": "2018-02-18 01:46:17"
    },
    {
        "P_ITEM_ID": "1410",
        "P_NAME": "\u8607\u751f\u85ac",
        "8Cx57oAk": "\u8607\u751f\u85ac",
        "P_RARE": "3",
        "P_DISPORDER": "14",
        "60IsqxDt": "1",
        "o7e4HXMP": "1,0,0",
        "moWQ30GH": "2",
        "9EpvI1ay": "1",
        "c8N4mMSb": "",
        "P_SKILL_ID": "17",
        "CA7uXs6D": "99",
        "ze2sX0EF": "0:1,60000012:2",
        "P_DISP_DICTIONARY": "0",
        "P_ICON_ID": "14",
        "P_DICTIONARY_NO": "1",
        "P_DICTIONARY_BG": "12",
        "P_PROCESS_PARAM": "",
        "P_NEED_SWITCH_INFO": "0",
        "P_HIDE_SWITCH_INFO": "0",
        "P_OPEN_SWITCH_INFO": "0",
        "P_CREATEDATE": "2018-02-18 01:46:17",
        "P_UPDATEDATE": "2018-02-18 01:46:17"
    },
    {
        "P_ITEM_ID": "1600",
        "P_NAME": "\u6226\u96c4\u7d46\u6676",
        "8Cx57oAk": "\u6226\u96c4\u7d46\u6676",
        "P_RARE": "3",
        "P_DISPORDER": "16",
        "60IsqxDt": "1",
        "o7e4HXMP": "1,0,0",
        "moWQ30GH": "4",
        "9EpvI1ay": "1",
        "c8N4mMSb": "",
        "P_SKILL_ID": "21",
        "CA7uXs6D": "99",
        "ze2sX0EF": "0:1",
        "P_DISP_DICTIONARY": "0",
        "P_ICON_ID": "15",
        "P_DICTIONARY_NO": "1",
        "P_DICTIONARY_BG": "13",
        "P_PROCESS_PARAM": "",
        "P_NEED_SWITCH_INFO": "0",
        "P_HIDE_SWITCH_INFO": "0",
        "P_OPEN_SWITCH_INFO": "0",
        "P_CREATEDATE": "2018-02-18 01:46:17",
        "P_UPDATEDATE": "2018-02-18 01:46:17"
    },
    {
        "P_ITEM_ID": "120000",
        "P_NAME": "\u795e\u9a13\u306e\u8a3c",
        "8Cx57oAk": "\u795e\u9a13\u306e\u8a3c",
        "P_RARE": "5",
        "P_DISPORDER": "101",
        "60IsqxDt": "3",
        "o7e4HXMP": "1,0,0",
        "moWQ30GH": "2",
        "9EpvI1ay": "2",
        "c8N4mMSb": "",
        "P_SKILL_ID": "",
        "CA7uXs6D": "99",
        "ze2sX0EF": "1",
        "P_DISP_DICTIONARY": "2",
        "P_ICON_ID": "10000",
        "P_DICTIONARY_NO": "1",
        "P_DICTIONARY_BG": "14",
        "P_PROCESS_PARAM": "1,100",
        "P_NEED_SWITCH_INFO": "0",
        "P_HIDE_SWITCH_INFO": "0",
        "P_OPEN_SWITCH_INFO": "0",
        "P_CREATEDATE": "2018-02-18 01:46:17",
        "P_UPDATEDATE": "2018-02-18 01:46:17"
    },
    {
        "P_ITEM_ID": "200000",
        "P_NAME": "\u30e1\u30bf\u30eb\u30ad\u30fc",
        "8Cx57oAk": "\u30e1\u30bf\u30eb\u9375",
        "P_RARE": "5",
        "P_DISPORDER": "201",
        "60IsqxDt": "4",
        "o7e4HXMP": "0,0,0",
        "moWQ30GH": "2",
        "9EpvI1ay": "1",
        "c8N4mMSb": "",
        "P_SKILL_ID": "",
        "CA7uXs6D": "99",
        "ze2sX0EF": "1",
        "P_DISP_DICTIONARY": "2",
        "P_ICON_ID": "100000",
        "P_DICTIONARY_NO": "1",
        "P_DICTIONARY_BG": "15",
        "P_PROCESS_PARAM": "",
        "P_NEED_SWITCH_INFO": "0",
        "P_HIDE_SWITCH_INFO": "0",
        "P_OPEN_SWITCH_INFO": "0",
        "P_CREATEDATE": "2018-02-18 01:46:17",
        "P_UPDATEDATE": "2018-02-18 01:46:17"
    },
    {
        "P_ITEM_ID": "200001",
        "P_NAME": "\u30b8\u30e5\u30a8\u30eb\u30ad\u30fc",
        "8Cx57oAk": "\u30b8\u30e5\u30a8\u9375",
        "P_RARE": "5",
        "P_DISPORDER": "202",
        "60IsqxDt": "4",
        "o7e4HXMP": "0,0,0",
        "moWQ30GH": "2",
        "9EpvI1ay": "1",
        "c8N4mMSb": "",
        "P_SKILL_ID": "",
        "CA7uXs6D": "99",
        "ze2sX0EF": "1",
        "P_DISP_DICTIONARY": "2",
        "P_ICON_ID": "100001",
        "P_DICTIONARY_NO": "1",
        "P_DICTIONARY_BG": "16",
        "P_PROCESS_PARAM": "",
        "P_NEED_SWITCH_INFO": "0",
        "P_HIDE_SWITCH_INFO": "0",
        "P_OPEN_SWITCH_INFO": "0",
        "P_CREATEDATE": "2018-02-18 01:46:17",
        "P_UPDATEDATE": "2018-02-18 01:46:17"
    },
    {
        "P_ITEM_ID": "300000",
        "P_NAME": "\u2605\uff13\u53ec\u559a\u30c1\u30b1\u30c3\u30c8",
        "8Cx57oAk": "\u2605\uff13\u30c1\u30b1",
        "P_RARE": "5",
        "P_DISPORDER": "301",
        "60IsqxDt": "5",
        "o7e4HXMP": "0,0,0",
        "moWQ30GH": "2",
        "9EpvI1ay": "1",
        "c8N4mMSb": "",
        "P_SKILL_ID": "",
        "CA7uXs6D": "99",
        "ze2sX0EF": "1",
        "P_DISP_DICTIONARY": "2",
        "P_ICON_ID": "110000",
        "P_DICTIONARY_NO": "1",
        "P_DICTIONARY_BG": "17",
        "P_PROCESS_PARAM": "3,3",
        "P_NEED_SWITCH_INFO": "0",
        "P_HIDE_SWITCH_INFO": "0",
        "P_OPEN_SWITCH_INFO": "0",
        "P_CREATEDATE": "2018-02-18 01:46:17",
        "P_UPDATEDATE": "2018-02-18 01:46:17"
    }
]