[
    {
        "TRGD9o01": "1",
        "P3c4yk97": "\u5b9a\u4fa1",
        "FUvMn10A": "1",
        "P_CREATEDATE": "2018-02-10 18:04:51",
        "P_UPDATEDATE": "2018-02-10 18:04:51"
    },
    {
        "TRGD9o01": "2",
        "P3c4yk97": "\u7279\u4fa1\uff12\uff10%OFF",
        "FUvMn10A": "2",
        "P_CREATEDATE": "2018-02-10 18:04:51",
        "P_UPDATEDATE": "2018-02-10 18:04:51"
    },
    {
        "TRGD9o01": "999",
        "P3c4yk97": "\u30c7\u30d0\u30c3\u30b0\u7528",
        "FUvMn10A": "2",
        "P_CREATEDATE": "2018-02-10 18:04:51",
        "P_UPDATEDATE": "2018-02-10 18:04:51"
    }
]