[
    {
        "TRGD9o01": "1",
        "P_RARE": "1",
        "Bm80ZxtN": "10",
        "1ef7JNSC": "10",
        "1fox8UB9": "10",
        "P_CREATEDATE": "2018-04-25 01:46:24",
        "P_UPDATEDATE": "2018-04-25 01:46:24"
    },
    {
        "TRGD9o01": "1",
        "P_RARE": "2",
        "Bm80ZxtN": "15",
        "1ef7JNSC": "15",
        "1fox8UB9": "15",
        "P_CREATEDATE": "2018-04-25 01:46:24",
        "P_UPDATEDATE": "2018-04-25 01:46:24"
    },
    {
        "TRGD9o01": "1",
        "P_RARE": "3",
        "Bm80ZxtN": "20",
        "1ef7JNSC": "20",
        "1fox8UB9": "20",
        "P_CREATEDATE": "2018-04-25 01:46:24",
        "P_UPDATEDATE": "2018-04-25 01:46:24"
    },
    {
        "TRGD9o01": "1",
        "P_RARE": "4",
        "Bm80ZxtN": "25",
        "1ef7JNSC": "25",
        "1fox8UB9": "25",
        "P_CREATEDATE": "2018-04-25 01:46:24",
        "P_UPDATEDATE": "2018-04-25 01:46:24"
    },
    {
        "TRGD9o01": "1",
        "P_RARE": "5",
        "Bm80ZxtN": "30",
        "1ef7JNSC": "30",
        "1fox8UB9": "30",
        "P_CREATEDATE": "2018-04-25 01:46:24",
        "P_UPDATEDATE": "2018-04-25 01:46:24"
    },
    {
        "TRGD9o01": "2",
        "P_RARE": "1",
        "Bm80ZxtN": "10",
        "1ef7JNSC": "8",
        "1fox8UB9": "8",
        "P_CREATEDATE": "2018-04-25 01:46:24",
        "P_UPDATEDATE": "2018-04-25 01:46:24"
    },
    {
        "TRGD9o01": "2",
        "P_RARE": "2",
        "Bm80ZxtN": "15",
        "1ef7JNSC": "12",
        "1fox8UB9": "12",
        "P_CREATEDATE": "2018-04-25 01:46:24",
        "P_UPDATEDATE": "2018-04-25 01:46:24"
    },
    {
        "TRGD9o01": "2",
        "P_RARE": "3",
        "Bm80ZxtN": "20",
        "1ef7JNSC": "16",
        "1fox8UB9": "16",
        "P_CREATEDATE": "2018-04-25 01:46:24",
        "P_UPDATEDATE": "2018-04-25 01:46:24"
    },
    {
        "TRGD9o01": "2",
        "P_RARE": "4",
        "Bm80ZxtN": "25",
        "1ef7JNSC": "20",
        "1fox8UB9": "20",
        "P_CREATEDATE": "2018-04-25 01:46:24",
        "P_UPDATEDATE": "2018-04-25 01:46:24"
    },
    {
        "TRGD9o01": "2",
        "P_RARE": "5",
        "Bm80ZxtN": "30",
        "1ef7JNSC": "24",
        "1fox8UB9": "24",
        "P_CREATEDATE": "2018-04-25 01:46:24",
        "P_UPDATEDATE": "2018-04-25 01:46:24"
    },
    {
        "TRGD9o01": "3",
        "P_RARE": "1",
        "Bm80ZxtN": "10",
        "1ef7JNSC": "10",
        "1fox8UB9": "10",
        "P_CREATEDATE": "2018-04-25 01:46:24",
        "P_UPDATEDATE": "2018-04-25 01:46:24"
    },
    {
        "TRGD9o01": "3",
        "P_RARE": "2",
        "Bm80ZxtN": "15",
        "1ef7JNSC": "15",
        "1fox8UB9": "15",
        "P_CREATEDATE": "2018-04-25 01:46:24",
        "P_UPDATEDATE": "2018-04-25 01:46:24"
    },
    {
        "TRGD9o01": "3",
        "P_RARE": "3",
        "Bm80ZxtN": "20",
        "1ef7JNSC": "20",
        "1fox8UB9": "20",
        "P_CREATEDATE": "2018-04-25 01:46:24",
        "P_UPDATEDATE": "2018-04-25 01:46:24"
    },
    {
        "TRGD9o01": "3",
        "P_RARE": "4",
        "Bm80ZxtN": "25",
        "1ef7JNSC": "25",
        "1fox8UB9": "25",
        "P_CREATEDATE": "2018-04-25 01:46:24",
        "P_UPDATEDATE": "2018-04-25 01:46:24"
    },
    {
        "TRGD9o01": "3",
        "P_RARE": "5",
        "Bm80ZxtN": "25",
        "1ef7JNSC": "25",
        "1fox8UB9": "25",
        "P_CREATEDATE": "2018-04-25 01:46:24",
        "P_UPDATEDATE": "2018-04-25 01:46:24"
    },
    {
        "TRGD9o01": "999",
        "P_RARE": "1",
        "Bm80ZxtN": "10",
        "1ef7JNSC": "10",
        "1fox8UB9": "10",
        "P_CREATEDATE": "2018-04-25 01:46:25",
        "P_UPDATEDATE": "2018-04-25 01:46:25"
    },
    {
        "TRGD9o01": "999",
        "P_RARE": "2",
        "Bm80ZxtN": "15",
        "1ef7JNSC": "15",
        "1fox8UB9": "15",
        "P_CREATEDATE": "2018-04-25 01:46:25",
        "P_UPDATEDATE": "2018-04-25 01:46:25"
    },
    {
        "TRGD9o01": "999",
        "P_RARE": "3",
        "Bm80ZxtN": "20",
        "1ef7JNSC": "20",
        "1fox8UB9": "20",
        "P_CREATEDATE": "2018-04-25 01:46:25",
        "P_UPDATEDATE": "2018-04-25 01:46:25"
    },
    {
        "TRGD9o01": "999",
        "P_RARE": "4",
        "Bm80ZxtN": "25",
        "1ef7JNSC": "25",
        "1fox8UB9": "25",
        "P_CREATEDATE": "2018-04-25 01:46:25",
        "P_UPDATEDATE": "2018-04-25 01:46:25"
    },
    {
        "TRGD9o01": "999",
        "P_RARE": "5",
        "Bm80ZxtN": "30",
        "1ef7JNSC": "30",
        "1fox8UB9": "30",
        "P_CREATEDATE": "2018-04-25 01:46:25",
        "P_UPDATEDATE": "2018-04-25 01:46:25"
    }
]