[
    {
        "P_XBB_ID": "100014",
        "P_XBB_NAME": "\u795e\u7891\u306e\u30a2\u30eb\u30ab\u30a4\u30f3\u30c6\u30a3",
        "P_XBB_UNIT_IDS": "10:4002324",
        "P_COST_INFO": "3,8000",
        "8NW7zK2A": "2",
        "P_SCRIPT": "-1",
        "P_ICON_ID": "2222",
        "ux6R7ADp": "100014",
        "5jigH1P7": "105",
        "Mz9Lw4Vv": "50105510",
        "u6F9pqnt": "50105511",
        "P_ACTION_ID": "2",
        "yT1o9jUZ": "60,4,15:1",
        "P_DICTIONARY_NO": "1",
        "P_DICTIONARY_BG": "1010",
        "P_SCHEDULE_ID": "0",
        "P_NEED_SWITCH_INFO": "0",
        "P_HIDE_SWITCH_INFO": "0",
        "P_OPEN_SWITCH_INFO": "0"
    },
    {
        "P_XBB_ID": "200014",
        "P_XBB_NAME": "\u8987\u714c\u306e\u7ffc\uff1c\u30a4\u30b0\u30cb\u30b9\u30fb\u30ec\u30a4\u30ba\uff1e",
        "P_XBB_UNIT_IDS": "10:1001314,10:1001714",
        "P_COST_INFO": "3,8000",
        "8NW7zK2A": "2",
        "P_SCRIPT": "-1",
        "P_ICON_ID": "2222",
        "ux6R7ADp": "200014",
        "5jigH1P7": "80",
        "Mz9Lw4Vv": "50100011",
        "u6F9pqnt": ",50100013",
        "P_ACTION_ID": "1",
        "yT1o9jUZ": "2,50:0.08",
        "P_DICTIONARY_NO": "1",
        "P_DICTIONARY_BG": "10010",
        "P_SCHEDULE_ID": "0",
        "P_NEED_SWITCH_INFO": "0",
        "P_HIDE_SWITCH_INFO": "0",
        "P_OPEN_SWITCH_INFO": "0"
    },
    {
        "P_XBB_ID": "200024",
        "P_XBB_NAME": "\u30f4\u30a7\u30fc\u30c0\u6d41\u8056\u5bfe\u5263\u300e\u30ea\u30ac\u30e6\u30fc\u30b9\u300f",
        "P_XBB_UNIT_IDS": "10:5001314,10:5001814",
        "P_COST_INFO": "3,8000",
        "8NW7zK2A": "3",
        "P_SCRIPT": "-1",
        "P_ICON_ID": "2222",
        "ux6R7ADp": "200024",
        "5jigH1P7": "80",
        "Mz9Lw4Vv": "50100110",
        "u6F9pqnt": "50100111,50100113",
        "P_ACTION_ID": "1",
        "yT1o9jUZ": "1,10:0.10",
        "P_DICTIONARY_NO": "1",
        "P_DICTIONARY_BG": "10020",
        "P_SCHEDULE_ID": "0",
        "P_NEED_SWITCH_INFO": "0",
        "P_HIDE_SWITCH_INFO": "0",
        "P_OPEN_SWITCH_INFO": "0"
    },
    {
        "P_XBB_ID": "200034",
        "P_XBB_NAME": "\u30b0\u30ea\u30e0\u30ed\u30fc\u30c9\u30fb\u30d0\u30bf\u30d5\u30e9\u30a4",
        "P_XBB_UNIT_IDS": "10:6001614,10:6001714",
        "P_COST_INFO": "3,8000",
        "8NW7zK2A": "2",
        "P_SCRIPT": "-1",
        "P_ICON_ID": "2222",
        "ux6R7ADp": "200034",
        "5jigH1P7": "70",
        "Mz9Lw4Vv": "50100210",
        "u6F9pqnt": "50100211,50100213",
        "P_ACTION_ID": "3",
        "yT1o9jUZ": "1:3:2,0:50:30,4.0:4.5:4.0",
        "P_DICTIONARY_NO": "1",
        "P_DICTIONARY_BG": "10030",
        "P_SCHEDULE_ID": "0",
        "P_NEED_SWITCH_INFO": "0",
        "P_HIDE_SWITCH_INFO": "0",
        "P_OPEN_SWITCH_INFO": "0"
    },
    {
        "P_XBB_ID": "200044",
        "P_XBB_NAME": "\u30bb\u30a4\u30af\u30ea\u30c3\u30c9\u30b9\u30ec\u30a4\u30f4",
        "P_XBB_UNIT_IDS": "10:5001414,10:6001514",
        "P_COST_INFO": "3,8000",
        "8NW7zK2A": "2",
        "P_SCRIPT": "-1",
        "P_ICON_ID": "2222",
        "ux6R7ADp": "200044",
        "5jigH1P7": "60",
        "Mz9Lw4Vv": "50100310",
        "u6F9pqnt": "50100311,50100313",
        "P_ACTION_ID": "1",
        "yT1o9jUZ": "0.3,0:0.12",
        "P_DICTIONARY_NO": "1",
        "P_DICTIONARY_BG": "10040",
        "P_SCHEDULE_ID": "0",
        "P_NEED_SWITCH_INFO": "0",
        "P_HIDE_SWITCH_INFO": "0",
        "P_OPEN_SWITCH_INFO": "0"
    },
    {
        "P_XBB_ID": "200054",
        "P_XBB_NAME": "\u30af\u30ea\u30e0\u30be\u30f3\u30fb\u30b9\u30c8\u30e9\u30a4\u30af",
        "P_XBB_UNIT_IDS": "10:1002014,10:6003114",
        "P_COST_INFO": "3,8000",
        "8NW7zK2A": "1",
        "P_SCRIPT": "-1",
        "P_ICON_ID": "2222",
        "ux6R7ADp": "200054",
        "5jigH1P7": "80",
        "Mz9Lw4Vv": "50100410",
        "u6F9pqnt": "50100411,50100413",
        "P_ACTION_ID": "2",
        "yT1o9jUZ": "65,5,5:1",
        "P_DICTIONARY_NO": "1",
        "P_DICTIONARY_BG": "10050",
        "P_SCHEDULE_ID": "0",
        "P_NEED_SWITCH_INFO": "0",
        "P_HIDE_SWITCH_INFO": "0",
        "P_OPEN_SWITCH_INFO": "0"
    },
    {
        "P_XBB_ID": "200064",
        "P_XBB_NAME": "\u30c0\u30d6\u30eb\u30b9\u30af\u30e9\u30c3\u30c1",
        "P_XBB_UNIT_IDS": "10:4001614,10:4001714",
        "P_COST_INFO": "3,7000",
        "8NW7zK2A": "1",
        "P_SCRIPT": "-1",
        "P_ICON_ID": "2222",
        "ux6R7ADp": "200064",
        "5jigH1P7": "80",
        "Mz9Lw4Vv": "50100510",
        "u6F9pqnt": "50100511,50100513",
        "P_ACTION_ID": "1",
        "yT1o9jUZ": "2,30:0.04",
        "P_DICTIONARY_NO": "1",
        "P_DICTIONARY_BG": "10060",
        "P_SCHEDULE_ID": "0",
        "P_NEED_SWITCH_INFO": "0",
        "P_HIDE_SWITCH_INFO": "0",
        "P_OPEN_SWITCH_INFO": "0"
    },
    {
        "P_XBB_ID": "200074",
        "P_XBB_NAME": "\u5275\u6a39\u306e\u8056\u89e3",
        "P_XBB_UNIT_IDS": "10:3001214,10:3001514",
        "P_COST_INFO": "3,7000",
        "8NW7zK2A": "2",
        "P_SCRIPT": "-1",
        "P_ICON_ID": "2222",
        "ux6R7ADp": "200074",
        "5jigH1P7": "75",
        "Mz9Lw4Vv": "50100610",
        "u6F9pqnt": "50100611,50100613",
        "P_ACTION_ID": "3",
        "yT1o9jUZ": "3:2:1,40:20:0,4.0:4.0:4.0",
        "P_DICTIONARY_NO": "1",
        "P_DICTIONARY_BG": "10070",
        "P_SCHEDULE_ID": "0",
        "P_NEED_SWITCH_INFO": "0",
        "P_HIDE_SWITCH_INFO": "0",
        "P_OPEN_SWITCH_INFO": "0"
    },
    {
        "P_XBB_ID": "200084",
        "P_XBB_NAME": "\u30af\u30ea\u30b9\u30bf\u30eb\u30fb\u30b0\u30ec\u30a4\u30b7\u30a2",
        "P_XBB_UNIT_IDS": "10:2001214,10:2001414",
        "P_COST_INFO": "3,8000",
        "8NW7zK2A": "3",
        "P_SCRIPT": "-1",
        "P_ICON_ID": "2222",
        "ux6R7ADp": "200084",
        "5jigH1P7": "75",
        "Mz9Lw4Vv": "50100710",
        "u6F9pqnt": "50100711,50100713",
        "P_ACTION_ID": "1",
        "yT1o9jUZ": "1.5,40:0.09",
        "P_DICTIONARY_NO": "1",
        "P_DICTIONARY_BG": "10080",
        "P_SCHEDULE_ID": "0",
        "P_NEED_SWITCH_INFO": "0",
        "P_HIDE_SWITCH_INFO": "0",
        "P_OPEN_SWITCH_INFO": "0"
    },
    {
        "P_XBB_ID": "200094",
        "P_XBB_NAME": "\u5929\u5730\u8f5f\u96f7",
        "P_XBB_UNIT_IDS": "10:4001214,10:4001414",
        "P_COST_INFO": "3,8000",
        "8NW7zK2A": "2",
        "P_SCRIPT": "-1",
        "P_ICON_ID": "2222",
        "ux6R7ADp": "200094",
        "5jigH1P7": "80",
        "Mz9Lw4Vv": "50100810",
        "u6F9pqnt": "50100811,50100813",
        "P_ACTION_ID": "1",
        "yT1o9jUZ": "1.2,25:0.09",
        "P_DICTIONARY_NO": "1",
        "P_DICTIONARY_BG": "10090",
        "P_SCHEDULE_ID": "0",
        "P_NEED_SWITCH_INFO": "0",
        "P_HIDE_SWITCH_INFO": "0",
        "P_OPEN_SWITCH_INFO": "0"
    },
    {
        "P_XBB_ID": "200104",
        "P_XBB_NAME": "\u9ed2\u9a0e\u7149\u67b6\u885d",
        "P_XBB_UNIT_IDS": "10:6001414,10:6001914",
        "P_COST_INFO": "3,8000",
        "8NW7zK2A": "1",
        "P_SCRIPT": "-1",
        "P_ICON_ID": "2222",
        "ux6R7ADp": "200104",
        "5jigH1P7": "80",
        "Mz9Lw4Vv": "50100910",
        "u6F9pqnt": "50100911,50100913",
        "P_ACTION_ID": "2",
        "yT1o9jUZ": "50,5,5:1",
        "P_DICTIONARY_NO": "1",
        "P_DICTIONARY_BG": "10100",
        "P_SCHEDULE_ID": "0",
        "P_NEED_SWITCH_INFO": "0",
        "P_HIDE_SWITCH_INFO": "0",
        "P_OPEN_SWITCH_INFO": "0"
    },
    {
        "P_XBB_ID": "200114",
        "P_XBB_NAME": "\u30d6\u30ec\u30a4\u30d6\u30c4\u30a4\u30f3\u30ba",
        "P_XBB_UNIT_IDS": "10:5000324,10:6000324",
        "P_COST_INFO": "3,8000",
        "8NW7zK2A": "3",
        "P_SCRIPT": "-1",
        "P_ICON_ID": "2222",
        "ux6R7ADp": "200114",
        "5jigH1P7": "75",
        "Mz9Lw4Vv": "50101010",
        "u6F9pqnt": "50101011,50101013",
        "P_ACTION_ID": "2",
        "yT1o9jUZ": "60,4,15:1",
        "P_DICTIONARY_NO": "1",
        "P_DICTIONARY_BG": "10110",
        "P_SCHEDULE_ID": "0",
        "P_NEED_SWITCH_INFO": "0",
        "P_HIDE_SWITCH_INFO": "0",
        "P_OPEN_SWITCH_INFO": "0"
    },
    {
        "P_XBB_ID": "200124",
        "P_XBB_NAME": "\u7fa9\u8cca\u30bc\u30eb\u30ca\u30a4\u30c8\u3068\u8cde\u91d1\u7a3c\u304e",
        "P_XBB_UNIT_IDS": "10:3001414,10:4000524",
        "P_COST_INFO": "3,8000",
        "8NW7zK2A": "2",
        "P_SCRIPT": "-1",
        "P_ICON_ID": "2222",
        "ux6R7ADp": "200124",
        "5jigH1P7": "80",
        "Mz9Lw4Vv": "50101110",
        "u6F9pqnt": "50101111,50101113",
        "P_ACTION_ID": "2",
        "yT1o9jUZ": "40,3,5:1",
        "P_DICTIONARY_NO": "1",
        "P_DICTIONARY_BG": "10120",
        "P_SCHEDULE_ID": "0",
        "P_NEED_SWITCH_INFO": "0",
        "P_HIDE_SWITCH_INFO": "0",
        "P_OPEN_SWITCH_INFO": "0"
    },
    {
        "P_XBB_ID": "200134",
        "P_XBB_NAME": "\u8b00\u7114\u6607\u96f7\u306e\u9663",
        "P_XBB_UNIT_IDS": "10:4001314,10:1000524",
        "P_COST_INFO": "3,8000",
        "8NW7zK2A": "2",
        "P_SCRIPT": "-1",
        "P_ICON_ID": "2222",
        "ux6R7ADp": "200134",
        "5jigH1P7": "75",
        "Mz9Lw4Vv": "50101210",
        "u6F9pqnt": "50101211,50101213",
        "P_ACTION_ID": "3",
        "yT1o9jUZ": "3:1:2,40:0:20,5.0:4.0:5.0",
        "P_DICTIONARY_NO": "1",
        "P_DICTIONARY_BG": "10130",
        "P_SCHEDULE_ID": "0",
        "P_NEED_SWITCH_INFO": "0",
        "P_HIDE_SWITCH_INFO": "0",
        "P_OPEN_SWITCH_INFO": "0"
    },
    {
        "P_XBB_ID": "200144",
        "P_XBB_NAME": "\u7d76\u76fe\u306e\u6148\u611b",
        "P_XBB_UNIT_IDS": "10:1001414,10:2000524",
        "P_COST_INFO": "3,7000",
        "8NW7zK2A": "2",
        "P_SCRIPT": "-1",
        "P_ICON_ID": "2222",
        "ux6R7ADp": "200144",
        "5jigH1P7": "80",
        "Mz9Lw4Vv": "50101310",
        "u6F9pqnt": "50101311,50101313",
        "P_ACTION_ID": "1",
        "yT1o9jUZ": "0.6,20:0.11",
        "P_DICTIONARY_NO": "1",
        "P_DICTIONARY_BG": "10140",
        "P_SCHEDULE_ID": "0",
        "P_NEED_SWITCH_INFO": "0",
        "P_HIDE_SWITCH_INFO": "0",
        "P_OPEN_SWITCH_INFO": "0"
    },
    {
        "P_XBB_ID": "200154",
        "P_XBB_NAME": "\u8056\u53e1\u306e\u30a8\u30af\u30b9\u30d7\u30ea\u30b1\u30a4\u30b7\u30e7\u30f3",
        "P_XBB_UNIT_IDS": "10:2001314,10:3000524",
        "P_COST_INFO": "3,6000",
        "8NW7zK2A": "2",
        "P_SCRIPT": "-1",
        "P_ICON_ID": "2222",
        "ux6R7ADp": "200154",
        "5jigH1P7": "75",
        "Mz9Lw4Vv": "50101410",
        "u6F9pqnt": "50101411,50101413",
        "P_ACTION_ID": "2",
        "yT1o9jUZ": "40,5,12:1",
        "P_DICTIONARY_NO": "1",
        "P_DICTIONARY_BG": "10150",
        "P_SCHEDULE_ID": "0",
        "P_NEED_SWITCH_INFO": "0",
        "P_HIDE_SWITCH_INFO": "0",
        "P_OPEN_SWITCH_INFO": "0"
    },
    {
        "P_XBB_ID": "200164",
        "P_XBB_NAME": "\u30d5\u30a3\u30eb\u30a2\u30fc\u30e0\u30af\u30ed\u30b9",
        "P_XBB_UNIT_IDS": "10:5001124,10:1001124",
        "P_COST_INFO": "3,8000",
        "8NW7zK2A": "1",
        "P_SCRIPT": "-1",
        "P_ICON_ID": "2222",
        "ux6R7ADp": "200164",
        "5jigH1P7": "80",
        "Mz9Lw4Vv": "50101510",
        "u6F9pqnt": "50101511,50101513",
        "P_ACTION_ID": "1",
        "yT1o9jUZ": "1,30:0.04",
        "P_DICTIONARY_NO": "1",
        "P_DICTIONARY_BG": "10160",
        "P_SCHEDULE_ID": "0",
        "P_NEED_SWITCH_INFO": "0",
        "P_HIDE_SWITCH_INFO": "0",
        "P_OPEN_SWITCH_INFO": "0"
    },
    {
        "P_XBB_ID": "200174",
        "P_XBB_NAME": "\u30b5\u30f3\u30af\u30aa\u30fc\u30ec\u30c1\u30e3\u30fc\u30b8",
        "P_XBB_UNIT_IDS": "10:1001224,10:3001124",
        "P_COST_INFO": "3,8000",
        "8NW7zK2A": "2",
        "P_SCRIPT": "-1",
        "P_ICON_ID": "2222",
        "ux6R7ADp": "200174",
        "5jigH1P7": "75",
        "Mz9Lw4Vv": "50101610",
        "u6F9pqnt": "50101611,50101613",
        "P_ACTION_ID": "3",
        "yT1o9jUZ": "2:1:3,20:0:40,4.0:4.0:4.0",
        "P_DICTIONARY_NO": "1",
        "P_DICTIONARY_BG": "10170",
        "P_SCHEDULE_ID": "0",
        "P_NEED_SWITCH_INFO": "0",
        "P_HIDE_SWITCH_INFO": "0",
        "P_OPEN_SWITCH_INFO": "0"
    },
    {
        "P_XBB_ID": "200184",
        "P_XBB_NAME": "\u7d76\u54c1\uff01\u4e0d\u6b7b\u9ce5\u6599\u7406\uff01",
        "P_XBB_UNIT_IDS": "10:1001514,10:1001814",
        "P_COST_INFO": "3,7000",
        "8NW7zK2A": "2",
        "P_SCRIPT": "-1",
        "P_ICON_ID": "2222",
        "ux6R7ADp": "200184",
        "5jigH1P7": "70",
        "Mz9Lw4Vv": "50101710",
        "u6F9pqnt": "50101711",
        "P_ACTION_ID": "2",
        "yT1o9jUZ": "45,3,10:1",
        "P_DICTIONARY_NO": "1",
        "P_DICTIONARY_BG": "10180",
        "P_SCHEDULE_ID": "0",
        "P_NEED_SWITCH_INFO": "0",
        "P_HIDE_SWITCH_INFO": "0",
        "P_OPEN_SWITCH_INFO": "0"
    },
    {
        "P_XBB_ID": "200194",
        "P_XBB_NAME": "\u559c\u3073\u306e\u6b4c",
        "P_XBB_UNIT_IDS": "10:3001624,10:5001724",
        "P_COST_INFO": "3,8000",
        "8NW7zK2A": "2",
        "P_SCRIPT": "-1",
        "P_ICON_ID": "2222",
        "ux6R7ADp": "200194",
        "5jigH1P7": "70",
        "Mz9Lw4Vv": "50103310",
        "u6F9pqnt": "50103311",
        "P_ACTION_ID": "3",
        "yT1o9jUZ": "1:2:3,0:20:40,4.0:4.0:4.0",
        "P_DICTIONARY_NO": "1",
        "P_DICTIONARY_BG": "10190",
        "P_SCHEDULE_ID": "0",
        "P_NEED_SWITCH_INFO": "0",
        "P_HIDE_SWITCH_INFO": "0",
        "P_OPEN_SWITCH_INFO": "0"
    },
    {
        "P_XBB_ID": "200204",
        "P_XBB_NAME": "\u70c8\u8d64\u306e\u7d46\u300e\u3072\u3068\u3064\u306e\u9858\u3044\u300f",
        "P_XBB_UNIT_IDS": "10:1002524,10:5001924",
        "P_COST_INFO": "3,8000",
        "8NW7zK2A": "2",
        "P_SCRIPT": "-1",
        "P_ICON_ID": "2222",
        "ux6R7ADp": "200204",
        "5jigH1P7": "75",
        "Mz9Lw4Vv": "50103610",
        "u6F9pqnt": "50103611",
        "P_ACTION_ID": "3",
        "yT1o9jUZ": "1:2:3,0:20:40,4.0:4.0:4.0",
        "P_DICTIONARY_NO": "1",
        "P_DICTIONARY_BG": "10200",
        "P_SCHEDULE_ID": "0",
        "P_NEED_SWITCH_INFO": "0",
        "P_HIDE_SWITCH_INFO": "0",
        "P_OPEN_SWITCH_INFO": "0"
    },
    {
        "P_XBB_ID": "200214",
        "P_XBB_NAME": "\u60f3\u60f9\u306e\u7d46\u300e\u6c34\u5e95\u59eb\u300f",
        "P_XBB_UNIT_IDS": "10:2001924,10:5001924",
        "P_COST_INFO": "3,8000",
        "8NW7zK2A": "3",
        "P_SCRIPT": "-1",
        "P_ICON_ID": "2222",
        "ux6R7ADp": "200214",
        "5jigH1P7": "80",
        "Mz9Lw4Vv": "50103710",
        "u6F9pqnt": "50103711",
        "P_ACTION_ID": "3",
        "yT1o9jUZ": "2:1:3,20:0:40,4.0:4.0:4.0",
        "P_DICTIONARY_NO": "1",
        "P_DICTIONARY_BG": "10210",
        "P_SCHEDULE_ID": "0",
        "P_NEED_SWITCH_INFO": "0",
        "P_HIDE_SWITCH_INFO": "0",
        "P_OPEN_SWITCH_INFO": "0"
    },
    {
        "P_XBB_ID": "200224",
        "P_XBB_NAME": "\u9192\u68d8\u306e\u7d46\u300e\u3044\u3070\u3089\u306e\u57ce\u300f",
        "P_XBB_UNIT_IDS": "10:3002124,10:5001924",
        "P_COST_INFO": "3,8000",
        "8NW7zK2A": "2",
        "P_SCRIPT": "-1",
        "P_ICON_ID": "2222",
        "ux6R7ADp": "200224",
        "5jigH1P7": "75",
        "Mz9Lw4Vv": "50103810",
        "u6F9pqnt": "50103811",
        "P_ACTION_ID": "3",
        "yT1o9jUZ": "3:1:2,40:0:20,5.0:4.0:5.0",
        "P_DICTIONARY_NO": "1",
        "P_DICTIONARY_BG": "10220",
        "P_SCHEDULE_ID": "0",
        "P_NEED_SWITCH_INFO": "0",
        "P_HIDE_SWITCH_INFO": "0",
        "P_OPEN_SWITCH_INFO": "0"
    },
    {
        "P_XBB_ID": "200234",
        "P_XBB_NAME": "\u609f\u8a3c\u306e\u7d46\u300e\u5d50\u5996\u4f1d\u300f",
        "P_XBB_UNIT_IDS": "10:4002224,10:5001924",
        "P_COST_INFO": "3,8000",
        "8NW7zK2A": "3",
        "P_SCRIPT": "-1",
        "P_ICON_ID": "2222",
        "ux6R7ADp": "200234",
        "5jigH1P7": "70",
        "Mz9Lw4Vv": "50103910",
        "u6F9pqnt": "50103911",
        "P_ACTION_ID": "3",
        "yT1o9jUZ": "3:2:1,40:20:0,4.0:4.0:4.0",
        "P_DICTIONARY_NO": "1",
        "P_DICTIONARY_BG": "10230",
        "P_SCHEDULE_ID": "0",
        "P_NEED_SWITCH_INFO": "0",
        "P_HIDE_SWITCH_INFO": "0",
        "P_OPEN_SWITCH_INFO": "0"
    },
    {
        "P_XBB_ID": "200244",
        "P_XBB_NAME": "\u30d1\u30a4\u30ec\u30fc\u30c4\u30fb\u30b3\u30f3\u30d5\u30ea\u30af\u30c8",
        "P_XBB_UNIT_IDS": "10:2001614,10:2002914",
        "P_COST_INFO": "3,7000",
        "8NW7zK2A": "3",
        "P_SCRIPT": "-1",
        "P_ICON_ID": "2222",
        "ux6R7ADp": "200244",
        "5jigH1P7": "75",
        "Mz9Lw4Vv": "50104010",
        "u6F9pqnt": "50104011",
        "P_ACTION_ID": "1",
        "yT1o9jUZ": "1,30:0.04",
        "P_DICTIONARY_NO": "1",
        "P_DICTIONARY_BG": "10240",
        "P_SCHEDULE_ID": "0",
        "P_NEED_SWITCH_INFO": "0",
        "P_HIDE_SWITCH_INFO": "0",
        "P_OPEN_SWITCH_INFO": "0"
    },
    {
        "P_XBB_ID": "200254",
        "P_XBB_NAME": "\u5929\u53cc\u300e\u7121\u6975\u4fa0\u6f14\u300f",
        "P_XBB_UNIT_IDS": "10:3002914,10:4002814",
        "P_COST_INFO": "3,8000",
        "8NW7zK2A": "1",
        "P_SCRIPT": "-1",
        "P_ICON_ID": "2222",
        "ux6R7ADp": "200254",
        "5jigH1P7": "70",
        "Mz9Lw4Vv": "50104110",
        "u6F9pqnt": "50104111",
        "P_ACTION_ID": "2",
        "yT1o9jUZ": "45,3,10:1",
        "P_DICTIONARY_NO": "1",
        "P_DICTIONARY_BG": "10250",
        "P_SCHEDULE_ID": "0",
        "P_NEED_SWITCH_INFO": "0",
        "P_HIDE_SWITCH_INFO": "0",
        "P_OPEN_SWITCH_INFO": "0"
    },
    {
        "P_XBB_ID": "200264",
        "P_XBB_NAME": "\u7114\u5929\u6c37\u5d50\u300e\u30a2\u30e0\u30cb\u30b9\u30f4\u30a7\u30a4\u30eb\u300f",
        "P_XBB_UNIT_IDS": "10:1003214,10:2003014",
        "P_COST_INFO": "3,8000",
        "8NW7zK2A": "2",
        "P_SCRIPT": "-1",
        "P_ICON_ID": "2222",
        "ux6R7ADp": "200264",
        "5jigH1P7": "75",
        "Mz9Lw4Vv": "50104310",
        "u6F9pqnt": "50104311",
        "P_ACTION_ID": "1",
        "yT1o9jUZ": "0.6,20:0.11",
        "P_DICTIONARY_NO": "1",
        "P_DICTIONARY_BG": "10260",
        "P_SCHEDULE_ID": "0",
        "P_NEED_SWITCH_INFO": "0",
        "P_HIDE_SWITCH_INFO": "0",
        "P_OPEN_SWITCH_INFO": "0"
    },
    {
        "P_XBB_ID": "200274",
        "P_XBB_NAME": "\u73b2\u7109\u306e\u5927\u5929\u51a5\u8853",
        "P_XBB_UNIT_IDS": "10:5001514,10:6003414",
        "P_COST_INFO": "3,7000",
        "8NW7zK2A": "2",
        "P_SCRIPT": "-1",
        "P_ICON_ID": "2222",
        "ux6R7ADp": "200274",
        "5jigH1P7": "80",
        "Mz9Lw4Vv": "50104410",
        "u6F9pqnt": "50104411",
        "P_ACTION_ID": "3",
        "yT1o9jUZ": "1:2:3,0:20:40,4.0:4.0:4.0",
        "P_DICTIONARY_NO": "1",
        "P_DICTIONARY_BG": "10270",
        "P_SCHEDULE_ID": "0",
        "P_NEED_SWITCH_INFO": "0",
        "P_HIDE_SWITCH_INFO": "0",
        "P_OPEN_SWITCH_INFO": "0"
    },
    {
        "P_XBB_ID": "200284",
        "P_XBB_NAME": "\u300e\u3072\u3068\u3064\u306e\u9858\u3044\u300f\u8840\u5b9d\u306e\u7ae0",
        "P_XBB_UNIT_IDS": "10:1002524,10:6001824",
        "P_COST_INFO": "3,8000",
        "8NW7zK2A": "2",
        "P_SCRIPT": "-1",
        "P_ICON_ID": "2222",
        "ux6R7ADp": "200284",
        "5jigH1P7": "75",
        "Mz9Lw4Vv": "50104510",
        "u6F9pqnt": "50104511",
        "P_ACTION_ID": "3",
        "yT1o9jUZ": "1:2:3,0:20:40,4.0:4.0:4.0",
        "P_DICTIONARY_NO": "1",
        "P_DICTIONARY_BG": "10280",
        "P_SCHEDULE_ID": "0",
        "P_NEED_SWITCH_INFO": "0",
        "P_HIDE_SWITCH_INFO": "0",
        "P_OPEN_SWITCH_INFO": "0"
    },
    {
        "P_XBB_ID": "200294",
        "P_XBB_NAME": "\u300e\u6c34\u5e95\u59eb\u300f\u5fd8\u6eba\u306e\u7ae0",
        "P_XBB_UNIT_IDS": "10:2001924,10:6001824",
        "P_COST_INFO": "3,8000",
        "8NW7zK2A": "2",
        "P_SCRIPT": "-1",
        "P_ICON_ID": "2222",
        "ux6R7ADp": "200294",
        "5jigH1P7": "80",
        "Mz9Lw4Vv": "50104610",
        "u6F9pqnt": "50104611",
        "P_ACTION_ID": "3",
        "yT1o9jUZ": "2:1:3,20:0:40,4.0:4.0:4.0",
        "P_DICTIONARY_NO": "1",
        "P_DICTIONARY_BG": "10290",
        "P_SCHEDULE_ID": "0",
        "P_NEED_SWITCH_INFO": "0",
        "P_HIDE_SWITCH_INFO": "0",
        "P_OPEN_SWITCH_INFO": "0"
    },
    {
        "P_XBB_ID": "200304",
        "P_XBB_NAME": "\u300e\u3044\u3070\u3089\u306e\u57ce\u300f\u5fcc\u96a0\u306e\u7ae0",
        "P_XBB_UNIT_IDS": "10:3002124,10:6001824",
        "P_COST_INFO": "3,8000",
        "8NW7zK2A": "2",
        "P_SCRIPT": "-1",
        "P_ICON_ID": "2222",
        "ux6R7ADp": "200304",
        "5jigH1P7": "75",
        "Mz9Lw4Vv": "50104710",
        "u6F9pqnt": "50104711",
        "P_ACTION_ID": "3",
        "yT1o9jUZ": "3:1:2,40:0:20,5.0:4.0:5.0",
        "P_DICTIONARY_NO": "1",
        "P_DICTIONARY_BG": "10300",
        "P_SCHEDULE_ID": "0",
        "P_NEED_SWITCH_INFO": "0",
        "P_HIDE_SWITCH_INFO": "0",
        "P_OPEN_SWITCH_INFO": "0"
    },
    {
        "P_XBB_ID": "200314",
        "P_XBB_NAME": "\u300e\u5d50\u5996\u4f1d\u300f\u53db\u66b4\u306e\u7ae0",
        "P_XBB_UNIT_IDS": "10:4002224,10:6001824",
        "P_COST_INFO": "3,8000",
        "8NW7zK2A": "2",
        "P_SCRIPT": "-1",
        "P_ICON_ID": "2222",
        "ux6R7ADp": "200314",
        "5jigH1P7": "80",
        "Mz9Lw4Vv": "50104810",
        "u6F9pqnt": "50104811",
        "P_ACTION_ID": "3",
        "yT1o9jUZ": "3:2:1,40:20:0,4.0:4.0:4.0",
        "P_DICTIONARY_NO": "1",
        "P_DICTIONARY_BG": "10310",
        "P_SCHEDULE_ID": "0",
        "P_NEED_SWITCH_INFO": "0",
        "P_HIDE_SWITCH_INFO": "0",
        "P_OPEN_SWITCH_INFO": "0"
    },
    {
        "P_XBB_ID": "200324",
        "P_XBB_NAME": "\u65b0\u8a93\u306e\u30d5\u30a3\u30eb\u30a2\u30fc\u30e0\u30af\u30ed\u30b9",
        "P_XBB_UNIT_IDS": "11:500504,11:100514",
        "P_COST_INFO": "3,8000",
        "8NW7zK2A": "1",
        "P_SCRIPT": "-1",
        "P_ICON_ID": "2222",
        "ux6R7ADp": "200324",
        "5jigH1P7": "80",
        "Mz9Lw4Vv": "50104210",
        "u6F9pqnt": "50104211",
        "P_ACTION_ID": "1",
        "yT1o9jUZ": "1,30:0.04",
        "P_DICTIONARY_NO": "1",
        "P_DICTIONARY_BG": "10320",
        "P_SCHEDULE_ID": "0",
        "P_NEED_SWITCH_INFO": "0",
        "P_HIDE_SWITCH_INFO": "0",
        "P_OPEN_SWITCH_INFO": "0"
    },
    {
        "P_XBB_ID": "200334",
        "P_XBB_NAME": "\u5e7b\u96d9\u51cd\u8987",
        "P_XBB_UNIT_IDS": "10:2002024,10:2002124",
        "P_COST_INFO": "3,10000",
        "8NW7zK2A": "2",
        "P_SCRIPT": "-1",
        "P_ICON_ID": "2222",
        "ux6R7ADp": "200334",
        "5jigH1P7": "80",
        "Mz9Lw4Vv": "50104910",
        "u6F9pqnt": "50104911",
        "P_ACTION_ID": "2",
        "yT1o9jUZ": "45,3,10:1",
        "P_DICTIONARY_NO": "1",
        "P_DICTIONARY_BG": "10330",
        "P_SCHEDULE_ID": "0",
        "P_NEED_SWITCH_INFO": "0",
        "P_HIDE_SWITCH_INFO": "0",
        "P_OPEN_SWITCH_INFO": "0"
    },
    {
        "P_XBB_ID": "200344",
        "P_XBB_NAME": "\u30c7\u30a3\u30b9\u30ce\u30df\u30a2\u306e\u72c2\u5bb4",
        "P_XBB_UNIT_IDS": "10:5003414,10:6003614",
        "P_COST_INFO": "3,10000",
        "8NW7zK2A": "2",
        "P_SCRIPT": "-1",
        "P_ICON_ID": "2222",
        "ux6R7ADp": "200344",
        "5jigH1P7": "120",
        "Mz9Lw4Vv": "50105010",
        "u6F9pqnt": "50105011",
        "P_ACTION_ID": "2",
        "yT1o9jUZ": "50,5,5:1",
        "P_DICTIONARY_NO": "1",
        "P_DICTIONARY_BG": "10340",
        "P_SCHEDULE_ID": "0",
        "P_NEED_SWITCH_INFO": "0",
        "P_HIDE_SWITCH_INFO": "0",
        "P_OPEN_SWITCH_INFO": "0"
    },
    {
        "P_XBB_ID": "200354",
        "P_XBB_NAME": "\u60aa\u515a\u306e\u540d\u3092\u80cc\u8ca0\u3063\u3066",
        "P_XBB_UNIT_IDS": "10:5003514,10:6003614",
        "P_COST_INFO": "3,8000",
        "8NW7zK2A": "3",
        "P_SCRIPT": "-1",
        "P_ICON_ID": "2222",
        "ux6R7ADp": "200354",
        "5jigH1P7": "80",
        "Mz9Lw4Vv": "50105110",
        "u6F9pqnt": "50105111",
        "P_ACTION_ID": "1",
        "yT1o9jUZ": "1,10:0.10",
        "P_DICTIONARY_NO": "1",
        "P_DICTIONARY_BG": "10350",
        "P_SCHEDULE_ID": "0",
        "P_NEED_SWITCH_INFO": "0",
        "P_HIDE_SWITCH_INFO": "0",
        "P_OPEN_SWITCH_INFO": "0"
    },
    {
        "P_XBB_ID": "200364",
        "P_XBB_NAME": "\u300e\u30d5\u30a9\u30fc\u30b9\u3068\u5171\u306b\u3042\u3089\u3093\u3053\u3068\u3092\u300f",
        "P_XBB_UNIT_IDS": "10:5002124,10:5002624",
        "P_COST_INFO": "3,8000",
        "8NW7zK2A": "2",
        "P_SCRIPT": "-1",
        "P_ICON_ID": "2222",
        "ux6R7ADp": "200364",
        "5jigH1P7": "130",
        "Mz9Lw4Vv": "50105210",
        "u6F9pqnt": "50105211",
        "P_ACTION_ID": "100",
        "yT1o9jUZ": "1.3,20:0.05",
        "P_DICTIONARY_NO": "1",
        "P_DICTIONARY_BG": "10360",
        "P_SCHEDULE_ID": "0",
        "P_NEED_SWITCH_INFO": "0",
        "P_HIDE_SWITCH_INFO": "0",
        "P_OPEN_SWITCH_INFO": "0"
    },
    {
        "P_XBB_ID": "200374",
        "P_XBB_NAME": "\u9280\u6cb3\u7cfb\u6700\u901f\u306e\u30ac\u30e9\u30af\u30bf",
        "P_XBB_UNIT_IDS": "10:5002324,10:5002424",
        "P_COST_INFO": "3,8000",
        "8NW7zK2A": "2",
        "P_SCRIPT": "-1",
        "P_ICON_ID": "2222",
        "ux6R7ADp": "200374",
        "5jigH1P7": "130",
        "Mz9Lw4Vv": "50105310",
        "u6F9pqnt": "50105311,50105313",
        "P_ACTION_ID": "100",
        "yT1o9jUZ": "1.5,20:0.05",
        "P_DICTIONARY_NO": "1",
        "P_DICTIONARY_BG": "10370",
        "P_SCHEDULE_ID": "0",
        "P_NEED_SWITCH_INFO": "0",
        "P_HIDE_SWITCH_INFO": "0",
        "P_OPEN_SWITCH_INFO": "0"
    },
    {
        "P_XBB_ID": "200384",
        "P_XBB_NAME": "\u7fa9\u8cca\u30bc\u30eb\u30ca\u30a4\u30c8\u3068\u98a8\u306e\u59eb\u541b",
        "P_XBB_UNIT_IDS": "10:3003114,10:3001414",
        "P_COST_INFO": "3,8000",
        "8NW7zK2A": "3",
        "P_SCRIPT": "-1",
        "P_ICON_ID": "2222",
        "ux6R7ADp": "200384",
        "5jigH1P7": "80",
        "Mz9Lw4Vv": "50105610",
        "u6F9pqnt": "50105611",
        "P_ACTION_ID": "3",
        "yT1o9jUZ": "1:2:3,0:20:40,4.0:4.0:4.0",
        "P_DICTIONARY_NO": "1",
        "P_DICTIONARY_BG": "10380",
        "P_SCHEDULE_ID": "0",
        "P_NEED_SWITCH_INFO": "0",
        "P_HIDE_SWITCH_INFO": "0",
        "P_OPEN_SWITCH_INFO": "0"
    },
    {
        "P_XBB_ID": "200394",
        "P_XBB_NAME": "\u5bfe\u6c7a\uff01\u30b4\u30fc\u30eb\u30c7\u30f3\u6599\u7406\u30b7\u30e7\u30fc\uff01",
        "P_XBB_UNIT_IDS": "10:1001814,10:4002524",
        "P_COST_INFO": "3,8000",
        "8NW7zK2A": "3",
        "P_SCRIPT": "-1",
        "P_ICON_ID": "2222",
        "ux6R7ADp": "200394",
        "5jigH1P7": "80",
        "Mz9Lw4Vv": "50105710",
        "u6F9pqnt": "50105711",
        "P_ACTION_ID": "2",
        "yT1o9jUZ": "45,3,10:1",
        "P_DICTIONARY_NO": "1",
        "P_DICTIONARY_BG": "10390",
        "P_SCHEDULE_ID": "55000",
        "P_NEED_SWITCH_INFO": "0",
        "P_HIDE_SWITCH_INFO": "0",
        "P_OPEN_SWITCH_INFO": "0"
    },
    {
        "P_XBB_ID": "200404",
        "P_XBB_NAME": "\u30b9\u30bf\u30fc\u30e9\u30a4\u30c8\u2606\u5f61\u30bb\u30f3\u30bb\u30fc\u30b7\u30e7\u30f3",
        "P_XBB_UNIT_IDS": "10:5002824,10:6002224",
        "P_COST_INFO": "3,8000",
        "8NW7zK2A": "3",
        "P_SCRIPT": "-1",
        "P_ICON_ID": "2222",
        "ux6R7ADp": "200404",
        "5jigH1P7": "110",
        "Mz9Lw4Vv": "50105810",
        "u6F9pqnt": "50105811",
        "P_ACTION_ID": "3",
        "yT1o9jUZ": "2:3:1,20:40:0,4.0:4.0:4.0",
        "P_DICTIONARY_NO": "1",
        "P_DICTIONARY_BG": "10400",
        "P_SCHEDULE_ID": "55000",
        "P_NEED_SWITCH_INFO": "0",
        "P_HIDE_SWITCH_INFO": "0",
        "P_OPEN_SWITCH_INFO": "0"
    },
    {
        "P_XBB_ID": "200414",
        "P_XBB_NAME": "\u30c7\u30e5\u30a8\u30eb\u30fb\u30aa\u30d6\u30fb\u30d5\u30a7\u30a4\u30c8",
        "P_XBB_UNIT_IDS": "10:2002424,10:2002524",
        "P_COST_INFO": "3,8000",
        "8NW7zK2A": "3",
        "P_SCRIPT": "-1",
        "P_ICON_ID": "2222",
        "ux6R7ADp": "200414",
        "5jigH1P7": "110",
        "Mz9Lw4Vv": "50106110",
        "u6F9pqnt": "50106111",
        "P_ACTION_ID": "3",
        "yT1o9jUZ": "2:3:1,20:40:0,4.0:4.0:4.0",
        "P_DICTIONARY_NO": "1",
        "P_DICTIONARY_BG": "10410",
        "P_SCHEDULE_ID": "0",
        "P_NEED_SWITCH_INFO": "0",
        "P_HIDE_SWITCH_INFO": "0",
        "P_OPEN_SWITCH_INFO": "0"
    },
    {
        "P_XBB_ID": "300014",
        "P_XBB_NAME": "\u30a4\u30f3\u30f4\u30a9\u30fc\u30af\u30d6\u30ec\u30a4\u30b6\u30fc",
        "P_XBB_UNIT_IDS": "10:1002114,10:3002014,10:4002014",
        "P_COST_INFO": "3,8000",
        "8NW7zK2A": "3",
        "P_SCRIPT": "-1",
        "P_ICON_ID": "2222",
        "ux6R7ADp": "300014",
        "5jigH1P7": "80",
        "Mz9Lw4Vv": "50101810",
        "u6F9pqnt": "50101811,50101813",
        "P_ACTION_ID": "1",
        "yT1o9jUZ": "2,50:0.03",
        "P_DICTIONARY_NO": "1",
        "P_DICTIONARY_BG": "20010",
        "P_SCHEDULE_ID": "0",
        "P_NEED_SWITCH_INFO": "0",
        "P_HIDE_SWITCH_INFO": "0",
        "P_OPEN_SWITCH_INFO": "0"
    },
    {
        "P_XBB_ID": "300024",
        "P_XBB_NAME": "\u60a0\u4e45\u306e\u30bb\u30e9\u30d5\u30a3\u30ca\u30a4\u30c8",
        "P_XBB_UNIT_IDS": "10:3000424,10:5000424,10:6000424",
        "P_COST_INFO": "3,8000",
        "8NW7zK2A": "3",
        "P_SCRIPT": "-1",
        "P_ICON_ID": "2222",
        "ux6R7ADp": "300024",
        "5jigH1P7": "75",
        "Mz9Lw4Vv": "50101910",
        "u6F9pqnt": "50101911,50101913",
        "P_ACTION_ID": "3",
        "yT1o9jUZ": "2:3:1,20:40:0,4.0:4.0:4.0",
        "P_DICTIONARY_NO": "1",
        "P_DICTIONARY_BG": "20020",
        "P_SCHEDULE_ID": "0",
        "P_NEED_SWITCH_INFO": "0",
        "P_HIDE_SWITCH_INFO": "0",
        "P_OPEN_SWITCH_INFO": "0"
    },
    {
        "P_XBB_ID": "300034",
        "P_XBB_NAME": "\u30c7\u30a3\u30b9\u30bf\u30fc\u30d0\u30f3\u30b9",
        "P_XBB_UNIT_IDS": "10:1000424,10:2000424,10:4000424",
        "P_COST_INFO": "3,7000",
        "8NW7zK2A": "2",
        "P_SCRIPT": "-1",
        "P_ICON_ID": "2222",
        "ux6R7ADp": "300034",
        "5jigH1P7": "80",
        "Mz9Lw4Vv": "50102010",
        "u6F9pqnt": "50102011,50102013",
        "P_ACTION_ID": "1",
        "yT1o9jUZ": "1.8,40:0.05",
        "P_DICTIONARY_NO": "1",
        "P_DICTIONARY_BG": "20030",
        "P_SCHEDULE_ID": "0",
        "P_NEED_SWITCH_INFO": "0",
        "P_HIDE_SWITCH_INFO": "0",
        "P_OPEN_SWITCH_INFO": "0"
    },
    {
        "P_XBB_ID": "300044",
        "P_XBB_NAME": "OPERATION DELTA",
        "P_XBB_UNIT_IDS": "10:5002014,10:5000524,10:6000524",
        "P_COST_INFO": "3,8000",
        "8NW7zK2A": "2",
        "P_SCRIPT": "-1",
        "P_ICON_ID": "2222",
        "ux6R7ADp": "300044",
        "5jigH1P7": "75",
        "Mz9Lw4Vv": "50102110",
        "u6F9pqnt": "50102111,50102113",
        "P_ACTION_ID": "3",
        "yT1o9jUZ": "1:2:3,0:20:40,4.0:4.0:4.0",
        "P_DICTIONARY_NO": "1",
        "P_DICTIONARY_BG": "20040",
        "P_SCHEDULE_ID": "0",
        "P_NEED_SWITCH_INFO": "0",
        "P_HIDE_SWITCH_INFO": "0",
        "P_OPEN_SWITCH_INFO": "0"
    },
    {
        "P_XBB_ID": "300054",
        "P_XBB_NAME": "\u9b54\u88c5\u5175\u5668\u30a2\u30d9\u30eb\u30ac\u30eb\u30b9",
        "P_XBB_UNIT_IDS": "10:1001924,10:3001824,10:4001924",
        "P_COST_INFO": "3,8000",
        "8NW7zK2A": "2",
        "P_SCRIPT": "-1",
        "P_ICON_ID": "2222",
        "ux6R7ADp": "300054",
        "5jigH1P7": "75",
        "Mz9Lw4Vv": "50103410",
        "u6F9pqnt": "50103411",
        "P_ACTION_ID": "2",
        "yT1o9jUZ": "45,3,10:1",
        "P_DICTIONARY_NO": "1",
        "P_DICTIONARY_BG": "20050",
        "P_SCHEDULE_ID": "0",
        "P_NEED_SWITCH_INFO": "0",
        "P_HIDE_SWITCH_INFO": "0",
        "P_OPEN_SWITCH_INFO": "0"
    },
    {
        "P_XBB_ID": "300064",
        "P_XBB_NAME": "\u97ff\u60f3\u306e\u30b5\u30f3\u30af\u30c6\u30a3\u30a2",
        "P_XBB_UNIT_IDS": "10:1003214,10:3003014,10:4002914",
        "P_COST_INFO": "3,10000",
        "8NW7zK2A": "3",
        "P_SCRIPT": "-1",
        "P_ICON_ID": "2222",
        "ux6R7ADp": "300064",
        "5jigH1P7": "80",
        "Mz9Lw4Vv": "50105410",
        "u6F9pqnt": "50105411",
        "P_ACTION_ID": "2",
        "yT1o9jUZ": "45,3,10:1",
        "P_DICTIONARY_NO": "1",
        "P_DICTIONARY_BG": "20060",
        "P_SCHEDULE_ID": "0",
        "P_NEED_SWITCH_INFO": "0",
        "P_HIDE_SWITCH_INFO": "0",
        "P_OPEN_SWITCH_INFO": "0"
    },
    {
        "P_XBB_ID": "300074",
        "P_XBB_NAME": "\u30d0\u30ea\u30a6\u30e9\u306e\u5bbf\u661f",
        "P_XBB_UNIT_IDS": "10:2003114,10:3003214,10:6003714",
        "P_COST_INFO": "3,8000",
        "8NW7zK2A": "2",
        "P_SCRIPT": "-1",
        "P_ICON_ID": "2222",
        "ux6R7ADp": "300074",
        "5jigH1P7": "110",
        "Mz9Lw4Vv": "50106010",
        "u6F9pqnt": "50106011",
        "P_ACTION_ID": "3",
        "yT1o9jUZ": "1:2:3,0:20:40,4.0:4.0:4.0",
        "P_DICTIONARY_NO": "1",
        "P_DICTIONARY_BG": "20070",
        "P_SCHEDULE_ID": "0",
        "P_NEED_SWITCH_INFO": "0",
        "P_HIDE_SWITCH_INFO": "0",
        "P_OPEN_SWITCH_INFO": "0"
    },
    {
        "P_XBB_ID": "300084",
        "P_XBB_NAME": "\u30b8\u30a7\u30cd\u30e9\u30eb\u30fb\u30a6\u30a3\u30fc\u30eb\u30c9",
        "P_XBB_UNIT_IDS": "10:1003314,10:3003314,10:5003814",
        "P_COST_INFO": "3,8000",
        "8NW7zK2A": "2",
        "P_SCRIPT": "-1",
        "P_ICON_ID": "2222",
        "ux6R7ADp": "300084",
        "5jigH1P7": "110",
        "Mz9Lw4Vv": "50106210",
        "u6F9pqnt": "50106211",
        "P_ACTION_ID": "1",
        "yT1o9jUZ": "1.5,20:0.07",
        "P_DICTIONARY_NO": "1",
        "P_DICTIONARY_BG": "20080",
        "P_SCHEDULE_ID": "0",
        "P_NEED_SWITCH_INFO": "0",
        "P_HIDE_SWITCH_INFO": "0",
        "P_OPEN_SWITCH_INFO": "0"
    },
    {
        "P_XBB_ID": "300094",
        "P_XBB_NAME": "\u9707\u5929\u306e\u661f\u589c\u9663",
        "P_XBB_UNIT_IDS": "10:1003424,10:2002724,10:5003224",
        "P_COST_INFO": "3,8000",
        "8NW7zK2A": "2",
        "P_SCRIPT": "-1",
        "P_ICON_ID": "2222",
        "ux6R7ADp": "300094",
        "5jigH1P7": "110",
        "Mz9Lw4Vv": "50106220",
        "u6F9pqnt": "50106221",
        "P_ACTION_ID": "3",
        "yT1o9jUZ": "1:2:3,0:20:40,4.0:4.0:4.0",
        "P_DICTIONARY_NO": "1",
        "P_DICTIONARY_BG": "20090",
        "P_SCHEDULE_ID": "0",
        "P_NEED_SWITCH_INFO": "0",
        "P_HIDE_SWITCH_INFO": "0",
        "P_OPEN_SWITCH_INFO": "0"
    },
    {
        "P_XBB_ID": "300104",
        "P_XBB_NAME": "\u5929\u8ce2\u306e\u5fa1\u65d7\u306b",
        "P_XBB_UNIT_IDS": "10:3002824,10:4002924,10:6002524",
        "P_COST_INFO": "3,8000",
        "8NW7zK2A": "2",
        "P_SCRIPT": "-1",
        "P_ICON_ID": "2222",
        "ux6R7ADp": "300104",
        "5jigH1P7": "110",
        "Mz9Lw4Vv": "50106230",
        "u6F9pqnt": "50106231",
        "P_ACTION_ID": "3",
        "yT1o9jUZ": "1:2:3,0:20:40,4.0:4.0:4.0",
        "P_DICTIONARY_NO": "1",
        "P_DICTIONARY_BG": "20100",
        "P_SCHEDULE_ID": "0",
        "P_NEED_SWITCH_INFO": "0",
        "P_HIDE_SWITCH_INFO": "0",
        "P_OPEN_SWITCH_INFO": "0"
    },
    {
        "P_XBB_ID": "300114",
        "P_XBB_NAME": "\u5fe0\u795e\u3068\u53db\u9006\u3068",
        "P_XBB_UNIT_IDS": "10:5003914,10:5004014,10:6003814",
        "P_COST_INFO": "3,8000",
        "8NW7zK2A": "3",
        "P_SCRIPT": "-1",
        "P_ICON_ID": "2222",
        "ux6R7ADp": "300114",
        "5jigH1P7": "110",
        "Mz9Lw4Vv": "50106240",
        "u6F9pqnt": "50106241",
        "P_ACTION_ID": "1",
        "yT1o9jUZ": "1.5,20:0.07",
        "P_DICTIONARY_NO": "1",
        "P_DICTIONARY_BG": "20110",
        "P_SCHEDULE_ID": "0",
        "P_NEED_SWITCH_INFO": "0",
        "P_HIDE_SWITCH_INFO": "0",
        "P_OPEN_SWITCH_INFO": "0"
    },
    {
        "P_XBB_ID": "400014",
        "P_XBB_NAME": "\u30d1\u30eb\u30df\u30ca\u306e\u8056\u9583",
        "P_XBB_UNIT_IDS": "10:1001914,10:2001714,10:3001714,10:4001814",
        "P_COST_INFO": "3,10000",
        "8NW7zK2A": "1",
        "P_SCRIPT": "-1",
        "P_ICON_ID": "2222",
        "ux6R7ADp": "400014",
        "5jigH1P7": "80",
        "Mz9Lw4Vv": "50102210",
        "u6F9pqnt": "50102211,50102213",
        "P_ACTION_ID": "1",
        "yT1o9jUZ": "1.5,0:0.10",
        "P_DICTIONARY_NO": "1",
        "P_DICTIONARY_BG": "30010",
        "P_SCHEDULE_ID": "0",
        "P_NEED_SWITCH_INFO": "0",
        "P_HIDE_SWITCH_INFO": "0",
        "P_OPEN_SWITCH_INFO": "0"
    },
    {
        "P_XBB_ID": "400024",
        "P_XBB_NAME": "\u30d5\u30a9\u30fc\u30b9\u30fb\u30aa\u30d6\u30fb\u30f4\u30a1\u30a4\u30b6\u30fc",
        "P_XBB_UNIT_IDS": "10:1000124,10:2000124,10:3000124,10:4000124",
        "P_COST_INFO": "3,8000",
        "8NW7zK2A": "2",
        "P_SCRIPT": "-1",
        "P_ICON_ID": "2222",
        "ux6R7ADp": "400024",
        "5jigH1P7": "80",
        "Mz9Lw4Vv": "50102310",
        "u6F9pqnt": "50102311,50102313",
        "P_ACTION_ID": "2",
        "yT1o9jUZ": "85,6,15:1",
        "P_DICTIONARY_NO": "1",
        "P_DICTIONARY_BG": "30020",
        "P_SCHEDULE_ID": "0",
        "P_NEED_SWITCH_INFO": "0",
        "P_HIDE_SWITCH_INFO": "0",
        "P_OPEN_SWITCH_INFO": "0"
    },
    {
        "P_XBB_ID": "400034",
        "P_XBB_NAME": "\u53d7\u3051\u7d99\u304c\u308c\u3057\u714c\u5fd7",
        "P_XBB_UNIT_IDS": "10:1003014,10:5003114,10:1002114,10:4002014",
        "P_COST_INFO": "3,10000",
        "8NW7zK2A": "2",
        "P_SCRIPT": "-1",
        "P_ICON_ID": "2222",
        "ux6R7ADp": "400034",
        "5jigH1P7": "80",
        "Mz9Lw4Vv": "50103510",
        "u6F9pqnt": "50103511,50103513",
        "P_ACTION_ID": "2",
        "yT1o9jUZ": "75,6,15:1",
        "P_DICTIONARY_NO": "1",
        "P_DICTIONARY_BG": "30030",
        "P_SCHEDULE_ID": "0",
        "P_NEED_SWITCH_INFO": "0",
        "P_HIDE_SWITCH_INFO": "0",
        "P_OPEN_SWITCH_INFO": "0"
    },
    {
        "P_XBB_ID": "500014",
        "P_XBB_NAME": "\u300e\u79c1\u306e\u3042\u3068\u306b\u7d9a\u304d\u306a\u3055\u3044\uff01\uff01\u300f",
        "P_XBB_UNIT_IDS": "10:1002014,10:2001814,10:3001814,10:4001914,10:6003114",
        "P_COST_INFO": "3,10000",
        "8NW7zK2A": "2",
        "P_SCRIPT": "-1",
        "P_ICON_ID": "2222",
        "ux6R7ADp": "500014",
        "5jigH1P7": "80",
        "Mz9Lw4Vv": "50102410",
        "u6F9pqnt": "50102411,50102413",
        "P_ACTION_ID": "3",
        "yT1o9jUZ": "2:3:1,20:40:0,4.0:4.0:4.0",
        "P_DICTIONARY_NO": "1",
        "P_DICTIONARY_BG": "40010",
        "P_SCHEDULE_ID": "0",
        "P_NEED_SWITCH_INFO": "0",
        "P_HIDE_SWITCH_INFO": "0",
        "P_OPEN_SWITCH_INFO": "0"
    },
    {
        "P_XBB_ID": "500024",
        "P_XBB_NAME": "\u30b0\u30e9\u30c7\u30a3\u30aa\u30b9\u30fb\u30d5\u30a3\u30cb\u30c3\u30b7\u30e5",
        "P_XBB_UNIT_IDS": "10:1002814,10:2002814,10:3002814,10:4002714,10:5002914",
        "P_COST_INFO": "3,10000",
        "8NW7zK2A": "2",
        "P_SCRIPT": "-1",
        "P_ICON_ID": "2222",
        "ux6R7ADp": "500024",
        "5jigH1P7": "80",
        "Mz9Lw4Vv": "50102510",
        "u6F9pqnt": "50102511,50102513",
        "P_ACTION_ID": "2",
        "yT1o9jUZ": "85,6,12:1",
        "P_DICTIONARY_NO": "1",
        "P_DICTIONARY_BG": "40020",
        "P_SCHEDULE_ID": "0",
        "P_NEED_SWITCH_INFO": "0",
        "P_HIDE_SWITCH_INFO": "0",
        "P_OPEN_SWITCH_INFO": "0"
    },
    {
        "P_XBB_ID": "500034",
        "P_XBB_NAME": "\u30a2\u30eb\u30d0\u30fb\u30bd\u30eb\u30c0\u30fc\u30c9",
        "P_XBB_UNIT_IDS": "10:1001224,10:3001124,10:4001724,10:5001524,10:6001524",
        "P_COST_INFO": "3,10000",
        "8NW7zK2A": "2",
        "P_SCRIPT": "-1",
        "P_ICON_ID": "2222",
        "ux6R7ADp": "500034",
        "5jigH1P7": "80",
        "Mz9Lw4Vv": "50103010",
        "u6F9pqnt": "50103011",
        "P_ACTION_ID": "3",
        "yT1o9jUZ": "1:2:3,0:25:45,4.0:4.0:4.0",
        "P_DICTIONARY_NO": "1",
        "P_DICTIONARY_BG": "40030",
        "P_SCHEDULE_ID": "0",
        "P_NEED_SWITCH_INFO": "0",
        "P_HIDE_SWITCH_INFO": "0",
        "P_OPEN_SWITCH_INFO": "0"
    },
    {
        "P_XBB_ID": "500044",
        "P_XBB_NAME": "\u7a62\u9b42\u306e\u7149\u6b4c",
        "P_XBB_UNIT_IDS": "10:1002624,10:2002224,10:3002324,10:4002424,10:6002124",
        "P_COST_INFO": "3,10000",
        "8NW7zK2A": "2",
        "P_SCRIPT": "-1",
        "P_ICON_ID": "2222",
        "ux6R7ADp": "500044",
        "5jigH1P7": "130",
        "Mz9Lw4Vv": "50105910",
        "u6F9pqnt": "50105911",
        "P_ACTION_ID": "2",
        "yT1o9jUZ": "75,6,15:1",
        "P_DICTIONARY_NO": "1",
        "P_DICTIONARY_BG": "40040",
        "P_SCHEDULE_ID": "0",
        "P_NEED_SWITCH_INFO": "0",
        "P_HIDE_SWITCH_INFO": "0",
        "P_OPEN_SWITCH_INFO": "0"
    },
    {
        "P_XBB_ID": "600014",
        "P_XBB_NAME": "\u516d\u82f1\u5e7b\u661f",
        "P_XBB_UNIT_IDS": "10:1001314,10:2001214,10:3001214,10:4001214,10:5001314,10:6001414",
        "P_COST_INFO": "3,10000",
        "8NW7zK2A": "2",
        "P_SCRIPT": "-1",
        "P_ICON_ID": "2222",
        "ux6R7ADp": "600014",
        "5jigH1P7": "105",
        "Mz9Lw4Vv": "50102610",
        "u6F9pqnt": "50102611,50102613",
        "P_ACTION_ID": "2",
        "yT1o9jUZ": "100,7,15:1",
        "P_DICTIONARY_NO": "1",
        "P_DICTIONARY_BG": "50010",
        "P_SCHEDULE_ID": "0",
        "P_NEED_SWITCH_INFO": "0",
        "P_HIDE_SWITCH_INFO": "0",
        "P_OPEN_SWITCH_INFO": "0"
    },
    {
        "P_XBB_ID": "600024",
        "P_XBB_NAME": "\u30ed\u30fc\u30c9\u30fb\u30c8\u30a5\u30fb\u30a8\u30eb\u30ac\u30a4\u30a2",
        "P_XBB_UNIT_IDS": "10:1002114,10:2002014,10:3002014,10:4002014,10:5002114,10:6002314",
        "P_COST_INFO": "3,8000",
        "8NW7zK2A": "2",
        "P_SCRIPT": "-1",
        "P_ICON_ID": "2222",
        "ux6R7ADp": "600024",
        "5jigH1P7": "80",
        "Mz9Lw4Vv": "50102710",
        "u6F9pqnt": "50102711,50102713",
        "P_ACTION_ID": "3",
        "yT1o9jUZ": "3:2:1,40:20:0,4.0:4.0:4.0",
        "P_DICTIONARY_NO": "1",
        "P_DICTIONARY_BG": "50020",
        "P_SCHEDULE_ID": "0",
        "P_NEED_SWITCH_INFO": "0",
        "P_HIDE_SWITCH_INFO": "0",
        "P_OPEN_SWITCH_INFO": "0"
    },
    {
        "P_XBB_ID": "600034",
        "P_XBB_NAME": "\u52c7\u5bb6\u306e\u56e3\u6b12",
        "P_XBB_UNIT_IDS": "10:1000324,10:2000324,10:3000324,10:4000324,10:5000324,10:6000324",
        "P_COST_INFO": "3,10000",
        "8NW7zK2A": "2",
        "P_SCRIPT": "-1",
        "P_ICON_ID": "2222",
        "ux6R7ADp": "600034",
        "5jigH1P7": "80",
        "Mz9Lw4Vv": "50102810",
        "u6F9pqnt": "50102811,50102813",
        "P_ACTION_ID": "3",
        "yT1o9jUZ": "1:2:3,0:20:40,4.0:4.0:4.0",
        "P_DICTIONARY_NO": "1",
        "P_DICTIONARY_BG": "50030",
        "P_SCHEDULE_ID": "0",
        "P_NEED_SWITCH_INFO": "0",
        "P_HIDE_SWITCH_INFO": "0",
        "P_OPEN_SWITCH_INFO": "0"
    },
    {
        "P_XBB_ID": "600040",
        "P_XBB_NAME": "\u30aa\u30fc\u30eb\u30b9\u30bf\u30fc\u30a2\u30bf\u30c3\u30af",
        "P_XBB_UNIT_IDS": "10:1002210,10:2002110,10:3002110,10:4002110,10:5002210,10:6002410",
        "P_COST_INFO": "3,6000",
        "8NW7zK2A": "2",
        "P_SCRIPT": "-1",
        "P_ICON_ID": "2222",
        "ux6R7ADp": "600040",
        "5jigH1P7": "80",
        "Mz9Lw4Vv": "50102910",
        "u6F9pqnt": "50102911,50102913",
        "P_ACTION_ID": "2",
        "yT1o9jUZ": "150,10,10:1",
        "P_DICTIONARY_NO": "1",
        "P_DICTIONARY_BG": "50040",
        "P_SCHEDULE_ID": "0",
        "P_NEED_SWITCH_INFO": "0",
        "P_HIDE_SWITCH_INFO": "0",
        "P_OPEN_SWITCH_INFO": "0"
    },
    {
        "P_XBB_ID": "600054",
        "P_XBB_NAME": "\u30e9\u30a4\u30c7\u30f3\u30ad\u30e7\u30a6\u30ea\u30e5\u30a6\u30b8\u30f3",
        "P_XBB_UNIT_IDS": "10:1001824,10:2001424,10:3001524,10:4001824,10:5001624,10:6001624",
        "P_COST_INFO": "3,10000",
        "8NW7zK2A": "2",
        "P_SCRIPT": "-1",
        "P_ICON_ID": "2222",
        "ux6R7ADp": "600054",
        "5jigH1P7": "80",
        "Mz9Lw4Vv": "50103110",
        "u6F9pqnt": "50103111,50103113",
        "P_ACTION_ID": "1",
        "yT1o9jUZ": "1.5,20:0.07",
        "P_DICTIONARY_NO": "1",
        "P_DICTIONARY_BG": "50050",
        "P_SCHEDULE_ID": "0",
        "P_NEED_SWITCH_INFO": "0",
        "P_HIDE_SWITCH_INFO": "0",
        "P_OPEN_SWITCH_INFO": "0"
    },
    {
        "P_XBB_ID": "600064",
        "P_XBB_NAME": "\u516d\u7363\u96fb\u30d3\u30af\u30c8\u30ea\u30fc\u30de\u30ad\u30b7\u30de\u30e0\u30d5\u30a3\u30cb\u30c3\u30b7\u30e5",
        "P_XBB_UNIT_IDS": "10:1101824,10:2001424,10:3001524,10:4001824,10:5001624,10:6001624",
        "P_COST_INFO": "3,10000",
        "8NW7zK2A": "2",
        "P_SCRIPT": "-1",
        "P_ICON_ID": "2222",
        "ux6R7ADp": "600064",
        "5jigH1P7": "80",
        "Mz9Lw4Vv": "50103210",
        "u6F9pqnt": "50103211,50103213",
        "P_ACTION_ID": "2",
        "yT1o9jUZ": "65,6,15:1",
        "P_DICTIONARY_NO": "1",
        "P_DICTIONARY_BG": "50060",
        "P_SCHEDULE_ID": "0",
        "P_NEED_SWITCH_INFO": "0",
        "P_HIDE_SWITCH_INFO": "0",
        "P_OPEN_SWITCH_INFO": "0"
    },
    {
        "P_XBB_ID": "1010101",
        "P_XBB_NAME": "\u30b0\u30a8\u30f3\u30d5\u30a1\u30f3\u30b0",
        "P_XBB_UNIT_IDS": "12:101",
        "P_COST_INFO": "1,1",
        "8NW7zK2A": "1",
        "P_SCRIPT": "-1",
        "P_ICON_ID": "2222",
        "ux6R7ADp": "200014",
        "5jigH1P7": "80",
        "Mz9Lw4Vv": "50100011",
        "u6F9pqnt": ",50100013",
        "P_ACTION_ID": "0",
        "yT1o9jUZ": "",
        "P_DICTIONARY_NO": "0",
        "P_DICTIONARY_BG": "6",
        "P_SCHEDULE_ID": "0",
        "P_NEED_SWITCH_INFO": "0",
        "P_HIDE_SWITCH_INFO": "0",
        "P_OPEN_SWITCH_INFO": "0"
    },
    {
        "P_XBB_ID": "1010102",
        "P_XBB_NAME": "\u30b0\u30a8\u30f3\u30d5\u30a1\u30f3\u30b0",
        "P_XBB_UNIT_IDS": "12:101",
        "P_COST_INFO": "1,1",
        "8NW7zK2A": "1",
        "P_SCRIPT": "-1",
        "P_ICON_ID": "2222",
        "ux6R7ADp": "200014",
        "5jigH1P7": "80",
        "Mz9Lw4Vv": "50100011",
        "u6F9pqnt": ",50100013",
        "P_ACTION_ID": "0",
        "yT1o9jUZ": "",
        "P_DICTIONARY_NO": "0",
        "P_DICTIONARY_BG": "7",
        "P_SCHEDULE_ID": "0",
        "P_NEED_SWITCH_INFO": "0",
        "P_HIDE_SWITCH_INFO": "0",
        "P_OPEN_SWITCH_INFO": "0"
    },
    {
        "P_XBB_ID": "1010103",
        "P_XBB_NAME": "\u30b0\u30a8\u30f3\u30d5\u30a1\u30f3\u30b0",
        "P_XBB_UNIT_IDS": "12:101",
        "P_COST_INFO": "1,1",
        "8NW7zK2A": "1",
        "P_SCRIPT": "-1",
        "P_ICON_ID": "2222",
        "ux6R7ADp": "200014",
        "5jigH1P7": "80",
        "Mz9Lw4Vv": "50100011",
        "u6F9pqnt": ",50100013",
        "P_ACTION_ID": "0",
        "yT1o9jUZ": "",
        "P_DICTIONARY_NO": "0",
        "P_DICTIONARY_BG": "8",
        "P_SCHEDULE_ID": "0",
        "P_NEED_SWITCH_INFO": "0",
        "P_HIDE_SWITCH_INFO": "0",
        "P_OPEN_SWITCH_INFO": "0"
    },
    {
        "P_XBB_ID": "1010104",
        "P_XBB_NAME": "\u30b0\u30a8\u30f3\u30d5\u30a1\u30f3\u30b0",
        "P_XBB_UNIT_IDS": "12:101",
        "P_COST_INFO": "1,1",
        "8NW7zK2A": "1",
        "P_SCRIPT": "-1",
        "P_ICON_ID": "2222",
        "ux6R7ADp": "200014",
        "5jigH1P7": "80",
        "Mz9Lw4Vv": "50100011",
        "u6F9pqnt": ",50100013",
        "P_ACTION_ID": "0",
        "yT1o9jUZ": "",
        "P_DICTIONARY_NO": "0",
        "P_DICTIONARY_BG": "8",
        "P_SCHEDULE_ID": "0",
        "P_NEED_SWITCH_INFO": "0",
        "P_HIDE_SWITCH_INFO": "0",
        "P_OPEN_SWITCH_INFO": "0"
    },
    {
        "P_XBB_ID": "1010105",
        "P_XBB_NAME": "\u30b0\u30a8\u30f3\u30d5\u30a1\u30f3\u30b0",
        "P_XBB_UNIT_IDS": "12:101",
        "P_COST_INFO": "1,1",
        "8NW7zK2A": "1",
        "P_SCRIPT": "-1",
        "P_ICON_ID": "2222",
        "ux6R7ADp": "200014",
        "5jigH1P7": "80",
        "Mz9Lw4Vv": "50100011",
        "u6F9pqnt": ",50100013",
        "P_ACTION_ID": "0",
        "yT1o9jUZ": "",
        "P_DICTIONARY_NO": "0",
        "P_DICTIONARY_BG": "8",
        "P_SCHEDULE_ID": "0",
        "P_NEED_SWITCH_INFO": "0",
        "P_HIDE_SWITCH_INFO": "0",
        "P_OPEN_SWITCH_INFO": "0"
    },
    {
        "P_XBB_ID": "1010106",
        "P_XBB_NAME": "\u30b0\u30a8\u30f3\u30d5\u30a1\u30f3\u30b0",
        "P_XBB_UNIT_IDS": "12:101",
        "P_COST_INFO": "1,1",
        "8NW7zK2A": "1",
        "P_SCRIPT": "-1",
        "P_ICON_ID": "2222",
        "ux6R7ADp": "200014",
        "5jigH1P7": "80",
        "Mz9Lw4Vv": "50100011",
        "u6F9pqnt": ",50100013",
        "P_ACTION_ID": "0",
        "yT1o9jUZ": "",
        "P_DICTIONARY_NO": "0",
        "P_DICTIONARY_BG": "8",
        "P_SCHEDULE_ID": "0",
        "P_NEED_SWITCH_INFO": "0",
        "P_HIDE_SWITCH_INFO": "0",
        "P_OPEN_SWITCH_INFO": "0"
    },
    {
        "P_XBB_ID": "1020101",
        "P_XBB_NAME": "\u30a2\u30b5\u30eb\u30c8\u30d6\u30ec\u30a4\u30ba",
        "P_XBB_UNIT_IDS": "12:102",
        "P_COST_INFO": "1,1",
        "8NW7zK2A": "1",
        "P_SCRIPT": "-1",
        "P_ICON_ID": "2222",
        "ux6R7ADp": "200014",
        "5jigH1P7": "80",
        "Mz9Lw4Vv": "50100011",
        "u6F9pqnt": ",50100013",
        "P_ACTION_ID": "0",
        "yT1o9jUZ": "",
        "P_DICTIONARY_NO": "0",
        "P_DICTIONARY_BG": "8",
        "P_SCHEDULE_ID": "0",
        "P_NEED_SWITCH_INFO": "0",
        "P_HIDE_SWITCH_INFO": "0",
        "P_OPEN_SWITCH_INFO": "0"
    },
    {
        "P_XBB_ID": "1020102",
        "P_XBB_NAME": "\u30a2\u30b5\u30eb\u30c8\u30d6\u30ec\u30a4\u30ba",
        "P_XBB_UNIT_IDS": "12:102",
        "P_COST_INFO": "1,1",
        "8NW7zK2A": "1",
        "P_SCRIPT": "-1",
        "P_ICON_ID": "2222",
        "ux6R7ADp": "200014",
        "5jigH1P7": "80",
        "Mz9Lw4Vv": "50100011",
        "u6F9pqnt": ",50100013",
        "P_ACTION_ID": "0",
        "yT1o9jUZ": "",
        "P_DICTIONARY_NO": "0",
        "P_DICTIONARY_BG": "8",
        "P_SCHEDULE_ID": "0",
        "P_NEED_SWITCH_INFO": "0",
        "P_HIDE_SWITCH_INFO": "0",
        "P_OPEN_SWITCH_INFO": "0"
    },
    {
        "P_XBB_ID": "1020103",
        "P_XBB_NAME": "\u30a2\u30b5\u30eb\u30c8\u30d6\u30ec\u30a4\u30ba",
        "P_XBB_UNIT_IDS": "12:102",
        "P_COST_INFO": "1,1",
        "8NW7zK2A": "1",
        "P_SCRIPT": "-1",
        "P_ICON_ID": "2222",
        "ux6R7ADp": "200014",
        "5jigH1P7": "80",
        "Mz9Lw4Vv": "50100011",
        "u6F9pqnt": ",50100013",
        "P_ACTION_ID": "0",
        "yT1o9jUZ": "",
        "P_DICTIONARY_NO": "0",
        "P_DICTIONARY_BG": "8",
        "P_SCHEDULE_ID": "0",
        "P_NEED_SWITCH_INFO": "0",
        "P_HIDE_SWITCH_INFO": "0",
        "P_OPEN_SWITCH_INFO": "0"
    },
    {
        "P_XBB_ID": "1020104",
        "P_XBB_NAME": "\u30a2\u30b5\u30eb\u30c8\u30d6\u30ec\u30a4\u30ba",
        "P_XBB_UNIT_IDS": "12:102",
        "P_COST_INFO": "1,1",
        "8NW7zK2A": "1",
        "P_SCRIPT": "-1",
        "P_ICON_ID": "2222",
        "ux6R7ADp": "200014",
        "5jigH1P7": "80",
        "Mz9Lw4Vv": "50100011",
        "u6F9pqnt": ",50100013",
        "P_ACTION_ID": "0",
        "yT1o9jUZ": "",
        "P_DICTIONARY_NO": "0",
        "P_DICTIONARY_BG": "8",
        "P_SCHEDULE_ID": "0",
        "P_NEED_SWITCH_INFO": "0",
        "P_HIDE_SWITCH_INFO": "0",
        "P_OPEN_SWITCH_INFO": "0"
    },
    {
        "P_XBB_ID": "1020105",
        "P_XBB_NAME": "\u30a2\u30b5\u30eb\u30c8\u30d6\u30ec\u30a4\u30ba",
        "P_XBB_UNIT_IDS": "12:102",
        "P_COST_INFO": "1,1",
        "8NW7zK2A": "1",
        "P_SCRIPT": "-1",
        "P_ICON_ID": "2222",
        "ux6R7ADp": "200014",
        "5jigH1P7": "80",
        "Mz9Lw4Vv": "50100011",
        "u6F9pqnt": ",50100013",
        "P_ACTION_ID": "0",
        "yT1o9jUZ": "",
        "P_DICTIONARY_NO": "0",
        "P_DICTIONARY_BG": "8",
        "P_SCHEDULE_ID": "0",
        "P_NEED_SWITCH_INFO": "0",
        "P_HIDE_SWITCH_INFO": "0",
        "P_OPEN_SWITCH_INFO": "0"
    },
    {
        "P_XBB_ID": "1020106",
        "P_XBB_NAME": "\u30a2\u30b5\u30eb\u30c8\u30d6\u30ec\u30a4\u30ba",
        "P_XBB_UNIT_IDS": "12:102",
        "P_COST_INFO": "1,1",
        "8NW7zK2A": "1",
        "P_SCRIPT": "-1",
        "P_ICON_ID": "2222",
        "ux6R7ADp": "200014",
        "5jigH1P7": "80",
        "Mz9Lw4Vv": "50100011",
        "u6F9pqnt": ",50100013",
        "P_ACTION_ID": "0",
        "yT1o9jUZ": "",
        "P_DICTIONARY_NO": "0",
        "P_DICTIONARY_BG": "8",
        "P_SCHEDULE_ID": "0",
        "P_NEED_SWITCH_INFO": "0",
        "P_HIDE_SWITCH_INFO": "0",
        "P_OPEN_SWITCH_INFO": "0"
    },
    {
        "P_XBB_ID": "1020201",
        "P_XBB_NAME": "\u30af\u30e9\u30fc\u30b8\u30e5\u30d5\u30e9\u30e0",
        "P_XBB_UNIT_IDS": "12:102",
        "P_COST_INFO": "1,1",
        "8NW7zK2A": "1",
        "P_SCRIPT": "-1",
        "P_ICON_ID": "2222",
        "ux6R7ADp": "200014",
        "5jigH1P7": "80",
        "Mz9Lw4Vv": "50100011",
        "u6F9pqnt": ",50100013",
        "P_ACTION_ID": "0",
        "yT1o9jUZ": "",
        "P_DICTIONARY_NO": "0",
        "P_DICTIONARY_BG": "8",
        "P_SCHEDULE_ID": "0",
        "P_NEED_SWITCH_INFO": "0",
        "P_HIDE_SWITCH_INFO": "0",
        "P_OPEN_SWITCH_INFO": "0"
    },
    {
        "P_XBB_ID": "1020202",
        "P_XBB_NAME": "\u30af\u30e9\u30fc\u30b8\u30e5\u30d5\u30e9\u30e0",
        "P_XBB_UNIT_IDS": "12:102",
        "P_COST_INFO": "1,1",
        "8NW7zK2A": "1",
        "P_SCRIPT": "-1",
        "P_ICON_ID": "2222",
        "ux6R7ADp": "200014",
        "5jigH1P7": "80",
        "Mz9Lw4Vv": "50100011",
        "u6F9pqnt": ",50100013",
        "P_ACTION_ID": "0",
        "yT1o9jUZ": "",
        "P_DICTIONARY_NO": "0",
        "P_DICTIONARY_BG": "8",
        "P_SCHEDULE_ID": "0",
        "P_NEED_SWITCH_INFO": "0",
        "P_HIDE_SWITCH_INFO": "0",
        "P_OPEN_SWITCH_INFO": "0"
    },
    {
        "P_XBB_ID": "1020203",
        "P_XBB_NAME": "\u30af\u30e9\u30fc\u30b8\u30e5\u30d5\u30e9\u30e0",
        "P_XBB_UNIT_IDS": "12:102",
        "P_COST_INFO": "1,1",
        "8NW7zK2A": "1",
        "P_SCRIPT": "-1",
        "P_ICON_ID": "2222",
        "ux6R7ADp": "200014",
        "5jigH1P7": "80",
        "Mz9Lw4Vv": "50100011",
        "u6F9pqnt": ",50100013",
        "P_ACTION_ID": "0",
        "yT1o9jUZ": "",
        "P_DICTIONARY_NO": "0",
        "P_DICTIONARY_BG": "8",
        "P_SCHEDULE_ID": "0",
        "P_NEED_SWITCH_INFO": "0",
        "P_HIDE_SWITCH_INFO": "0",
        "P_OPEN_SWITCH_INFO": "0"
    },
    {
        "P_XBB_ID": "1020204",
        "P_XBB_NAME": "\u30af\u30e9\u30fc\u30b8\u30e5\u30d5\u30e9\u30e0",
        "P_XBB_UNIT_IDS": "12:102",
        "P_COST_INFO": "1,1",
        "8NW7zK2A": "1",
        "P_SCRIPT": "-1",
        "P_ICON_ID": "2222",
        "ux6R7ADp": "200014",
        "5jigH1P7": "80",
        "Mz9Lw4Vv": "50100011",
        "u6F9pqnt": ",50100013",
        "P_ACTION_ID": "0",
        "yT1o9jUZ": "",
        "P_DICTIONARY_NO": "0",
        "P_DICTIONARY_BG": "8",
        "P_SCHEDULE_ID": "0",
        "P_NEED_SWITCH_INFO": "0",
        "P_HIDE_SWITCH_INFO": "0",
        "P_OPEN_SWITCH_INFO": "0"
    },
    {
        "P_XBB_ID": "1020205",
        "P_XBB_NAME": "\u30af\u30e9\u30fc\u30b8\u30e5\u30d5\u30e9\u30e0",
        "P_XBB_UNIT_IDS": "12:102",
        "P_COST_INFO": "1,1",
        "8NW7zK2A": "1",
        "P_SCRIPT": "-1",
        "P_ICON_ID": "2222",
        "ux6R7ADp": "200014",
        "5jigH1P7": "80",
        "Mz9Lw4Vv": "50100011",
        "u6F9pqnt": ",50100013",
        "P_ACTION_ID": "0",
        "yT1o9jUZ": "",
        "P_DICTIONARY_NO": "0",
        "P_DICTIONARY_BG": "8",
        "P_SCHEDULE_ID": "0",
        "P_NEED_SWITCH_INFO": "0",
        "P_HIDE_SWITCH_INFO": "0",
        "P_OPEN_SWITCH_INFO": "0"
    },
    {
        "P_XBB_ID": "1020206",
        "P_XBB_NAME": "\u30af\u30e9\u30fc\u30b8\u30e5\u30d5\u30e9\u30e0",
        "P_XBB_UNIT_IDS": "12:102",
        "P_COST_INFO": "1,1",
        "8NW7zK2A": "1",
        "P_SCRIPT": "-1",
        "P_ICON_ID": "2222",
        "ux6R7ADp": "200014",
        "5jigH1P7": "80",
        "Mz9Lw4Vv": "50100011",
        "u6F9pqnt": ",50100013",
        "P_ACTION_ID": "0",
        "yT1o9jUZ": "",
        "P_DICTIONARY_NO": "0",
        "P_DICTIONARY_BG": "8",
        "P_SCHEDULE_ID": "0",
        "P_NEED_SWITCH_INFO": "0",
        "P_HIDE_SWITCH_INFO": "0",
        "P_OPEN_SWITCH_INFO": "0"
    },
    {
        "P_XBB_ID": "1030101",
        "P_XBB_NAME": "\u30d5\u30e9\u30c3\u30b7\u30e5\u30d6\u30ec\u30a4\u30ba",
        "P_XBB_UNIT_IDS": "12:103",
        "P_COST_INFO": "1,1",
        "8NW7zK2A": "1",
        "P_SCRIPT": "-1",
        "P_ICON_ID": "2222",
        "ux6R7ADp": "200014",
        "5jigH1P7": "80",
        "Mz9Lw4Vv": "50100011",
        "u6F9pqnt": ",50100013",
        "P_ACTION_ID": "0",
        "yT1o9jUZ": "",
        "P_DICTIONARY_NO": "0",
        "P_DICTIONARY_BG": "8",
        "P_SCHEDULE_ID": "0",
        "P_NEED_SWITCH_INFO": "0",
        "P_HIDE_SWITCH_INFO": "0",
        "P_OPEN_SWITCH_INFO": "0"
    },
    {
        "P_XBB_ID": "1030102",
        "P_XBB_NAME": "\u30d5\u30e9\u30c3\u30b7\u30e5\u30d6\u30ec\u30a4\u30ba",
        "P_XBB_UNIT_IDS": "12:103",
        "P_COST_INFO": "1,1",
        "8NW7zK2A": "1",
        "P_SCRIPT": "-1",
        "P_ICON_ID": "2222",
        "ux6R7ADp": "200014",
        "5jigH1P7": "80",
        "Mz9Lw4Vv": "50100011",
        "u6F9pqnt": ",50100013",
        "P_ACTION_ID": "0",
        "yT1o9jUZ": "",
        "P_DICTIONARY_NO": "0",
        "P_DICTIONARY_BG": "8",
        "P_SCHEDULE_ID": "0",
        "P_NEED_SWITCH_INFO": "0",
        "P_HIDE_SWITCH_INFO": "0",
        "P_OPEN_SWITCH_INFO": "0"
    },
    {
        "P_XBB_ID": "1030103",
        "P_XBB_NAME": "\u30d5\u30e9\u30c3\u30b7\u30e5\u30d6\u30ec\u30a4\u30ba",
        "P_XBB_UNIT_IDS": "12:103",
        "P_COST_INFO": "1,1",
        "8NW7zK2A": "1",
        "P_SCRIPT": "-1",
        "P_ICON_ID": "2222",
        "ux6R7ADp": "200014",
        "5jigH1P7": "80",
        "Mz9Lw4Vv": "50100011",
        "u6F9pqnt": ",50100013",
        "P_ACTION_ID": "0",
        "yT1o9jUZ": "",
        "P_DICTIONARY_NO": "0",
        "P_DICTIONARY_BG": "8",
        "P_SCHEDULE_ID": "0",
        "P_NEED_SWITCH_INFO": "0",
        "P_HIDE_SWITCH_INFO": "0",
        "P_OPEN_SWITCH_INFO": "0"
    },
    {
        "P_XBB_ID": "1030104",
        "P_XBB_NAME": "\u30d5\u30e9\u30c3\u30b7\u30e5\u30d6\u30ec\u30a4\u30ba",
        "P_XBB_UNIT_IDS": "12:103",
        "P_COST_INFO": "1,1",
        "8NW7zK2A": "1",
        "P_SCRIPT": "-1",
        "P_ICON_ID": "2222",
        "ux6R7ADp": "200014",
        "5jigH1P7": "80",
        "Mz9Lw4Vv": "50100011",
        "u6F9pqnt": ",50100013",
        "P_ACTION_ID": "0",
        "yT1o9jUZ": "",
        "P_DICTIONARY_NO": "0",
        "P_DICTIONARY_BG": "8",
        "P_SCHEDULE_ID": "0",
        "P_NEED_SWITCH_INFO": "0",
        "P_HIDE_SWITCH_INFO": "0",
        "P_OPEN_SWITCH_INFO": "0"
    },
    {
        "P_XBB_ID": "1030105",
        "P_XBB_NAME": "\u30d5\u30e9\u30c3\u30b7\u30e5\u30d6\u30ec\u30a4\u30ba",
        "P_XBB_UNIT_IDS": "12:103",
        "P_COST_INFO": "1,1",
        "8NW7zK2A": "1",
        "P_SCRIPT": "-1",
        "P_ICON_ID": "2222",
        "ux6R7ADp": "200014",
        "5jigH1P7": "80",
        "Mz9Lw4Vv": "50100011",
        "u6F9pqnt": ",50100013",
        "P_ACTION_ID": "0",
        "yT1o9jUZ": "",
        "P_DICTIONARY_NO": "0",
        "P_DICTIONARY_BG": "8",
        "P_SCHEDULE_ID": "0",
        "P_NEED_SWITCH_INFO": "0",
        "P_HIDE_SWITCH_INFO": "0",
        "P_OPEN_SWITCH_INFO": "0"
    },
    {
        "P_XBB_ID": "1030106",
        "P_XBB_NAME": "\u30d5\u30e9\u30c3\u30b7\u30e5\u30d6\u30ec\u30a4\u30ba",
        "P_XBB_UNIT_IDS": "12:103",
        "P_COST_INFO": "1,1",
        "8NW7zK2A": "1",
        "P_SCRIPT": "-1",
        "P_ICON_ID": "2222",
        "ux6R7ADp": "200014",
        "5jigH1P7": "80",
        "Mz9Lw4Vv": "50100011",
        "u6F9pqnt": ",50100013",
        "P_ACTION_ID": "0",
        "yT1o9jUZ": "",
        "P_DICTIONARY_NO": "0",
        "P_DICTIONARY_BG": "8",
        "P_SCHEDULE_ID": "0",
        "P_NEED_SWITCH_INFO": "0",
        "P_HIDE_SWITCH_INFO": "0",
        "P_OPEN_SWITCH_INFO": "0"
    },
    {
        "P_XBB_ID": "1030201",
        "P_XBB_NAME": "\u30b0\u30ec\u30fc\u30c8\u30d5\u30e9\u30e0",
        "P_XBB_UNIT_IDS": "12:103",
        "P_COST_INFO": "1,1",
        "8NW7zK2A": "1",
        "P_SCRIPT": "-1",
        "P_ICON_ID": "2222",
        "ux6R7ADp": "200014",
        "5jigH1P7": "80",
        "Mz9Lw4Vv": "50100011",
        "u6F9pqnt": ",50100013",
        "P_ACTION_ID": "0",
        "yT1o9jUZ": "",
        "P_DICTIONARY_NO": "0",
        "P_DICTIONARY_BG": "8",
        "P_SCHEDULE_ID": "0",
        "P_NEED_SWITCH_INFO": "0",
        "P_HIDE_SWITCH_INFO": "0",
        "P_OPEN_SWITCH_INFO": "0"
    },
    {
        "P_XBB_ID": "1030202",
        "P_XBB_NAME": "\u30b0\u30ec\u30fc\u30c8\u30d5\u30e9\u30e0",
        "P_XBB_UNIT_IDS": "12:103",
        "P_COST_INFO": "1,1",
        "8NW7zK2A": "1",
        "P_SCRIPT": "-1",
        "P_ICON_ID": "2222",
        "ux6R7ADp": "200014",
        "5jigH1P7": "80",
        "Mz9Lw4Vv": "50100011",
        "u6F9pqnt": ",50100013",
        "P_ACTION_ID": "0",
        "yT1o9jUZ": "",
        "P_DICTIONARY_NO": "0",
        "P_DICTIONARY_BG": "8",
        "P_SCHEDULE_ID": "0",
        "P_NEED_SWITCH_INFO": "0",
        "P_HIDE_SWITCH_INFO": "0",
        "P_OPEN_SWITCH_INFO": "0"
    },
    {
        "P_XBB_ID": "1030203",
        "P_XBB_NAME": "\u30b0\u30ec\u30fc\u30c8\u30d5\u30e9\u30e0",
        "P_XBB_UNIT_IDS": "12:103",
        "P_COST_INFO": "1,1",
        "8NW7zK2A": "1",
        "P_SCRIPT": "-1",
        "P_ICON_ID": "2222",
        "ux6R7ADp": "200014",
        "5jigH1P7": "80",
        "Mz9Lw4Vv": "50100011",
        "u6F9pqnt": ",50100013",
        "P_ACTION_ID": "0",
        "yT1o9jUZ": "",
        "P_DICTIONARY_NO": "0",
        "P_DICTIONARY_BG": "8",
        "P_SCHEDULE_ID": "0",
        "P_NEED_SWITCH_INFO": "0",
        "P_HIDE_SWITCH_INFO": "0",
        "P_OPEN_SWITCH_INFO": "0"
    },
    {
        "P_XBB_ID": "1030204",
        "P_XBB_NAME": "\u30b0\u30ec\u30fc\u30c8\u30d5\u30e9\u30e0",
        "P_XBB_UNIT_IDS": "12:103",
        "P_COST_INFO": "1,1",
        "8NW7zK2A": "1",
        "P_SCRIPT": "-1",
        "P_ICON_ID": "2222",
        "ux6R7ADp": "200014",
        "5jigH1P7": "80",
        "Mz9Lw4Vv": "50100011",
        "u6F9pqnt": ",50100013",
        "P_ACTION_ID": "0",
        "yT1o9jUZ": "",
        "P_DICTIONARY_NO": "0",
        "P_DICTIONARY_BG": "8",
        "P_SCHEDULE_ID": "0",
        "P_NEED_SWITCH_INFO": "0",
        "P_HIDE_SWITCH_INFO": "0",
        "P_OPEN_SWITCH_INFO": "0"
    },
    {
        "P_XBB_ID": "1030205",
        "P_XBB_NAME": "\u30b0\u30ec\u30fc\u30c8\u30d5\u30e9\u30e0",
        "P_XBB_UNIT_IDS": "12:103",
        "P_COST_INFO": "1,1",
        "8NW7zK2A": "1",
        "P_SCRIPT": "-1",
        "P_ICON_ID": "2222",
        "ux6R7ADp": "200014",
        "5jigH1P7": "80",
        "Mz9Lw4Vv": "50100011",
        "u6F9pqnt": ",50100013",
        "P_ACTION_ID": "0",
        "yT1o9jUZ": "",
        "P_DICTIONARY_NO": "0",
        "P_DICTIONARY_BG": "8",
        "P_SCHEDULE_ID": "0",
        "P_NEED_SWITCH_INFO": "0",
        "P_HIDE_SWITCH_INFO": "0",
        "P_OPEN_SWITCH_INFO": "0"
    },
    {
        "P_XBB_ID": "1030206",
        "P_XBB_NAME": "\u30b0\u30ec\u30fc\u30c8\u30d5\u30e9\u30e0",
        "P_XBB_UNIT_IDS": "12:103",
        "P_COST_INFO": "1,1",
        "8NW7zK2A": "1",
        "P_SCRIPT": "-1",
        "P_ICON_ID": "2222",
        "ux6R7ADp": "200014",
        "5jigH1P7": "80",
        "Mz9Lw4Vv": "50100011",
        "u6F9pqnt": ",50100013",
        "P_ACTION_ID": "0",
        "yT1o9jUZ": "",
        "P_DICTIONARY_NO": "0",
        "P_DICTIONARY_BG": "8",
        "P_SCHEDULE_ID": "0",
        "P_NEED_SWITCH_INFO": "0",
        "P_HIDE_SWITCH_INFO": "0",
        "P_OPEN_SWITCH_INFO": "0"
    },
    {
        "P_XBB_ID": "1030301",
        "P_XBB_NAME": "\u30db\u30fc\u30ea\u30fc\u30c9\u30df\u30cb\u30aa\u30f3",
        "P_XBB_UNIT_IDS": "12:103",
        "P_COST_INFO": "1,1",
        "8NW7zK2A": "1",
        "P_SCRIPT": "-1",
        "P_ICON_ID": "2222",
        "ux6R7ADp": "200014",
        "5jigH1P7": "80",
        "Mz9Lw4Vv": "50100011",
        "u6F9pqnt": ",50100013",
        "P_ACTION_ID": "0",
        "yT1o9jUZ": "",
        "P_DICTIONARY_NO": "0",
        "P_DICTIONARY_BG": "8",
        "P_SCHEDULE_ID": "0",
        "P_NEED_SWITCH_INFO": "0",
        "P_HIDE_SWITCH_INFO": "0",
        "P_OPEN_SWITCH_INFO": "0"
    },
    {
        "P_XBB_ID": "1030302",
        "P_XBB_NAME": "\u30db\u30fc\u30ea\u30fc\u30c9\u30df\u30cb\u30aa\u30f3",
        "P_XBB_UNIT_IDS": "12:103",
        "P_COST_INFO": "1,1",
        "8NW7zK2A": "1",
        "P_SCRIPT": "-1",
        "P_ICON_ID": "2222",
        "ux6R7ADp": "200014",
        "5jigH1P7": "80",
        "Mz9Lw4Vv": "50100011",
        "u6F9pqnt": ",50100013",
        "P_ACTION_ID": "0",
        "yT1o9jUZ": "",
        "P_DICTIONARY_NO": "0",
        "P_DICTIONARY_BG": "8",
        "P_SCHEDULE_ID": "0",
        "P_NEED_SWITCH_INFO": "0",
        "P_HIDE_SWITCH_INFO": "0",
        "P_OPEN_SWITCH_INFO": "0"
    },
    {
        "P_XBB_ID": "1030303",
        "P_XBB_NAME": "\u30db\u30fc\u30ea\u30fc\u30c9\u30df\u30cb\u30aa\u30f3",
        "P_XBB_UNIT_IDS": "12:103",
        "P_COST_INFO": "1,1",
        "8NW7zK2A": "1",
        "P_SCRIPT": "-1",
        "P_ICON_ID": "2222",
        "ux6R7ADp": "200014",
        "5jigH1P7": "80",
        "Mz9Lw4Vv": "50100011",
        "u6F9pqnt": ",50100013",
        "P_ACTION_ID": "0",
        "yT1o9jUZ": "",
        "P_DICTIONARY_NO": "0",
        "P_DICTIONARY_BG": "8",
        "P_SCHEDULE_ID": "0",
        "P_NEED_SWITCH_INFO": "0",
        "P_HIDE_SWITCH_INFO": "0",
        "P_OPEN_SWITCH_INFO": "0"
    },
    {
        "P_XBB_ID": "1030304",
        "P_XBB_NAME": "\u30db\u30fc\u30ea\u30fc\u30c9\u30df\u30cb\u30aa\u30f3",
        "P_XBB_UNIT_IDS": "12:103",
        "P_COST_INFO": "1,1",
        "8NW7zK2A": "1",
        "P_SCRIPT": "-1",
        "P_ICON_ID": "2222",
        "ux6R7ADp": "200014",
        "5jigH1P7": "80",
        "Mz9Lw4Vv": "50100011",
        "u6F9pqnt": ",50100013",
        "P_ACTION_ID": "0",
        "yT1o9jUZ": "",
        "P_DICTIONARY_NO": "0",
        "P_DICTIONARY_BG": "8",
        "P_SCHEDULE_ID": "0",
        "P_NEED_SWITCH_INFO": "0",
        "P_HIDE_SWITCH_INFO": "0",
        "P_OPEN_SWITCH_INFO": "0"
    },
    {
        "P_XBB_ID": "1030305",
        "P_XBB_NAME": "\u30db\u30fc\u30ea\u30fc\u30c9\u30df\u30cb\u30aa\u30f3",
        "P_XBB_UNIT_IDS": "12:103",
        "P_COST_INFO": "1,1",
        "8NW7zK2A": "1",
        "P_SCRIPT": "-1",
        "P_ICON_ID": "2222",
        "ux6R7ADp": "200014",
        "5jigH1P7": "80",
        "Mz9Lw4Vv": "50100011",
        "u6F9pqnt": ",50100013",
        "P_ACTION_ID": "0",
        "yT1o9jUZ": "",
        "P_DICTIONARY_NO": "0",
        "P_DICTIONARY_BG": "8",
        "P_SCHEDULE_ID": "0",
        "P_NEED_SWITCH_INFO": "0",
        "P_HIDE_SWITCH_INFO": "0",
        "P_OPEN_SWITCH_INFO": "0"
    },
    {
        "P_XBB_ID": "1030306",
        "P_XBB_NAME": "\u30db\u30fc\u30ea\u30fc\u30c9\u30df\u30cb\u30aa\u30f3",
        "P_XBB_UNIT_IDS": "12:103",
        "P_COST_INFO": "1,1",
        "8NW7zK2A": "1",
        "P_SCRIPT": "-1",
        "P_ICON_ID": "2222",
        "ux6R7ADp": "200014",
        "5jigH1P7": "80",
        "Mz9Lw4Vv": "50100011",
        "u6F9pqnt": ",50100013",
        "P_ACTION_ID": "0",
        "yT1o9jUZ": "",
        "P_DICTIONARY_NO": "0",
        "P_DICTIONARY_BG": "8",
        "P_SCHEDULE_ID": "0",
        "P_NEED_SWITCH_INFO": "0",
        "P_HIDE_SWITCH_INFO": "0",
        "P_OPEN_SWITCH_INFO": "0"
    },
    {
        "P_XBB_ID": "1040101",
        "P_XBB_NAME": "\u30d6\u30e9\u30b9\u30c8\u30d6\u30ec\u30a4\u30ba",
        "P_XBB_UNIT_IDS": "12:104",
        "P_COST_INFO": "1,1",
        "8NW7zK2A": "1",
        "P_SCRIPT": "-1",
        "P_ICON_ID": "2222",
        "ux6R7ADp": "200014",
        "5jigH1P7": "80",
        "Mz9Lw4Vv": "50100011",
        "u6F9pqnt": ",50100013",
        "P_ACTION_ID": "0",
        "yT1o9jUZ": "",
        "P_DICTIONARY_NO": "0",
        "P_DICTIONARY_BG": "8",
        "P_SCHEDULE_ID": "0",
        "P_NEED_SWITCH_INFO": "0",
        "P_HIDE_SWITCH_INFO": "0",
        "P_OPEN_SWITCH_INFO": "0"
    },
    {
        "P_XBB_ID": "1040102",
        "P_XBB_NAME": "\u30d6\u30e9\u30b9\u30c8\u30d6\u30ec\u30a4\u30ba",
        "P_XBB_UNIT_IDS": "12:104",
        "P_COST_INFO": "1,1",
        "8NW7zK2A": "1",
        "P_SCRIPT": "-1",
        "P_ICON_ID": "2222",
        "ux6R7ADp": "200014",
        "5jigH1P7": "80",
        "Mz9Lw4Vv": "50100011",
        "u6F9pqnt": ",50100013",
        "P_ACTION_ID": "0",
        "yT1o9jUZ": "",
        "P_DICTIONARY_NO": "0",
        "P_DICTIONARY_BG": "8",
        "P_SCHEDULE_ID": "0",
        "P_NEED_SWITCH_INFO": "0",
        "P_HIDE_SWITCH_INFO": "0",
        "P_OPEN_SWITCH_INFO": "0"
    },
    {
        "P_XBB_ID": "1040103",
        "P_XBB_NAME": "\u30d6\u30e9\u30b9\u30c8\u30d6\u30ec\u30a4\u30ba",
        "P_XBB_UNIT_IDS": "12:104",
        "P_COST_INFO": "1,1",
        "8NW7zK2A": "1",
        "P_SCRIPT": "-1",
        "P_ICON_ID": "2222",
        "ux6R7ADp": "200014",
        "5jigH1P7": "80",
        "Mz9Lw4Vv": "50100011",
        "u6F9pqnt": ",50100013",
        "P_ACTION_ID": "0",
        "yT1o9jUZ": "",
        "P_DICTIONARY_NO": "0",
        "P_DICTIONARY_BG": "8",
        "P_SCHEDULE_ID": "0",
        "P_NEED_SWITCH_INFO": "0",
        "P_HIDE_SWITCH_INFO": "0",
        "P_OPEN_SWITCH_INFO": "0"
    },
    {
        "P_XBB_ID": "1040104",
        "P_XBB_NAME": "\u30d6\u30e9\u30b9\u30c8\u30d6\u30ec\u30a4\u30ba",
        "P_XBB_UNIT_IDS": "12:104",
        "P_COST_INFO": "1,1",
        "8NW7zK2A": "1",
        "P_SCRIPT": "-1",
        "P_ICON_ID": "2222",
        "ux6R7ADp": "200014",
        "5jigH1P7": "80",
        "Mz9Lw4Vv": "50100011",
        "u6F9pqnt": ",50100013",
        "P_ACTION_ID": "0",
        "yT1o9jUZ": "",
        "P_DICTIONARY_NO": "0",
        "P_DICTIONARY_BG": "8",
        "P_SCHEDULE_ID": "0",
        "P_NEED_SWITCH_INFO": "0",
        "P_HIDE_SWITCH_INFO": "0",
        "P_OPEN_SWITCH_INFO": "0"
    },
    {
        "P_XBB_ID": "1040105",
        "P_XBB_NAME": "\u30d6\u30e9\u30b9\u30c8\u30d6\u30ec\u30a4\u30ba",
        "P_XBB_UNIT_IDS": "12:104",
        "P_COST_INFO": "1,1",
        "8NW7zK2A": "1",
        "P_SCRIPT": "-1",
        "P_ICON_ID": "2222",
        "ux6R7ADp": "200014",
        "5jigH1P7": "80",
        "Mz9Lw4Vv": "50100011",
        "u6F9pqnt": ",50100013",
        "P_ACTION_ID": "0",
        "yT1o9jUZ": "",
        "P_DICTIONARY_NO": "0",
        "P_DICTIONARY_BG": "8",
        "P_SCHEDULE_ID": "0",
        "P_NEED_SWITCH_INFO": "0",
        "P_HIDE_SWITCH_INFO": "0",
        "P_OPEN_SWITCH_INFO": "0"
    },
    {
        "P_XBB_ID": "1040106",
        "P_XBB_NAME": "\u30d6\u30e9\u30b9\u30c8\u30d6\u30ec\u30a4\u30ba",
        "P_XBB_UNIT_IDS": "12:104",
        "P_COST_INFO": "1,1",
        "8NW7zK2A": "1",
        "P_SCRIPT": "-1",
        "P_ICON_ID": "2222",
        "ux6R7ADp": "200014",
        "5jigH1P7": "80",
        "Mz9Lw4Vv": "50100011",
        "u6F9pqnt": ",50100013",
        "P_ACTION_ID": "0",
        "yT1o9jUZ": "",
        "P_DICTIONARY_NO": "0",
        "P_DICTIONARY_BG": "8",
        "P_SCHEDULE_ID": "0",
        "P_NEED_SWITCH_INFO": "0",
        "P_HIDE_SWITCH_INFO": "0",
        "P_OPEN_SWITCH_INFO": "0"
    },
    {
        "P_XBB_ID": "1040107",
        "P_XBB_NAME": "\u30d6\u30e9\u30b9\u30c8\u30d6\u30ec\u30a4\u30ba",
        "P_XBB_UNIT_IDS": "12:104",
        "P_COST_INFO": "1,1",
        "8NW7zK2A": "1",
        "P_SCRIPT": "-1",
        "P_ICON_ID": "2222",
        "ux6R7ADp": "200014",
        "5jigH1P7": "80",
        "Mz9Lw4Vv": "50100011",
        "u6F9pqnt": ",50100013",
        "P_ACTION_ID": "0",
        "yT1o9jUZ": "",
        "P_DICTIONARY_NO": "0",
        "P_DICTIONARY_BG": "8",
        "P_SCHEDULE_ID": "0",
        "P_NEED_SWITCH_INFO": "0",
        "P_HIDE_SWITCH_INFO": "0",
        "P_OPEN_SWITCH_INFO": "0"
    },
    {
        "P_XBB_ID": "1040108",
        "P_XBB_NAME": "\u30d6\u30e9\u30b9\u30c8\u30d6\u30ec\u30a4\u30ba",
        "P_XBB_UNIT_IDS": "12:104",
        "P_COST_INFO": "1,1",
        "8NW7zK2A": "1",
        "P_SCRIPT": "-1",
        "P_ICON_ID": "2222",
        "ux6R7ADp": "200014",
        "5jigH1P7": "80",
        "Mz9Lw4Vv": "50100011",
        "u6F9pqnt": ",50100013",
        "P_ACTION_ID": "0",
        "yT1o9jUZ": "",
        "P_DICTIONARY_NO": "0",
        "P_DICTIONARY_BG": "8",
        "P_SCHEDULE_ID": "0",
        "P_NEED_SWITCH_INFO": "0",
        "P_HIDE_SWITCH_INFO": "0",
        "P_OPEN_SWITCH_INFO": "0"
    },
    {
        "P_XBB_ID": "1040201",
        "P_XBB_NAME": "\u30de\u30a4\u30c6\u30a3\u30d5\u30e9\u30e0",
        "P_XBB_UNIT_IDS": "12:104",
        "P_COST_INFO": "1,1",
        "8NW7zK2A": "1",
        "P_SCRIPT": "-1",
        "P_ICON_ID": "2222",
        "ux6R7ADp": "200014",
        "5jigH1P7": "80",
        "Mz9Lw4Vv": "50100011",
        "u6F9pqnt": ",50100013",
        "P_ACTION_ID": "0",
        "yT1o9jUZ": "",
        "P_DICTIONARY_NO": "0",
        "P_DICTIONARY_BG": "8",
        "P_SCHEDULE_ID": "0",
        "P_NEED_SWITCH_INFO": "0",
        "P_HIDE_SWITCH_INFO": "0",
        "P_OPEN_SWITCH_INFO": "0"
    },
    {
        "P_XBB_ID": "1040202",
        "P_XBB_NAME": "\u30de\u30a4\u30c6\u30a3\u30d5\u30e9\u30e0",
        "P_XBB_UNIT_IDS": "12:104",
        "P_COST_INFO": "1,1",
        "8NW7zK2A": "1",
        "P_SCRIPT": "-1",
        "P_ICON_ID": "2222",
        "ux6R7ADp": "200014",
        "5jigH1P7": "80",
        "Mz9Lw4Vv": "50100011",
        "u6F9pqnt": ",50100013",
        "P_ACTION_ID": "0",
        "yT1o9jUZ": "",
        "P_DICTIONARY_NO": "0",
        "P_DICTIONARY_BG": "8",
        "P_SCHEDULE_ID": "0",
        "P_NEED_SWITCH_INFO": "0",
        "P_HIDE_SWITCH_INFO": "0",
        "P_OPEN_SWITCH_INFO": "0"
    },
    {
        "P_XBB_ID": "1040203",
        "P_XBB_NAME": "\u30de\u30a4\u30c6\u30a3\u30d5\u30e9\u30e0",
        "P_XBB_UNIT_IDS": "12:104",
        "P_COST_INFO": "1,1",
        "8NW7zK2A": "1",
        "P_SCRIPT": "-1",
        "P_ICON_ID": "2222",
        "ux6R7ADp": "200014",
        "5jigH1P7": "80",
        "Mz9Lw4Vv": "50100011",
        "u6F9pqnt": ",50100013",
        "P_ACTION_ID": "0",
        "yT1o9jUZ": "",
        "P_DICTIONARY_NO": "0",
        "P_DICTIONARY_BG": "8",
        "P_SCHEDULE_ID": "0",
        "P_NEED_SWITCH_INFO": "0",
        "P_HIDE_SWITCH_INFO": "0",
        "P_OPEN_SWITCH_INFO": "0"
    },
    {
        "P_XBB_ID": "1040204",
        "P_XBB_NAME": "\u30de\u30a4\u30c6\u30a3\u30d5\u30e9\u30e0",
        "P_XBB_UNIT_IDS": "12:104",
        "P_COST_INFO": "1,1",
        "8NW7zK2A": "1",
        "P_SCRIPT": "-1",
        "P_ICON_ID": "2222",
        "ux6R7ADp": "200014",
        "5jigH1P7": "80",
        "Mz9Lw4Vv": "50100011",
        "u6F9pqnt": ",50100013",
        "P_ACTION_ID": "0",
        "yT1o9jUZ": "",
        "P_DICTIONARY_NO": "0",
        "P_DICTIONARY_BG": "8",
        "P_SCHEDULE_ID": "0",
        "P_NEED_SWITCH_INFO": "0",
        "P_HIDE_SWITCH_INFO": "0",
        "P_OPEN_SWITCH_INFO": "0"
    },
    {
        "P_XBB_ID": "1040205",
        "P_XBB_NAME": "\u30de\u30a4\u30c6\u30a3\u30d5\u30e9\u30e0",
        "P_XBB_UNIT_IDS": "12:104",
        "P_COST_INFO": "1,1",
        "8NW7zK2A": "1",
        "P_SCRIPT": "-1",
        "P_ICON_ID": "2222",
        "ux6R7ADp": "200014",
        "5jigH1P7": "80",
        "Mz9Lw4Vv": "50100011",
        "u6F9pqnt": ",50100013",
        "P_ACTION_ID": "0",
        "yT1o9jUZ": "",
        "P_DICTIONARY_NO": "0",
        "P_DICTIONARY_BG": "8",
        "P_SCHEDULE_ID": "0",
        "P_NEED_SWITCH_INFO": "0",
        "P_HIDE_SWITCH_INFO": "0",
        "P_OPEN_SWITCH_INFO": "0"
    },
    {
        "P_XBB_ID": "1040206",
        "P_XBB_NAME": "\u30de\u30a4\u30c6\u30a3\u30d5\u30e9\u30e0",
        "P_XBB_UNIT_IDS": "12:104",
        "P_COST_INFO": "1,1",
        "8NW7zK2A": "1",
        "P_SCRIPT": "-1",
        "P_ICON_ID": "2222",
        "ux6R7ADp": "200014",
        "5jigH1P7": "80",
        "Mz9Lw4Vv": "50100011",
        "u6F9pqnt": ",50100013",
        "P_ACTION_ID": "0",
        "yT1o9jUZ": "",
        "P_DICTIONARY_NO": "0",
        "P_DICTIONARY_BG": "8",
        "P_SCHEDULE_ID": "0",
        "P_NEED_SWITCH_INFO": "0",
        "P_HIDE_SWITCH_INFO": "0",
        "P_OPEN_SWITCH_INFO": "0"
    },
    {
        "P_XBB_ID": "1040207",
        "P_XBB_NAME": "\u30de\u30a4\u30c6\u30a3\u30d5\u30e9\u30e0",
        "P_XBB_UNIT_IDS": "12:104",
        "P_COST_INFO": "1,1",
        "8NW7zK2A": "1",
        "P_SCRIPT": "-1",
        "P_ICON_ID": "2222",
        "ux6R7ADp": "200014",
        "5jigH1P7": "80",
        "Mz9Lw4Vv": "50100011",
        "u6F9pqnt": ",50100013",
        "P_ACTION_ID": "0",
        "yT1o9jUZ": "",
        "P_DICTIONARY_NO": "0",
        "P_DICTIONARY_BG": "8",
        "P_SCHEDULE_ID": "0",
        "P_NEED_SWITCH_INFO": "0",
        "P_HIDE_SWITCH_INFO": "0",
        "P_OPEN_SWITCH_INFO": "0"
    },
    {
        "P_XBB_ID": "1040208",
        "P_XBB_NAME": "\u30de\u30a4\u30c6\u30a3\u30d5\u30e9\u30e0",
        "P_XBB_UNIT_IDS": "12:104",
        "P_COST_INFO": "1,1",
        "8NW7zK2A": "1",
        "P_SCRIPT": "-1",
        "P_ICON_ID": "2222",
        "ux6R7ADp": "200014",
        "5jigH1P7": "80",
        "Mz9Lw4Vv": "50100011",
        "u6F9pqnt": ",50100013",
        "P_ACTION_ID": "0",
        "yT1o9jUZ": "",
        "P_DICTIONARY_NO": "0",
        "P_DICTIONARY_BG": "8",
        "P_SCHEDULE_ID": "0",
        "P_NEED_SWITCH_INFO": "0",
        "P_HIDE_SWITCH_INFO": "0",
        "P_OPEN_SWITCH_INFO": "0"
    },
    {
        "P_XBB_ID": "1040209",
        "P_XBB_NAME": "\u30de\u30a4\u30c6\u30a3\u30d5\u30e9\u30e0",
        "P_XBB_UNIT_IDS": "12:104",
        "P_COST_INFO": "1,1",
        "8NW7zK2A": "1",
        "P_SCRIPT": "-1",
        "P_ICON_ID": "2222",
        "ux6R7ADp": "200014",
        "5jigH1P7": "80",
        "Mz9Lw4Vv": "50100011",
        "u6F9pqnt": ",50100013",
        "P_ACTION_ID": "0",
        "yT1o9jUZ": "",
        "P_DICTIONARY_NO": "0",
        "P_DICTIONARY_BG": "8",
        "P_SCHEDULE_ID": "0",
        "P_NEED_SWITCH_INFO": "0",
        "P_HIDE_SWITCH_INFO": "0",
        "P_OPEN_SWITCH_INFO": "0"
    },
    {
        "P_XBB_ID": "1040301",
        "P_XBB_NAME": "\u30c7\u30a3\u30f4\u30a1\u30a4\u30f3\u30c9\u30df\u30cb\u30aa\u30f3",
        "P_XBB_UNIT_IDS": "12:104",
        "P_COST_INFO": "1,1",
        "8NW7zK2A": "1",
        "P_SCRIPT": "-1",
        "P_ICON_ID": "2222",
        "ux6R7ADp": "200014",
        "5jigH1P7": "80",
        "Mz9Lw4Vv": "50100011",
        "u6F9pqnt": ",50100013",
        "P_ACTION_ID": "0",
        "yT1o9jUZ": "",
        "P_DICTIONARY_NO": "0",
        "P_DICTIONARY_BG": "8",
        "P_SCHEDULE_ID": "0",
        "P_NEED_SWITCH_INFO": "0",
        "P_HIDE_SWITCH_INFO": "0",
        "P_OPEN_SWITCH_INFO": "0"
    },
    {
        "P_XBB_ID": "1040302",
        "P_XBB_NAME": "\u30c7\u30a3\u30f4\u30a1\u30a4\u30f3\u30c9\u30df\u30cb\u30aa\u30f3",
        "P_XBB_UNIT_IDS": "12:104",
        "P_COST_INFO": "1,1",
        "8NW7zK2A": "1",
        "P_SCRIPT": "-1",
        "P_ICON_ID": "2222",
        "ux6R7ADp": "200014",
        "5jigH1P7": "80",
        "Mz9Lw4Vv": "50100011",
        "u6F9pqnt": ",50100013",
        "P_ACTION_ID": "0",
        "yT1o9jUZ": "",
        "P_DICTIONARY_NO": "0",
        "P_DICTIONARY_BG": "8",
        "P_SCHEDULE_ID": "0",
        "P_NEED_SWITCH_INFO": "0",
        "P_HIDE_SWITCH_INFO": "0",
        "P_OPEN_SWITCH_INFO": "0"
    },
    {
        "P_XBB_ID": "1040303",
        "P_XBB_NAME": "\u30c7\u30a3\u30f4\u30a1\u30a4\u30f3\u30c9\u30df\u30cb\u30aa\u30f3",
        "P_XBB_UNIT_IDS": "12:104",
        "P_COST_INFO": "1,1",
        "8NW7zK2A": "1",
        "P_SCRIPT": "-1",
        "P_ICON_ID": "2222",
        "ux6R7ADp": "200014",
        "5jigH1P7": "80",
        "Mz9Lw4Vv": "50100011",
        "u6F9pqnt": ",50100013",
        "P_ACTION_ID": "0",
        "yT1o9jUZ": "",
        "P_DICTIONARY_NO": "0",
        "P_DICTIONARY_BG": "8",
        "P_SCHEDULE_ID": "0",
        "P_NEED_SWITCH_INFO": "0",
        "P_HIDE_SWITCH_INFO": "0",
        "P_OPEN_SWITCH_INFO": "0"
    },
    {
        "P_XBB_ID": "1040304",
        "P_XBB_NAME": "\u30c7\u30a3\u30f4\u30a1\u30a4\u30f3\u30c9\u30df\u30cb\u30aa\u30f3",
        "P_XBB_UNIT_IDS": "12:104",
        "P_COST_INFO": "1,1",
        "8NW7zK2A": "1",
        "P_SCRIPT": "-1",
        "P_ICON_ID": "2222",
        "ux6R7ADp": "200014",
        "5jigH1P7": "80",
        "Mz9Lw4Vv": "50100011",
        "u6F9pqnt": ",50100013",
        "P_ACTION_ID": "0",
        "yT1o9jUZ": "",
        "P_DICTIONARY_NO": "0",
        "P_DICTIONARY_BG": "8",
        "P_SCHEDULE_ID": "0",
        "P_NEED_SWITCH_INFO": "0",
        "P_HIDE_SWITCH_INFO": "0",
        "P_OPEN_SWITCH_INFO": "0"
    },
    {
        "P_XBB_ID": "1040305",
        "P_XBB_NAME": "\u30c7\u30a3\u30f4\u30a1\u30a4\u30f3\u30c9\u30df\u30cb\u30aa\u30f3",
        "P_XBB_UNIT_IDS": "12:104",
        "P_COST_INFO": "1,1",
        "8NW7zK2A": "1",
        "P_SCRIPT": "-1",
        "P_ICON_ID": "2222",
        "ux6R7ADp": "200014",
        "5jigH1P7": "80",
        "Mz9Lw4Vv": "50100011",
        "u6F9pqnt": ",50100013",
        "P_ACTION_ID": "0",
        "yT1o9jUZ": "",
        "P_DICTIONARY_NO": "0",
        "P_DICTIONARY_BG": "8",
        "P_SCHEDULE_ID": "0",
        "P_NEED_SWITCH_INFO": "0",
        "P_HIDE_SWITCH_INFO": "0",
        "P_OPEN_SWITCH_INFO": "0"
    },
    {
        "P_XBB_ID": "1040306",
        "P_XBB_NAME": "\u30c7\u30a3\u30f4\u30a1\u30a4\u30f3\u30c9\u30df\u30cb\u30aa\u30f3",
        "P_XBB_UNIT_IDS": "12:104",
        "P_COST_INFO": "1,1",
        "8NW7zK2A": "1",
        "P_SCRIPT": "-1",
        "P_ICON_ID": "2222",
        "ux6R7ADp": "200014",
        "5jigH1P7": "80",
        "Mz9Lw4Vv": "50100011",
        "u6F9pqnt": ",50100013",
        "P_ACTION_ID": "0",
        "yT1o9jUZ": "",
        "P_DICTIONARY_NO": "0",
        "P_DICTIONARY_BG": "8",
        "P_SCHEDULE_ID": "0",
        "P_NEED_SWITCH_INFO": "0",
        "P_HIDE_SWITCH_INFO": "0",
        "P_OPEN_SWITCH_INFO": "0"
    },
    {
        "P_XBB_ID": "1040307",
        "P_XBB_NAME": "\u30c7\u30a3\u30f4\u30a1\u30a4\u30f3\u30c9\u30df\u30cb\u30aa\u30f3",
        "P_XBB_UNIT_IDS": "12:104",
        "P_COST_INFO": "1,1",
        "8NW7zK2A": "1",
        "P_SCRIPT": "-1",
        "P_ICON_ID": "2222",
        "ux6R7ADp": "200014",
        "5jigH1P7": "80",
        "Mz9Lw4Vv": "50100011",
        "u6F9pqnt": ",50100013",
        "P_ACTION_ID": "0",
        "yT1o9jUZ": "",
        "P_DICTIONARY_NO": "0",
        "P_DICTIONARY_BG": "8",
        "P_SCHEDULE_ID": "0",
        "P_NEED_SWITCH_INFO": "0",
        "P_HIDE_SWITCH_INFO": "0",
        "P_OPEN_SWITCH_INFO": "0"
    },
    {
        "P_XBB_ID": "1040308",
        "P_XBB_NAME": "\u30c7\u30a3\u30f4\u30a1\u30a4\u30f3\u30c9\u30df\u30cb\u30aa\u30f3",
        "P_XBB_UNIT_IDS": "12:104",
        "P_COST_INFO": "1,1",
        "8NW7zK2A": "1",
        "P_SCRIPT": "-1",
        "P_ICON_ID": "2222",
        "ux6R7ADp": "200014",
        "5jigH1P7": "80",
        "Mz9Lw4Vv": "50100011",
        "u6F9pqnt": ",50100013",
        "P_ACTION_ID": "0",
        "yT1o9jUZ": "",
        "P_DICTIONARY_NO": "0",
        "P_DICTIONARY_BG": "8",
        "P_SCHEDULE_ID": "0",
        "P_NEED_SWITCH_INFO": "0",
        "P_HIDE_SWITCH_INFO": "0",
        "P_OPEN_SWITCH_INFO": "0"
    },
    {
        "P_XBB_ID": "1040401",
        "P_XBB_NAME": "\u30bd\u30eb\u30d0\u30b9\u30bf\u30fc",
        "P_XBB_UNIT_IDS": "12:104",
        "P_COST_INFO": "1,1",
        "8NW7zK2A": "1",
        "P_SCRIPT": "-1",
        "P_ICON_ID": "2222",
        "ux6R7ADp": "200014",
        "5jigH1P7": "80",
        "Mz9Lw4Vv": "50100011",
        "u6F9pqnt": ",50100013",
        "P_ACTION_ID": "0",
        "yT1o9jUZ": "",
        "P_DICTIONARY_NO": "0",
        "P_DICTIONARY_BG": "8",
        "P_SCHEDULE_ID": "0",
        "P_NEED_SWITCH_INFO": "0",
        "P_HIDE_SWITCH_INFO": "0",
        "P_OPEN_SWITCH_INFO": "0"
    },
    {
        "P_XBB_ID": "1040402",
        "P_XBB_NAME": "\u30bd\u30eb\u30d0\u30b9\u30bf\u30fc",
        "P_XBB_UNIT_IDS": "12:104",
        "P_COST_INFO": "1,1",
        "8NW7zK2A": "1",
        "P_SCRIPT": "-1",
        "P_ICON_ID": "2222",
        "ux6R7ADp": "200014",
        "5jigH1P7": "80",
        "Mz9Lw4Vv": "50100011",
        "u6F9pqnt": ",50100013",
        "P_ACTION_ID": "0",
        "yT1o9jUZ": "",
        "P_DICTIONARY_NO": "0",
        "P_DICTIONARY_BG": "8",
        "P_SCHEDULE_ID": "0",
        "P_NEED_SWITCH_INFO": "0",
        "P_HIDE_SWITCH_INFO": "0",
        "P_OPEN_SWITCH_INFO": "0"
    },
    {
        "P_XBB_ID": "1040403",
        "P_XBB_NAME": "\u30bd\u30eb\u30d0\u30b9\u30bf\u30fc",
        "P_XBB_UNIT_IDS": "12:104",
        "P_COST_INFO": "1,1",
        "8NW7zK2A": "1",
        "P_SCRIPT": "-1",
        "P_ICON_ID": "2222",
        "ux6R7ADp": "200014",
        "5jigH1P7": "80",
        "Mz9Lw4Vv": "50100011",
        "u6F9pqnt": ",50100013",
        "P_ACTION_ID": "0",
        "yT1o9jUZ": "",
        "P_DICTIONARY_NO": "0",
        "P_DICTIONARY_BG": "8",
        "P_SCHEDULE_ID": "0",
        "P_NEED_SWITCH_INFO": "0",
        "P_HIDE_SWITCH_INFO": "0",
        "P_OPEN_SWITCH_INFO": "0"
    },
    {
        "P_XBB_ID": "2010101",
        "P_XBB_NAME": "\u30ed\u30fc\u30c8\u30e9\u30c3\u30b7\u30e5",
        "P_XBB_UNIT_IDS": "12:201",
        "P_COST_INFO": "1,1",
        "8NW7zK2A": "1",
        "P_SCRIPT": "-1",
        "P_ICON_ID": "2222",
        "ux6R7ADp": "200014",
        "5jigH1P7": "80",
        "Mz9Lw4Vv": "50100011",
        "u6F9pqnt": ",50100013",
        "P_ACTION_ID": "0",
        "yT1o9jUZ": "",
        "P_DICTIONARY_NO": "0",
        "P_DICTIONARY_BG": "8",
        "P_SCHEDULE_ID": "0",
        "P_NEED_SWITCH_INFO": "0",
        "P_HIDE_SWITCH_INFO": "0",
        "P_OPEN_SWITCH_INFO": "0"
    },
    {
        "P_XBB_ID": "2020101",
        "P_XBB_NAME": "\u30a2\u30b5\u30eb\u30c8\u30e9\u30c3\u30b7\u30e5",
        "P_XBB_UNIT_IDS": "12:202",
        "P_COST_INFO": "1,1",
        "8NW7zK2A": "1",
        "P_SCRIPT": "-1",
        "P_ICON_ID": "2222",
        "ux6R7ADp": "200014",
        "5jigH1P7": "80",
        "Mz9Lw4Vv": "50100011",
        "u6F9pqnt": ",50100013",
        "P_ACTION_ID": "0",
        "yT1o9jUZ": "",
        "P_DICTIONARY_NO": "0",
        "P_DICTIONARY_BG": "8",
        "P_SCHEDULE_ID": "0",
        "P_NEED_SWITCH_INFO": "0",
        "P_HIDE_SWITCH_INFO": "0",
        "P_OPEN_SWITCH_INFO": "0"
    },
    {
        "P_XBB_ID": "2030101",
        "P_XBB_NAME": "\u30d5\u30ed\u30fc\u30ac\u30e9\u30c3\u30b7\u30e5",
        "P_XBB_UNIT_IDS": "12:203",
        "P_COST_INFO": "1,1",
        "8NW7zK2A": "1",
        "P_SCRIPT": "-1",
        "P_ICON_ID": "2222",
        "ux6R7ADp": "200014",
        "5jigH1P7": "80",
        "Mz9Lw4Vv": "50100011",
        "u6F9pqnt": ",50100013",
        "P_ACTION_ID": "0",
        "yT1o9jUZ": "",
        "P_DICTIONARY_NO": "0",
        "P_DICTIONARY_BG": "8",
        "P_SCHEDULE_ID": "0",
        "P_NEED_SWITCH_INFO": "0",
        "P_HIDE_SWITCH_INFO": "0",
        "P_OPEN_SWITCH_INFO": "0"
    },
    {
        "P_XBB_ID": "2030201",
        "P_XBB_NAME": "\u30b0\u30ec\u30a4\u30f4\u30b9\u30c6\u30a3\u30fc\u30eb",
        "P_XBB_UNIT_IDS": "12:203",
        "P_COST_INFO": "1,1",
        "8NW7zK2A": "1",
        "P_SCRIPT": "-1",
        "P_ICON_ID": "2222",
        "ux6R7ADp": "200014",
        "5jigH1P7": "80",
        "Mz9Lw4Vv": "50100011",
        "u6F9pqnt": ",50100013",
        "P_ACTION_ID": "0",
        "yT1o9jUZ": "",
        "P_DICTIONARY_NO": "0",
        "P_DICTIONARY_BG": "8",
        "P_SCHEDULE_ID": "0",
        "P_NEED_SWITCH_INFO": "0",
        "P_HIDE_SWITCH_INFO": "0",
        "P_OPEN_SWITCH_INFO": "0"
    },
    {
        "P_XBB_ID": "2030202",
        "P_XBB_NAME": "\u30b0\u30ec\u30a4\u30f4\u30b9\u30c6\u30a3\u30fc\u30eb",
        "P_XBB_UNIT_IDS": "12:203",
        "P_COST_INFO": "1,1",
        "8NW7zK2A": "1",
        "P_SCRIPT": "-1",
        "P_ICON_ID": "2222",
        "ux6R7ADp": "200014",
        "5jigH1P7": "80",
        "Mz9Lw4Vv": "50100011",
        "u6F9pqnt": ",50100013",
        "P_ACTION_ID": "0",
        "yT1o9jUZ": "",
        "P_DICTIONARY_NO": "0",
        "P_DICTIONARY_BG": "8",
        "P_SCHEDULE_ID": "0",
        "P_NEED_SWITCH_INFO": "0",
        "P_HIDE_SWITCH_INFO": "0",
        "P_OPEN_SWITCH_INFO": "0"
    },
    {
        "P_XBB_ID": "2030203",
        "P_XBB_NAME": "\u30b0\u30ec\u30a4\u30f4\u30b9\u30c6\u30a3\u30fc\u30eb",
        "P_XBB_UNIT_IDS": "12:203",
        "P_COST_INFO": "1,1",
        "8NW7zK2A": "1",
        "P_SCRIPT": "-1",
        "P_ICON_ID": "2222",
        "ux6R7ADp": "200014",
        "5jigH1P7": "80",
        "Mz9Lw4Vv": "50100011",
        "u6F9pqnt": ",50100013",
        "P_ACTION_ID": "0",
        "yT1o9jUZ": "",
        "P_DICTIONARY_NO": "0",
        "P_DICTIONARY_BG": "8",
        "P_SCHEDULE_ID": "0",
        "P_NEED_SWITCH_INFO": "0",
        "P_HIDE_SWITCH_INFO": "0",
        "P_OPEN_SWITCH_INFO": "0"
    },
    {
        "P_XBB_ID": "2031001",
        "P_XBB_NAME": "\u30c7\u30e5\u30fc\u30a4\u306e\u30d6\u30ec\u30a4\u30af\u30b7\u30e7\u30fc\uff01",
        "P_XBB_UNIT_IDS": "11:300484",
        "P_COST_INFO": "1,1",
        "8NW7zK2A": "1",
        "P_SCRIPT": "-1",
        "P_ICON_ID": "2222",
        "ux6R7ADp": "2031001",
        "5jigH1P7": "80",
        "Mz9Lw4Vv": "50100011",
        "u6F9pqnt": ",50100013",
        "P_ACTION_ID": "0",
        "yT1o9jUZ": "",
        "P_DICTIONARY_NO": "0",
        "P_DICTIONARY_BG": "8",
        "P_SCHEDULE_ID": "0",
        "P_NEED_SWITCH_INFO": "0",
        "P_HIDE_SWITCH_INFO": "0",
        "P_OPEN_SWITCH_INFO": "0"
    },
    {
        "P_XBB_ID": "2031002",
        "P_XBB_NAME": "\u30c7\u30e5\u30fc\u30a4\u5c02\u7528\u5f57\u8fc5\u5175\u88c5",
        "P_XBB_UNIT_IDS": "11:400494",
        "P_COST_INFO": "1,1",
        "8NW7zK2A": "1",
        "P_SCRIPT": "-1",
        "P_ICON_ID": "2222",
        "ux6R7ADp": "2031002",
        "5jigH1P7": "80",
        "Mz9Lw4Vv": "50100011",
        "u6F9pqnt": ",50100013",
        "P_ACTION_ID": "0",
        "yT1o9jUZ": "",
        "P_DICTIONARY_NO": "0",
        "P_DICTIONARY_BG": "8",
        "P_SCHEDULE_ID": "0",
        "P_NEED_SWITCH_INFO": "0",
        "P_HIDE_SWITCH_INFO": "0",
        "P_OPEN_SWITCH_INFO": "0"
    },
    {
        "P_XBB_ID": "2040101",
        "P_XBB_NAME": "\u30a2\u30fc\u30c0\u30eb\u30e9\u30c3\u30b7\u30e5",
        "P_XBB_UNIT_IDS": "12:204",
        "P_COST_INFO": "1,1",
        "8NW7zK2A": "1",
        "P_SCRIPT": "-1",
        "P_ICON_ID": "2222",
        "ux6R7ADp": "200014",
        "5jigH1P7": "80",
        "Mz9Lw4Vv": "50100011",
        "u6F9pqnt": ",50100013",
        "P_ACTION_ID": "0",
        "yT1o9jUZ": "",
        "P_DICTIONARY_NO": "0",
        "P_DICTIONARY_BG": "8",
        "P_SCHEDULE_ID": "0",
        "P_NEED_SWITCH_INFO": "0",
        "P_HIDE_SWITCH_INFO": "0",
        "P_OPEN_SWITCH_INFO": "0"
    },
    {
        "P_XBB_ID": "2040102",
        "P_XBB_NAME": "\u30a2\u30fc\u30c0\u30eb\u30e9\u30c3\u30b7\u30e5",
        "P_XBB_UNIT_IDS": "12:204",
        "P_COST_INFO": "1,1",
        "8NW7zK2A": "1",
        "P_SCRIPT": "-1",
        "P_ICON_ID": "2222",
        "ux6R7ADp": "200014",
        "5jigH1P7": "80",
        "Mz9Lw4Vv": "50100011",
        "u6F9pqnt": ",50100013",
        "P_ACTION_ID": "0",
        "yT1o9jUZ": "",
        "P_DICTIONARY_NO": "0",
        "P_DICTIONARY_BG": "8",
        "P_SCHEDULE_ID": "0",
        "P_NEED_SWITCH_INFO": "0",
        "P_HIDE_SWITCH_INFO": "0",
        "P_OPEN_SWITCH_INFO": "0"
    },
    {
        "P_XBB_ID": "2040103",
        "P_XBB_NAME": "\u30a2\u30fc\u30c0\u30eb\u30e9\u30c3\u30b7\u30e5",
        "P_XBB_UNIT_IDS": "12:204",
        "P_COST_INFO": "1,1",
        "8NW7zK2A": "1",
        "P_SCRIPT": "-1",
        "P_ICON_ID": "2222",
        "ux6R7ADp": "200014",
        "5jigH1P7": "80",
        "Mz9Lw4Vv": "50100011",
        "u6F9pqnt": ",50100013",
        "P_ACTION_ID": "0",
        "yT1o9jUZ": "",
        "P_DICTIONARY_NO": "0",
        "P_DICTIONARY_BG": "8",
        "P_SCHEDULE_ID": "0",
        "P_NEED_SWITCH_INFO": "0",
        "P_HIDE_SWITCH_INFO": "0",
        "P_OPEN_SWITCH_INFO": "0"
    },
    {
        "P_XBB_ID": "2040201",
        "P_XBB_NAME": "\u30f4\u30a3\u30ac\u30fc\u30b9\u30c6\u30a3\u30fc\u30eb",
        "P_XBB_UNIT_IDS": "12:204",
        "P_COST_INFO": "1,1",
        "8NW7zK2A": "1",
        "P_SCRIPT": "-1",
        "P_ICON_ID": "2222",
        "ux6R7ADp": "200014",
        "5jigH1P7": "80",
        "Mz9Lw4Vv": "50100011",
        "u6F9pqnt": ",50100013",
        "P_ACTION_ID": "0",
        "yT1o9jUZ": "",
        "P_DICTIONARY_NO": "0",
        "P_DICTIONARY_BG": "8",
        "P_SCHEDULE_ID": "0",
        "P_NEED_SWITCH_INFO": "0",
        "P_HIDE_SWITCH_INFO": "0",
        "P_OPEN_SWITCH_INFO": "0"
    },
    {
        "P_XBB_ID": "2040202",
        "P_XBB_NAME": "\u30f4\u30a3\u30ac\u30fc\u30b9\u30c6\u30a3\u30fc\u30eb",
        "P_XBB_UNIT_IDS": "12:204",
        "P_COST_INFO": "1,1",
        "8NW7zK2A": "1",
        "P_SCRIPT": "-1",
        "P_ICON_ID": "2222",
        "ux6R7ADp": "200014",
        "5jigH1P7": "80",
        "Mz9Lw4Vv": "50100011",
        "u6F9pqnt": ",50100013",
        "P_ACTION_ID": "0",
        "yT1o9jUZ": "",
        "P_DICTIONARY_NO": "0",
        "P_DICTIONARY_BG": "8",
        "P_SCHEDULE_ID": "0",
        "P_NEED_SWITCH_INFO": "0",
        "P_HIDE_SWITCH_INFO": "0",
        "P_OPEN_SWITCH_INFO": "0"
    },
    {
        "P_XBB_ID": "2040203",
        "P_XBB_NAME": "\u30f4\u30a3\u30ac\u30fc\u30b9\u30c6\u30a3\u30fc\u30eb",
        "P_XBB_UNIT_IDS": "12:204",
        "P_COST_INFO": "1,1",
        "8NW7zK2A": "1",
        "P_SCRIPT": "-1",
        "P_ICON_ID": "2222",
        "ux6R7ADp": "200014",
        "5jigH1P7": "80",
        "Mz9Lw4Vv": "50100011",
        "u6F9pqnt": ",50100013",
        "P_ACTION_ID": "0",
        "yT1o9jUZ": "",
        "P_DICTIONARY_NO": "0",
        "P_DICTIONARY_BG": "8",
        "P_SCHEDULE_ID": "0",
        "P_NEED_SWITCH_INFO": "0",
        "P_HIDE_SWITCH_INFO": "0",
        "P_OPEN_SWITCH_INFO": "0"
    },
    {
        "P_XBB_ID": "2040204",
        "P_XBB_NAME": "\u30f4\u30a3\u30ac\u30fc\u30b9\u30c6\u30a3\u30fc\u30eb",
        "P_XBB_UNIT_IDS": "12:204",
        "P_COST_INFO": "1,1",
        "8NW7zK2A": "1",
        "P_SCRIPT": "-1",
        "P_ICON_ID": "2222",
        "ux6R7ADp": "200014",
        "5jigH1P7": "80",
        "Mz9Lw4Vv": "50100011",
        "u6F9pqnt": ",50100013",
        "P_ACTION_ID": "0",
        "yT1o9jUZ": "",
        "P_DICTIONARY_NO": "0",
        "P_DICTIONARY_BG": "8",
        "P_SCHEDULE_ID": "0",
        "P_NEED_SWITCH_INFO": "0",
        "P_HIDE_SWITCH_INFO": "0",
        "P_OPEN_SWITCH_INFO": "0"
    },
    {
        "P_XBB_ID": "2040205",
        "P_XBB_NAME": "\u30f4\u30a3\u30ac\u30fc\u30b9\u30c6\u30a3\u30fc\u30eb",
        "P_XBB_UNIT_IDS": "12:204",
        "P_COST_INFO": "1,1",
        "8NW7zK2A": "1",
        "P_SCRIPT": "-1",
        "P_ICON_ID": "2222",
        "ux6R7ADp": "200014",
        "5jigH1P7": "80",
        "Mz9Lw4Vv": "50100011",
        "u6F9pqnt": ",50100013",
        "P_ACTION_ID": "0",
        "yT1o9jUZ": "",
        "P_DICTIONARY_NO": "0",
        "P_DICTIONARY_BG": "8",
        "P_SCHEDULE_ID": "0",
        "P_NEED_SWITCH_INFO": "0",
        "P_HIDE_SWITCH_INFO": "0",
        "P_OPEN_SWITCH_INFO": "0"
    },
    {
        "P_XBB_ID": "2040301",
        "P_XBB_NAME": "\u30c7\u30e5\u30fc\u30a4\u30c9\u30e9\u30a4\u30f4",
        "P_XBB_UNIT_IDS": "12:204",
        "P_COST_INFO": "1,1",
        "8NW7zK2A": "1",
        "P_SCRIPT": "-1",
        "P_ICON_ID": "2222",
        "ux6R7ADp": "200014",
        "5jigH1P7": "80",
        "Mz9Lw4Vv": "50100011",
        "u6F9pqnt": ",50100013",
        "P_ACTION_ID": "0",
        "yT1o9jUZ": "",
        "P_DICTIONARY_NO": "0",
        "P_DICTIONARY_BG": "8",
        "P_SCHEDULE_ID": "0",
        "P_NEED_SWITCH_INFO": "0",
        "P_HIDE_SWITCH_INFO": "0",
        "P_OPEN_SWITCH_INFO": "0"
    },
    {
        "P_XBB_ID": "2040302",
        "P_XBB_NAME": "\u30c7\u30e5\u30fc\u30a4\u30c9\u30e9\u30a4\u30f4",
        "P_XBB_UNIT_IDS": "12:204",
        "P_COST_INFO": "1,1",
        "8NW7zK2A": "1",
        "P_SCRIPT": "-1",
        "P_ICON_ID": "2222",
        "ux6R7ADp": "200014",
        "5jigH1P7": "80",
        "Mz9Lw4Vv": "50100011",
        "u6F9pqnt": ",50100013",
        "P_ACTION_ID": "0",
        "yT1o9jUZ": "",
        "P_DICTIONARY_NO": "0",
        "P_DICTIONARY_BG": "8",
        "P_SCHEDULE_ID": "0",
        "P_NEED_SWITCH_INFO": "0",
        "P_HIDE_SWITCH_INFO": "0",
        "P_OPEN_SWITCH_INFO": "0"
    },
    {
        "P_XBB_ID": "2040303",
        "P_XBB_NAME": "\u30c7\u30e5\u30fc\u30a4\u30c9\u30e9\u30a4\u30f4",
        "P_XBB_UNIT_IDS": "12:204",
        "P_COST_INFO": "1,1",
        "8NW7zK2A": "1",
        "P_SCRIPT": "-1",
        "P_ICON_ID": "2222",
        "ux6R7ADp": "200014",
        "5jigH1P7": "80",
        "Mz9Lw4Vv": "50100011",
        "u6F9pqnt": ",50100013",
        "P_ACTION_ID": "0",
        "yT1o9jUZ": "",
        "P_DICTIONARY_NO": "0",
        "P_DICTIONARY_BG": "8",
        "P_SCHEDULE_ID": "0",
        "P_NEED_SWITCH_INFO": "0",
        "P_HIDE_SWITCH_INFO": "0",
        "P_OPEN_SWITCH_INFO": "0"
    }
]